{"preview":false,"result":{"eventType":"AwsApiCall","eventName":"UpdateSAMLProvider","requestParameters.sAMLProviderArn":"arn:aws:iam::111111111111:saml-provider/rodsotoonmicrosoft","userIdentity.sessionContext.sessionIssuer.arn":"arn:aws:iam::111111111111:role/rodonmicrotestrole","sourceIPAddress":"66.176.252.11","userIdentity.accessKeyId":"ASIAYTOGP2RLMZGPIW6C","userIdentity.principalId":"AROAYTOGP2RLKFUVAQAIJ:rodsoto@rodsoto.onmicrosoft.com"}}
{"preview":false,"result":{"eventType":"AwsApiCall","eventName":"UpdateSAMLProvider","requestParameters.sAMLProviderArn":"arn:aws:iam::111111111111:saml-provider/ADFS","userIdentity.sessionContext.sessionIssuer.arn":"arn:aws:iam::111111111111:role/okta_adm_role","sourceIPAddress":"66.176.252.11","userIdentity.accessKeyId":"ASIAYTOGP2RLPTSPRVXB","userIdentity.principalId":"AROAIJIESMXKGCJRCTPR6:rsoto@splunk.local"}}
{"preview":false,"result":{"eventType":"AwsApiCall","eventName":"UpdateSAMLProvider","requestParameters.sAMLProviderArn":"arn:aws:iam::111111111111:saml-provider/ADFS","userIdentity.sessionContext.sessionIssuer.arn":"arn:aws:iam::111111111111:role/okta_adm_role","sourceIPAddress":"66.176.252.11","userIdentity.accessKeyId":"ASIAYTOGP2RLPTSPRVXB","userIdentity.principalId":"AROAIJIESMXKGCJRCTPR6:rsoto@splunk.local"}}
{"preview":false,"result":{"eventType":"AwsApiCall","eventName":"UpdateSAMLProvider","requestParameters.sAMLProviderArn":"arn:aws:iam::111111111111:saml-provider/ADFS","userIdentity.sessionContext.sessionIssuer.arn":"arn:aws:iam::111111111111:role/okta_adm_role","sourceIPAddress":"66.176.252.11","userIdentity.accessKeyId":"ASIAYTOGP2RLPTSPRVXB","userIdentity.principalId":"AROAIJIESMXKGCJRCTPR6:rsoto@splunk.local"}}
{"preview":false,"result":{"eventType":"AwsApiCall","eventName":"UpdateSAMLProvider","requestParameters.sAMLProviderArn":"arn:aws:iam::111111111111:saml-provider/ADFS","userIdentity.sessionContext.sessionIssuer.arn":"arn:aws:iam::111111111111:role/okta_adm_role","sourceIPAddress":"66.176.252.11","userIdentity.accessKeyId":"ASIAYTOGP2RLPTSPRVXB","userIdentity.principalId":"AROAIJIESMXKGCJRCTPR6:rsoto@splunk.local"}}
{"preview":false,"result":{"eventType":"AwsApiCall","eventName":"UpdateSAMLProvider","requestParameters.sAMLProviderArn":"arn:aws:iam::111111111111:saml-provider/ADFS","userIdentity.sessionContext.sessionIssuer.arn":"arn:aws:iam::111111111111:role/okta_adm_role","sourceIPAddress":"66.176.252.11","userIdentity.accessKeyId":"ASIAYTOGP2RLPTSPRVXB","userIdentity.principalId":"AROAIJIESMXKGCJRCTPR6:rsoto@splunk.local"}}
{"preview":false,"result":{"eventType":"AwsApiCall","eventName":"UpdateSAMLProvider","requestParameters.sAMLProviderArn":"arn:aws:iam::111111111111:saml-provider/ADFS","userIdentity.sessionContext.sessionIssuer.arn":"arn:aws:iam::111111111111:role/okta_adm_role","sourceIPAddress":"66.176.252.11","userIdentity.accessKeyId":"ASIAYTOGP2RLPTSPRVXB","userIdentity.principalId":"AROAIJIESMXKGCJRCTPR6:rsoto@splunk.local"}}
{"preview":false,"result":{"eventType":"AwsApiCall","eventName":"UpdateSAMLProvider","requestParameters.sAMLProviderArn":"arn:aws:iam::111111111111:saml-provider/ADFS","userIdentity.sessionContext.sessionIssuer.arn":"arn:aws:iam::111111111111:role/okta_adm_role","sourceIPAddress":"66.176.252.11","userIdentity.accessKeyId":"ASIAYTOGP2RLPTSPRVXB","userIdentity.principalId":"AROAIJIESMXKGCJRCTPR6:rsoto@splunk.local"}}
{"preview":false,"result":{"eventType":"AwsApiCall","eventName":"UpdateSAMLProvider","requestParameters.sAMLProviderArn":"arn:aws:iam::111111111111:saml-provider/ADFS","userIdentity.sessionContext.sessionIssuer.arn":"arn:aws:iam::111111111111:role/okta_adm_role","sourceIPAddress":"66.176.252.11","userIdentity.accessKeyId":"ASIAYTOGP2RLPTSPRVXB","userIdentity.principalId":"AROAIJIESMXKGCJRCTPR6:rsoto@splunk.local"}}
{"preview":false,"lastrow":true,"result":{"eventType":"AwsApiCall","eventName":"UpdateSAMLProvider","requestParameters.sAMLProviderArn":"arn:aws:iam::111111111111:saml-provider/ADFS","userIdentity.sessionContext.sessionIssuer.arn":"arn:aws:iam::111111111111:role/okta_adm_role","sourceIPAddress":"73.85.202.178","userIdentity.accessKeyId":"ASIAYTOGP2RLNOY5BBFO","userIdentity.principalId":"AROAIJIESMXKGCJRCTPR6:rsoto@splunk.local"}}
