.
├── LICENSE
├── SECURITY.md
├── SECURITY.rst
├── archive_attack_data.zip.sha3-512
├── attack_data
│   ├── LICENSE
│   ├── README.md
│   ├── attack_data_service
│   │   ├── Dockerfile
│   │   ├── README.md
│   │   ├── attack_data_service.py
│   │   ├── config
│   │   ├── requirements.txt
│   │   ├── static
│   │   │   ├── architecture_attack_data_service.png
│   │   │   └── aws_batch_submit_job.png
│   │   └── templates
│   │       └── PR_template_attack_data.j2
│   ├── bin
│   │   ├── add_uuid.py
│   │   ├── replay.py
│   │   ├── replay.yml
│   │   ├── requirements.txt
│   │   └── write_dataset_url.py
│   ├── datasets
│   │   ├── TEMPLATE.yml
│   │   ├── apt_simulations
│   │   │   └── FIN7
│   │   ├── attack_techniques
│   │   │   ├── T1003
│   │   │   │   ├── credential_extraction
│   │   │   │   │   └── credential_extraction.yml
│   │   │   │   └── wdigest_enable
│   │   │   │       └── wdigest_enable.yml
│   │   │   ├── T1003.001
│   │   │   │   └── atomic_red_team
│   │   │   │       └── atomic_red_team.yml
│   │   │   ├── T1003.002
│   │   │   │   ├── atomic_red_team
│   │   │   │   │   ├── atomic_red_team.yml
│   │   │   │   │   └── attack-range-windows-domain-controller.json
│   │   │   │   ├── hivenightmare
│   │   │   │   │   └── atomic_red_team.yml
│   │   │   │   └── serioussam
│   │   │   │       └── serioussam.yml
│   │   │   ├── T1003.003
│   │   │   │   └── atomic_red_team
│   │   │   │       ├── atomic_red_team.yml
│   │   │   │       └── windows-sec-events.out
│   │   │   ├── T1003.006
│   │   │   │   ├── impacket
│   │   │   │   │   └── secretsdump.yml
│   │   │   │   └── mimikatz
│   │   │   │       └── dcsync.yml
│   │   │   ├── T1003.008
│   │   │   │   └── copy_file_stdoutpipe
│   │   │   │       └── copy_file_stdoutpipe.yml
│   │   │   ├── T1014
│   │   │   │   └── drivers.yml
│   │   │   ├── T1016
│   │   │   │   ├── atomic_red_team
│   │   │   │   │   └── linux_net_discovery
│   │   │   │   │       └── linux_net_discovery.yml
│   │   │   │   └── discovery_commands
│   │   │   │       └── discovery_commands.yml
│   │   │   ├── T1018
│   │   │   │   ├── AD_discovery
│   │   │   │   │   └── AD_discovery.yml
│   │   │   │   ├── atomic_red_team
│   │   │   │   │   └── atomic_red_team.yml
│   │   │   │   ├── constrained
│   │   │   │   │   └── powerview.yml
│   │   │   │   ├── unconstrained
│   │   │   │   │   └── powerview.yml
│   │   │   │   └── unconstrained2
│   │   │   │       └── getadcomputer.yml
│   │   │   ├── T1020
│   │   │   │   └── rclone.yml
│   │   │   ├── T1021
│   │   │   │   └── illegal_access_to_content
│   │   │   │       └── illegal_access_to_content.yml
│   │   │   ├── T1021.002
│   │   │   │   └── atomic_red_team
│   │   │   │       └── atomic_red_team.yml
│   │   │   ├── T1021.003
│   │   │   │   ├── impacket
│   │   │   │   │   └── impacket.yml
│   │   │   │   ├── lateral_movement
│   │   │   │   │   └── lateral_movement.yml
│   │   │   │   └── lateral_movement_lolbas
│   │   │   │       └── lateral_movement_lolbas.yml
│   │   │   ├── T1021.004
│   │   │   │   └── atomic_red_team
│   │   │   │       └── atomic_red_team.yml
│   │   │   ├── T1021.006
│   │   │   │   ├── lateral_movement
│   │   │   │   │   └── lateral_movement.yml
│   │   │   │   ├── lateral_movement_lolbas
│   │   │   │   │   └── lateral_movement_lolbas.yml
│   │   │   │   ├── lateral_movement_psh
│   │   │   │   │   └── lateral_movement_psh.yml
│   │   │   │   └── lateral_movement_pssession
│   │   │   │       └── lateral_movement_pssession.yml
│   │   │   ├── T1027
│   │   │   │   ├── FuckThatPacker
│   │   │   │   │   └── FuckThatPacker.yml
│   │   │   │   └── atomic_red_team
│   │   │   │       ├── atomic_red_team.yml
│   │   │   │       └── attack_data.json
│   │   │   ├── T1033
│   │   │   │   ├── AD_discovery
│   │   │   │   │   └── AD_discovery.yml
│   │   │   │   ├── atomic_red_team
│   │   │   │   │   └── atomic_red_team.yml
│   │   │   │   └── qakbot_discovery_cmdline
│   │   │   │       └── qakbot_discovery_cmdline.yml
│   │   │   ├── T1036
│   │   │   │   ├── system_process_running_unexpected_location
│   │   │   │   │   └── system_process_running_unexpected_location.yml
│   │   │   │   └── write_to_recycle_bin
│   │   │   │       └── write_to_recycle_bin.yml
│   │   │   ├── T1036.003
│   │   │   │   ├── atomic_red_team
│   │   │   │   │   └── atomic_red_team.yml
│   │   │   │   ├── copy_sysmon
│   │   │   │   │   └── copy_sysmon.yml
│   │   │   │   ├── mpcmdrun
│   │   │   │   │   └── mpcmdrun.yml
│   │   │   │   └── samsam_extension
│   │   │   │       └── samsam_extension.yml
│   │   │   ├── T1037.001
│   │   │   │   └── logonscript_reg
│   │   │   │       └── logonscript_reg.yml
│   │   │   ├── T1040
│   │   │   │   └── ssltls
│   │   │   │       └── ssltls.yml
│   │   │   ├── T1041
│   │   │   │   └── zeek_ssl
│   │   │   │       └── zeek_ssl.yml
│   │   │   ├── T1047
│   │   │   │   ├── atomic_red_team
│   │   │   │   │   ├── atomic_red_team.yml
│   │   │   │   │   └── attack_data.json
│   │   │   │   ├── execution_scrcons
│   │   │   │   │   └── execution_scrcons.yml
│   │   │   │   ├── lateral_movement
│   │   │   │   │   └── lateral_movement.yml
│   │   │   │   ├── lateral_movement_lolbas
│   │   │   │   │   └── lateral_movement_lolbas.yml
│   │   │   │   └── wmi_impersonate
│   │   │   │       └── wmi_impersonate.yml
│   │   │   ├── T1048.003
│   │   │   │   ├── long_dns_queries
│   │   │   │   │   └── long_dns_queries.yml
│   │   │   │   ├── mass_file_creation
│   │   │   │   │   └── mass_file_creation.yml
│   │   │   │   └── nslookup_exfil
│   │   │   │       └── nslookup_exfil.yml
│   │   │   ├── T1049
│   │   │   │   └── AD_discovery
│   │   │   │       └── AD_discovery.yml
│   │   │   ├── T1053
│   │   │   │   └── hidden_schedule_task
│   │   │   │       └── hidden_schedule_task.yml
│   │   │   ├── T1053.002
│   │   │   │   ├── at_execution
│   │   │   │   │   └── at_execution.yml
│   │   │   │   └── lateral_movement
│   │   │   │       └── lateral_movemet.yml
│   │   │   ├── T1053.003
│   │   │   │   ├── cronjobs_entry
│   │   │   │   │   └── cronjobs_entry.yml
│   │   │   │   ├── crontab_edit_parameter
│   │   │   │   │   └── crontab_edit_parameter.yml
│   │   │   │   └── crontab_list_parameter
│   │   │   │       └── crontab_list_parameter.yml
│   │   │   ├── T1053.005
│   │   │   │   ├── atomic_red_team
│   │   │   │   │   ├── atomic_red_team.yml
│   │   │   │   │   └── attack_data.json
│   │   │   │   ├── lateral_movement
│   │   │   │   │   └── lateral_movement.yml
│   │   │   │   ├── lateral_movement_lolbas
│   │   │   │   │   └── lateral_movement_lolbas.yml
│   │   │   │   ├── schtask_shutdown
│   │   │   │   │   └── schtask_shutdown.yml
│   │   │   │   ├── schtask_system
│   │   │   │   │   └── schtask_system.yml
│   │   │   │   ├── schtasks
│   │   │   │   │   └── schtask.yml
│   │   │   │   ├── taskschedule
│   │   │   │   │   └── taskschedule.yml
│   │   │   │   └── windows_taskschedule
│   │   │   │       └── taskschedule.yml
│   │   │   ├── T1053.006
│   │   │   │   └── service_systemd
│   │   │   │       └── service_systemd.yml
│   │   │   ├── T1055
│   │   │   │   ├── cobalt_strike
│   │   │   │   │   └── cobalt_strike.yml
│   │   │   │   ├── msra
│   │   │   │   │   └── msra.yml
│   │   │   │   └── splunk_ds
│   │   │   │       └── splunkd.yml
│   │   │   ├── T1055.001
│   │   │   │   └── rasautou
│   │   │   │       └── rasautou.yml
│   │   │   ├── T1059
│   │   │   │   ├── log4shell_ldap_traffic
│   │   │   │   │   └── log4shell_ldap_traffic.yml
│   │   │   │   ├── metasploit
│   │   │   │   │   └── metasploit.yml
│   │   │   │   ├── meterpreter
│   │   │   │   │   ├── taskhost_processes
│   │   │   │   │   │   └── taskhost_processes.yml
│   │   │   │   │   └── windows_temp_processes
│   │   │   │   │       └── windows_temp_processes.yml
│   │   │   │   ├── path_traversal
│   │   │   │   │   └── path_traversal.yml
│   │   │   │   ├── protocol_handlers
│   │   │   │   │   └── protocol_handlers.yml
│   │   │   │   └── suspiciously_named_executables
│   │   │   │       └── suspiciously_named_executables.yaml
│   │   │   ├── T1059.001
│   │   │   │   ├── atomic_red_team
│   │   │   │   │   └── atomic_red_team.yml
│   │   │   │   ├── encoded_powershell
│   │   │   │   │   └── encoded_powershell.yml
│   │   │   │   ├── exchange
│   │   │   │   │   └── exchange.yml
│   │   │   │   ├── hidden_powershell
│   │   │   │   │   └── hidden_powershell.yml
│   │   │   │   ├── import_applocker_policy
│   │   │   │   │   └── import_applocker_policy.yml
│   │   │   │   ├── malicious_cmd_line_samples
│   │   │   │   │   └── malicious_cmd_line_samples.yml
│   │   │   │   ├── obfuscated_powershell
│   │   │   │   │   └── obfuscated_powershell.yml
│   │   │   │   ├── powershell_execution_policy
│   │   │   │   │   └── powershell_execution_policy.yml
│   │   │   │   ├── powershell_script_block_logging
│   │   │   │   │   └── script_block_logging.yml
│   │   │   │   ├── powershell_testing
│   │   │   │   │   └── powershell_testing.yml
│   │   │   │   ├── powershell_xml_requests
│   │   │   │   │   └── powershell_xml_requests.yml
│   │   │   │   └── sharphound
│   │   │   │       └── sharphound.yml
│   │   │   ├── T1059.003
│   │   │   │   ├── cmd_arguments
│   │   │   │   │   └── cmd_arguments.yml
│   │   │   │   ├── cmd_spawns_cscript
│   │   │   │   │   └── cmd_spawns_cscript.yml
│   │   │   │   ├── powershell_spawn_cmd
│   │   │   │   │   └── powershell_spawn_cmd.yml
│   │   │   │   ├── ryuk
│   │   │   │   │   └── ryuk_cmdline.yml
│   │   │   │   └── unusally_cmd_line
│   │   │   │       └── unusally_cmd_line.yml
│   │   │   ├── T1059.004
│   │   │   │   ├── linux_discovery_tools
│   │   │   │   │   └── linux_discovery_tools.yml
│   │   │   │   └── macos_lolbin
│   │   │   │       └── macos_lolbin.yml
│   │   │   ├── T1059.005
│   │   │   │   ├── discord_dnsquery
│   │   │   │   │   └── discord_dnsquery.yml
│   │   │   │   └── vbs_wscript
│   │   │   │       └── vbs_wscript.yml
│   │   │   ├── T1068
│   │   │   │   ├── drivers
│   │   │   │   │   └── drivers.yml
│   │   │   │   ├── pkexec
│   │   │   │   │   └── pkexec_lpe.yml
│   │   │   │   └── zoom_child_process
│   │   │   │       └── zoom_child_process.yml
│   │   │   ├── T1069.001
│   │   │   │   └── atomic_red_team
│   │   │   │       └── local_groups.yml
│   │   │   ├── T1069.002
│   │   │   │   └── AD_discovery
│   │   │   │       └── AD_discovery.yml
│   │   │   ├── T1070
│   │   │   │   ├── atomic_red_team
│   │   │   │   │   └── atomic_red_team.yml
│   │   │   │   ├── fsutil_file_zero
│   │   │   │   │   └── fsutil_file_zero.yml
│   │   │   │   └── illegal_log_deletion
│   │   │   │       └── illegal_log_deletion.yml
│   │   │   ├── T1070.001
│   │   │   │   └── atomic_red_team
│   │   │   │       └── atomic_red_team.yml
│   │   │   ├── T1070.004
│   │   │   │   └── cipher
│   │   │   │       └── cipher.yml
│   │   │   ├── T1070.005
│   │   │   │   └── atomic_red_team
│   │   │   │       └── atomic_red_team.yml
│   │   │   ├── T1078
│   │   │   │   ├── assume_role_with_saml
│   │   │   │   │   ├── assume_role_with_saml.json
│   │   │   │   │   └── assume_role_with_saml.yml
│   │   │   │   ├── attach_role_trust_policy
│   │   │   │   │   ├── attach_role_trust_policy.json
│   │   │   │   │   └── attach_role_trust_policy.yml
│   │   │   │   ├── attach_user_to_role
│   │   │   │   │   ├── attach_user_to_role.json
│   │   │   │   │   └── attach_user_to_role.yml
│   │   │   │   ├── aws_create_policy_version
│   │   │   │   │   ├── aws_cloudtrail_events.json
│   │   │   │   │   └── aws_create_policy_version.yml
│   │   │   │   ├── aws_createaccesskey
│   │   │   │   │   ├── aws_cloudtrail_events.json
│   │   │   │   │   └── aws_createaccesskey.yml
│   │   │   │   ├── aws_createloginprofile
│   │   │   │   │   ├── aws_cloudtrail_events.json
│   │   │   │   │   └── aws_createloginprofile.yaml
│   │   │   │   ├── aws_saml_access_by_provider_user_and_principal
│   │   │   │   │   ├── aws_saml_access_by_provider_user_and_principal.json
│   │   │   │   │   └── aws_saml_access_by_provider_user_and_principal.yml
│   │   │   │   ├── aws_saml_update_identity_provider
│   │   │   │   │   ├── aws_saml_update_identity_provider.json
│   │   │   │   │   └── aws_saml_update_identity_provider.yml
│   │   │   │   ├── aws_setdefaultpolicyversion
│   │   │   │   │   ├── aws_cloudtrail_events.json
│   │   │   │   │   └── aws_setdefaultpolicyversion.yml
│   │   │   │   ├── aws_updateloginprofile
│   │   │   │   │   ├── aws_cloudtrail_events.json
│   │   │   │   │   └── aws_updateloginprofile.yml
│   │   │   │   ├── create_IAM_role
│   │   │   │   │   ├── create_IAM_role.json
│   │   │   │   │   └── create_IAM_role.yml
│   │   │   │   ├── defaultaccount
│   │   │   │   │   └── defaultaccount.yml
│   │   │   │   ├── gcploit_exploitation_framework
│   │   │   │   │   ├── gcploit_exploitation_framework.json
│   │   │   │   │   └── gcploit_exploitation_framework.yml
│   │   │   │   ├── high_risk_permission_by_resource
│   │   │   │   │   ├── high_risk_permission_by_resource.json
│   │   │   │   │   └── high_risk_permission_by_resource.yml
│   │   │   │   ├── high_risk_role_by_project
│   │   │   │   │   ├── high_risk_role_by_project.json
│   │   │   │   │   └── high_risk_role_by_project.yml
│   │   │   │   ├── o365_excessive_sso_logon_errors
│   │   │   │   │   ├── o365_excessive_sso_logon_errors.json
│   │   │   │   │   └── o365_excessive_sso_logon_errors.yml
│   │   │   │   ├── splunkd_auth
│   │   │   │   │   └── audittrail.yml
│   │   │   │   ├── sts_assumerole_usage
│   │   │   │   │   ├── sts_assumerole_usage.json
│   │   │   │   │   └── sts_assumerole_usage.yml
│   │   │   │   └── update_saml_provider
│   │   │   │       ├── update_saml_provider.json
│   │   │   │       └── update_saml_provider.yml
│   │   │   ├── T1078.002
│   │   │   │   ├── account_lockout
│   │   │   │   │   └── account_lockout.yml
│   │   │   │   ├── account_login
│   │   │   │   │   └── account_login.yml
│   │   │   │   └── samaccountname_spoofing
│   │   │   │       └── samaaccountname_spoofing.yml
│   │   │   ├── T1078.004
│   │   │   │   ├── aws_login_sfa
│   │   │   │   │   ├── aws_login_sfa.yml
│   │   │   │   │   └── cloudtrail.json
│   │   │   │   ├── azure_automation_runbook
│   │   │   │   │   └── azure_automation_runbook.yml
│   │   │   │   ├── azure_runbook_webhook
│   │   │   │   │   └── azure_runbook_webhook.yml
│   │   │   │   ├── azuread
│   │   │   │   │   └── azuread.yml
│   │   │   │   ├── azuread_pws
│   │   │   │   │   └── azuread_pws.yml
│   │   │   │   └── gcp_single_factor_auth
│   │   │   │       └── gcp_single_factor_auth.yml
│   │   │   ├── T1082
│   │   │   │   └── atomic_red_team
│   │   │   │       └── atomic_red_team.yml
│   │   │   ├── T1083
│   │   │   │   └── splunk
│   │   │   │       └── path_traversal_spl_injection.txt
│   │   │   ├── T1087.001
│   │   │   │   └── AD_discovery
│   │   │   │       └── AD_discovery.yml
│   │   │   ├── T1087.002
│   │   │   │   ├── AD_discovery
│   │   │   │   │   └── AD_discovery.yml
│   │   │   │   ├── adsi_discovery
│   │   │   │   │   └── adsi_discovery.yml
│   │   │   │   └── blackmatter_schcache
│   │   │   │       └── blackmatter_schcache.yml
│   │   │   ├── T1098
│   │   │   │   ├── account_manipulation
│   │   │   │   │   └── account_manipulation.yml
│   │   │   │   ├── aws_iam_delete_policy
│   │   │   │   │   └── aws_iam_delete_policy.json
│   │   │   │   ├── aws_iam_failure_group_deletion
│   │   │   │   │   └── aws_iam_failure_group_deletion.json
│   │   │   │   ├── aws_iam_successful_group_deletion
│   │   │   │   │   └── aws_iam_successful_group_deletion.json
│   │   │   │   ├── azure_ad_add_serviceprincipal_owner
│   │   │   │   │   └── azure_ad_add_serviceprincipal_owner.yml
│   │   │   │   ├── azure_ad_enable_and_reset
│   │   │   │   │   └── azure_ad_enable_and_reset.yml
│   │   │   │   ├── azure_ad_set_immutableid
│   │   │   │   │   └── azure_ad_set_immutableid.yml
│   │   │   │   ├── dsrm_account
│   │   │   │   │   └── dsrm_account_manipulation.yml
│   │   │   │   ├── service_principal_name_added
│   │   │   │   │   └── service_principal_name_added.yml
│   │   │   │   └── short_lived_service_principal_name
│   │   │   │       └── short_lived_service_principal_name.yml
│   │   │   ├── T1098.001
│   │   │   │   └── azure_ad_service_principal_credentials
│   │   │   │       └── azure_ad_service_principal_credentials.yml
│   │   │   ├── T1098.003
│   │   │   │   ├── azure_ad_assign_global_administrator
│   │   │   │   │   └── azure_ad_assign_global_administrator.yml
│   │   │   │   └── azure_ad_assign_privileged_role
│   │   │   │       └── azure_ad_assign_privileged_role.yml
│   │   │   ├── T1098.004
│   │   │   │   └── ssh_authorized_keys
│   │   │   │       └── ssh_authorized_keys.yml
│   │   │   ├── T1105
│   │   │   │   └── atomic_red_team
│   │   │   │       └── atomic_red_team.yml
│   │   │   ├── T1110
│   │   │   │   └── o365_brute_force_login
│   │   │   │       ├── o365_brute_force_login.json
│   │   │   │       └── o365_brute_force_login.yml
│   │   │   ├── T1110.001
│   │   │   │   ├── aws_login_failure
│   │   │   │   │   ├── aws_cloudtrail_events.json
│   │   │   │   │   └── aws_login_failure.yml
│   │   │   │   └── high_number_of_login_failures_from_a_single_source
│   │   │   │       ├── high_number_of_login_failures_from_a_single_source.json
│   │   │   │       └── high_number_of_login_failures_from_a_single_source.yml
│   │   │   ├── T1110.002
│   │   │   │   └── aws_rds_password_reset
│   │   │   │       ├── aws_cloudtrail_events.json
│   │   │   │       └── aws_rds_password_reset.yml
│   │   │   ├── T1110.003
│   │   │   │   ├── aws_mulitple_failed_console_login
│   │   │   │   │   ├── aws_cloudtrail.json
│   │   │   │   │   └── aws_mulitple_failed_console_login.yml
│   │   │   │   ├── azuread
│   │   │   │   │   └── azuread.yml
│   │   │   │   ├── azuread_highrisk
│   │   │   │   │   └── azuread_highrisk.yml
│   │   │   │   ├── gcp_gws_multiple_login_failure
│   │   │   │   │   ├── gcp_gws_multiple_login_failure.yml
│   │   │   │   │   └── gws_login.json
│   │   │   │   ├── purplesharp_disabled_users_kerberos
│   │   │   │   │   └── purplesharp_disabled_users_kerberos.yml
│   │   │   │   ├── purplesharp_disabled_users_kerberos_xml
│   │   │   │   │   └── purplesharp_disabled_users_kerberos_xml
│   │   │   │   ├── purplesharp_explicit_credential_spray
│   │   │   │   │   └── purplesharp_explicit_credential_spray.yml
│   │   │   │   ├── purplesharp_explicit_credential_spray_xml
│   │   │   │   │   └── purplesharp_explicit_credential_spray_xml.yml
│   │   │   │   ├── purplesharp_invalid_users_kerberos
│   │   │   │   │   └── purplesharp_invalid_users_kerberos.yml
│   │   │   │   ├── purplesharp_invalid_users_kerberos_xml
│   │   │   │   │   └── purplesharp_invalid_users_kerberos_xml.yml
│   │   │   │   ├── purplesharp_invalid_users_ntlm
│   │   │   │   │   └── purplesharp_invalid_users_ntlm.yml
│   │   │   │   ├── purplesharp_invalid_users_ntlm_xml
│   │   │   │   │   └── purplesharp_invalid_users_ntlm_xml.yml
│   │   │   │   ├── purplesharp_multiple_users_from_process
│   │   │   │   │   └── purplesharp_multiple_users_from_process.yml
│   │   │   │   ├── purplesharp_multiple_users_from_process_xml
│   │   │   │   │   └── purplesharp_multiple_users_from_process_xml.yml
│   │   │   │   ├── purplesharp_remote_spray
│   │   │   │   │   └── purplesharp_remote_spray.yml
│   │   │   │   ├── purplesharp_remote_spray_xml
│   │   │   │   │   └── purplesharp_remote_spray_xml.yml
│   │   │   │   ├── purplesharp_valid_users_kerberos
│   │   │   │   │   └── purplesharp_valid_users_kerberos.yml
│   │   │   │   ├── purplesharp_valid_users_kerberos_xml
│   │   │   │   │   └── purplesharp_valid_users_kerberos_xml.yml
│   │   │   │   ├── purplesharp_valid_users_ntlm
│   │   │   │   │   └── purplesharp_valid_users_ntlm.yml
│   │   │   │   └── purplesharp_valid_users_ntlm_xml
│   │   │   │       └── purplesharp_valid_users_ntlm_xml.yml
│   │   │   ├── T1112
│   │   │   │   ├── atomic_red_team
│   │   │   │   │   └── atomic_red_team.yml
│   │   │   │   ├── disable_notif_center
│   │   │   │   │   └── disable_notif_center.yml
│   │   │   │   ├── minint_reg
│   │   │   │   │   └── minint_reg.yml
│   │   │   │   ├── ransomware_disable_reg
│   │   │   │   │   └── ransomware_disable_reg.yml
│   │   │   │   └── shimcache_flush
│   │   │   │       └── shimcache_flush.yml
│   │   │   ├── T1114
│   │   │   │   └── o365_export_pst_file
│   │   │   │       ├── o365_export_pst_file.json
│   │   │   │       └── o365_export_pst_file.yml
│   │   │   ├── T1114.002
│   │   │   │   └── suspicious_rights_delegation
│   │   │   │       ├── suspicious_rights_delegation.json
│   │   │   │       └── suspicious_rights_delegation.yml
│   │   │   ├── T1114.003
│   │   │   │   └── o365_email_forwarding_rule
│   │   │   │       ├── o365_email_forwarding_rule.json
│   │   │   │       └── o365_email_forwarding_rule.yml
│   │   │   ├── T1115
│   │   │   │   └── atomic_red_team
│   │   │   │       └── atomic_red_team.yml
│   │   │   ├── T1127
│   │   │   │   ├── atomic_red_team
│   │   │   │   │   └── atomic_red_team.yml
│   │   │   │   └── etw_disable
│   │   │   │       └── etw_disable.yml
│   │   │   ├── T1127.001
│   │   │   │   ├── atomic_red_team.yml
│   │   │   │   └── regsvr32_silent
│   │   │   │       └── regsvr32_silent.yml
│   │   │   ├── T1134.005
│   │   │   │   ├── mimikatz
│   │   │   │   │   └── sid_history.yml
│   │   │   │   └── sid_history2
│   │   │   │       └── sid_history2.yml
│   │   │   ├── T1136.001
│   │   │   │   └── atomic_red_team
│   │   │   │       └── atomic_red_team.yml
│   │   │   ├── T1136.003
│   │   │   │   ├── azure_ad_add_service_principal
│   │   │   │   │   └── azure_ad_add_service_principal.yml
│   │   │   │   ├── azure_ad_external_guest_user_invited
│   │   │   │   │   └── azure_ad_external_guest_user_invited.yml
│   │   │   │   ├── azure_automation_account
│   │   │   │   │   └── azure_automation_account.yml
│   │   │   │   ├── o365_add_app_role_assignment_grant_user
│   │   │   │   │   ├── o365_add_app_role_assignment_grant_user.json
│   │   │   │   │   └── o365_add_app_role_assignment_grant_user.yml
│   │   │   │   ├── o365_add_service_principal
│   │   │   │   │   ├── o365_add_service_principal.json
│   │   │   │   │   └── o365_add_service_principal.yml
│   │   │   │   ├── o365_added_service_principal
│   │   │   │   │   ├── o365_added_service_principal.json
│   │   │   │   │   └── o365_added_service_principal.yml
│   │   │   │   ├── o365_new_federated_domain
│   │   │   │   │   ├── o365_new_federated_domain.json
│   │   │   │   │   └── o365_new_federated_domain.yml
│   │   │   │   ├── o365_new_federated_domain_added
│   │   │   │   │   ├── o365_new_federated_domain_added.json
│   │   │   │   │   └── o365_new_federated_domain_added.yml
│   │   │   │   └── o365_new_federation
│   │   │   │       ├── o365_new_federation.json
│   │   │   │       └── o365_new_federation.yml
│   │   │   ├── T1140
│   │   │   │   └── atomic_red_team
│   │   │   │       └── atomic_red_team.yml
│   │   │   ├── T1187
│   │   │   │   └── petitpotam
│   │   │   │       └── petitpotam.yml
│   │   │   ├── T1189
│   │   │   │   ├── dyn_dns_site
│   │   │   │   │   └── dyn_dns_site.yml
│   │   │   │   ├── splunk
│   │   │   │   │   ├── splunk_reflected_xss_in_templates_lists_radio.txt
│   │   │   │   │   ├── splunk_stored_xss_via_data_model_objectname_field.txt
│   │   │   │   │   └── splunk_xss_in_save_table_dialog_in_search_page.txt
│   │   │   │   └── xss
│   │   │   │       └── splunk_web_access.yml
│   │   │   ├── T1190
│   │   │   │   ├── exchange_events.json
│   │   │   │   ├── f5
│   │   │   │   │   └── f5.yml
│   │   │   │   ├── fortigate
│   │   │   │   │   └── fortigate.yml
│   │   │   │   ├── java
│   │   │   │   │   └── java.yml
│   │   │   │   ├── log4j_network_logs
│   │   │   │   │   └── log4j_network_logs.yml
│   │   │   │   ├── log4j_proxy_logs
│   │   │   │   │   └── log4j_proxy_logs.yml
│   │   │   │   ├── outbound_java
│   │   │   │   │   └── outbound_java.yml
│   │   │   │   ├── outbound_ldap
│   │   │   │   │   ├── bro_conn.json
│   │   │   │   │   └── bro_conn.yml
│   │   │   │   ├── proxyshell
│   │   │   │   │   └── proxyshell.yml
│   │   │   │   ├── proxyshell.yml
│   │   │   │   ├── spring4shell
│   │   │   │   │   └── spring4shell.yml
│   │   │   │   ├── text4shell
│   │   │   │   │   └── text4shell.yml
│   │   │   │   └── vmware
│   │   │   │       └── vmware.yml
│   │   │   ├── T1195.001
│   │   │   │   ├── github_pull_request
│   │   │   │   │   ├── github_pull_request.json
│   │   │   │   │   └── github_pull_request.yml
│   │   │   │   └── github_security_advisor_alert
│   │   │   │       ├── github_security_advisor_alert.json
│   │   │   │       └── github_security_advisor_alert.yml
│   │   │   ├── T1195.002
│   │   │   │   └── github_actions_disable_security_workflow
│   │   │   │       └── github_actions_disable_security_workflow.yml
│   │   │   ├── T1197
│   │   │   │   └── atomic_red_team
│   │   │   │       └── atomic_red_team.yml
│   │   │   ├── T1199
│   │   │   │   └── github_push_master
│   │   │   │       ├── github_push_develop.json
│   │   │   │       └── github_push_master.yml
│   │   │   ├── T1201
│   │   │   │   └── pwd_policy_discovery
│   │   │   │       └── pwd_policy_discovery.yml
│   │   │   ├── T1202
│   │   │   │   └── atomic_red_team
│   │   │   │       └── atomic_red_team.yml
│   │   │   ├── T1203
│   │   │   │   └── search_activity.txt
│   │   │   ├── T1204
│   │   │   │   └── aws_updatelambdafunctioncode
│   │   │   │       ├── aws_cloudtrail_events.json
│   │   │   │       └── aws_updatelambdafunctioncode.yml
│   │   │   ├── T1204.002
│   │   │   │   ├── atomic_red_team
│   │   │   │   │   └── atomic_red_team.yml
│   │   │   │   ├── batch_file_in_system32
│   │   │   │   │   └── batch_file_in_system32.yml
│   │   │   │   └── single_letter_exe
│   │   │   │       └── single_letter_exe.yml
│   │   │   ├── T1204.003
│   │   │   │   ├── aws_ecr_container_upload
│   │   │   │   │   ├── aws_ecr_container_upload.json
│   │   │   │   │   └── aws_ecr_container_upload.yml
│   │   │   │   └── aws_ecr_image_scanning
│   │   │   │       ├── aws_ecr_image_scanning.yml
│   │   │   │       └── aws_ecr_scanning_findings_events.json
│   │   │   ├── T1207
│   │   │   │   ├── mimikatz
│   │   │   │   │   └── dcshadow.yml
│   │   │   │   └── short_lived_server_object
│   │   │   │       └── short_lived_server_object.yml
│   │   │   ├── T1210
│   │   │   │   └── splunk
│   │   │   │       ├── splunk_code_injection_via_custom_dashboard_leading_to_rce.txt
│   │   │   │       └── splunk_rce_via_secure_gateway_splunk_mobile_alerts_feature.txt
│   │   │   ├── T1212
│   │   │   │   ├── kubernetes_nginx_lfi_attack
│   │   │   │   │   └── kubernetes_nginx_lfi_attack.yml
│   │   │   │   └── kuberntest_nginx_rfi_attack
│   │   │   │       └── kubernetes_nginx_rfi_attack.yml
│   │   │   ├── T1213
│   │   │   │   └── audittrail
│   │   │   │       └── audittrail.yml
│   │   │   ├── T1216
│   │   │   │   └── atomic_red_team
│   │   │   │       └── atomic_red_team.yml
│   │   │   ├── T1218
│   │   │   │   ├── diskshadow
│   │   │   │   │   └── diskshadow.yml
│   │   │   │   └── living_off_the_land
│   │   │   │       └── livingofftheland.yml
│   │   │   ├── T1218.001
│   │   │   │   └── atomic_red_team
│   │   │   │       └── atomic_red_team.yml
│   │   │   ├── T1218.002
│   │   │   │   └── atomic_red_team
│   │   │   │       └── atomic_red_team.yml
│   │   │   ├── T1218.004
│   │   │   │   └── atomic_red_team
│   │   │   │       └── atomic_red_team.yml
│   │   │   ├── T1218.005
│   │   │   │   ├── atomic_red_team
│   │   │   │   │   └── atomic_red_team.yml
│   │   │   │   └── mshta_in_registry
│   │   │   │       └── mshta_in_registry.yml
│   │   │   ├── T1218.007
│   │   │   │   └── atomic_red_team
│   │   │   │       └── atomic_red_team.yml
│   │   │   ├── T1218.008
│   │   │   │   └── atomic_red_team
│   │   │   │       └── atomic_red_team.yml
│   │   │   ├── T1218.009
│   │   │   │   └── atomic_red_team
│   │   │   │       └── atomic_red_team.yml
│   │   │   ├── T1218.010
│   │   │   │   └── atomic_red_team
│   │   │   │       └── atomic_red_team.yml
│   │   │   ├── T1218.011
│   │   │   │   └── atomic_red_team
│   │   │   │       └── atomic_red_team.yml
│   │   │   ├── T1218.012
│   │   │   │   └── verclsid_exec
│   │   │   │       └── verclsid_exec.yml
│   │   │   ├── T1218.013
│   │   │   │   └── atomic_red_team
│   │   │   │       └── atomic_red_team.yml
│   │   │   ├── T1219
│   │   │   │   └── atomic_red_team
│   │   │   │       └── atomic_red_team.yml
│   │   │   ├── T1220
│   │   │   │   └── atomic_red_team
│   │   │   │       └── atomic_red_team.yml
│   │   │   ├── T1222.001
│   │   │   │   ├── atomic_red_team
│   │   │   │   │   └── atomic_red_team.yml
│   │   │   │   └── attrib_hidden
│   │   │   │       └── attrib_hidden.yml
│   │   │   ├── T1482
│   │   │   │   ├── atomic_red_team
│   │   │   │   │   └── atomic_red_team.yml
│   │   │   │   └── discovery
│   │   │   │       └── domain_trust_discovery.yml
│   │   │   ├── T1484
│   │   │   │   └── domain_policy_modification.yml
│   │   │   ├── T1484.002
│   │   │   │   └── new_federated_domain
│   │   │   │       └── new_federated_domain.yml
│   │   │   ├── T1485
│   │   │   │   ├── atomic_red_team
│   │   │   │   │   └── atomic_red_team.yml
│   │   │   │   ├── excessive_file_del_in_windefender_dir
│   │   │   │   │   └── excessive_file_del_in_windefender_dir.yml
│   │   │   │   ├── excessive_file_deletions
│   │   │   │   │   └── excessive_file_deletions.yml
│   │   │   │   ├── linux_dd_file_overwrite
│   │   │   │   │   └── linux_dd_file_overwrite.yml
│   │   │   │   ├── ransomware_extensions
│   │   │   │   │   └── ransomware_extensions.yml
│   │   │   │   ├── ransomware_notes
│   │   │   │   │   └── ransomware_notes.yml
│   │   │   │   ├── rm_boot_dir
│   │   │   │   │   └── rm_boot_dir.yml
│   │   │   │   ├── rm_shred_critical_dir
│   │   │   │   │   └── rm_shred_critical_dir.yml
│   │   │   │   └── sdelete
│   │   │   │       └── sdelete.yml
│   │   │   ├── T1486
│   │   │   │   ├── aws_kms_key
│   │   │   │   │   ├── aws_cloudtrail_events.json
│   │   │   │   │   └── aws_kms_key.yml
│   │   │   │   ├── dcrypt
│   │   │   │   │   └── dcrypt.yml
│   │   │   │   ├── s3_file_encryption
│   │   │   │   │   ├── aws_cloudtrail_events.json
│   │   │   │   │   └── s3_file_encryption.yml
│   │   │   │   └── sam_sam_note
│   │   │   │       └── sam_sam_note.yml
│   │   │   ├── T1489
│   │   │   │   └── linux_service_stop_disable
│   │   │   │       └── linux_service_stop_disable.yml
│   │   │   ├── T1490
│   │   │   │   ├── atomic_red_team
│   │   │   │   │   └── atomic_red_team.yml
│   │   │   │   ├── ransomware_notes
│   │   │   │   │   └── ransomware_notes.yml
│   │   │   │   └── shadowcopy_del
│   │   │   │       └── shadowcopy_del.yml
│   │   │   ├── T1497.003
│   │   │   │   └── ping_sleep
│   │   │   │       └── ping_sleep.yml
│   │   │   ├── T1498
│   │   │   │   └── splunk_indexer_dos
│   │   │   │       └── splunk_indexer_dos.yml
│   │   │   ├── T1499
│   │   │   │   └── splunk
│   │   │   │       └── splunk_zip_bomb_vulnerability.yml
│   │   │   ├── T1505.003
│   │   │   │   └── exchange_web_shell_behavior_logs.yml
│   │   │   ├── T1505.004
│   │   │   │   └── iis_modules.yml
│   │   │   ├── T1525
│   │   │   │   └── container_implant
│   │   │   │       ├── container_implant.yml
│   │   │   │       ├── container_implant_1.json
│   │   │   │       └── container_implant_2.json
│   │   │   ├── T1526
│   │   │   │   ├── aws_security_scanner
│   │   │   │   │   ├── aws_security_scanner.json
│   │   │   │   │   └── aws_security_scanner.yml
│   │   │   │   └── kubernetes_kube_hunter
│   │   │   │       ├── kubernetes_kube_hunter.json
│   │   │   │       └── kubernetes_kube_hunter.yml
│   │   │   ├── T1530
│   │   │   │   └── aws_s3_public_bucket
│   │   │   │       ├── aws_cloudtrail_events.json
│   │   │   │       └── aws_s3_public_bucket.yml
│   │   │   ├── T1531
│   │   │   │   └── atomic_red_team
│   │   │   │       └── atomic_red_team.yml
│   │   │   ├── T1537
│   │   │   │   ├── aws_snapshot_exfil
│   │   │   │   │   ├── aws_cloudtrail_events.json
│   │   │   │   │   └── aws_snapshot_exfil.yml
│   │   │   │   └── high_copy_files_in_net_share
│   │   │   │       └── high_copy_files_in_net_share.yml
│   │   │   ├── T1543.003
│   │   │   │   ├── atomic_red_team
│   │   │   │   │   └── atomic_red_team.yml
│   │   │   │   ├── krbrelayup
│   │   │   │   │   └── krbrelayup.yml
│   │   │   │   ├── lateral_movement
│   │   │   │   │   └── lateral_movement.yml
│   │   │   │   ├── lateral_movement_lolbas
│   │   │   │   │   └── lateral_movement_lolbas.yml
│   │   │   │   ├── lateral_movement_powershell
│   │   │   │   │   └── lateral_movement_powershell.yml
│   │   │   │   └── lateral_movement_suspicious_path
│   │   │   │       └── lateral_movement_suspicious_path.yml
│   │   │   ├── T1546
│   │   │   │   └── adminsdholder_modified
│   │   │   │       └── adminsdholder_modified.yml
│   │   │   ├── T1546.001
│   │   │   │   └── txtfile_reg
│   │   │   │       └── txtfile_reg.yml
│   │   │   ├── T1546.002
│   │   │   │   └── scrnsave_reg
│   │   │   │       └── scrnsave_reg.yml
│   │   │   ├── T1546.003
│   │   │   │   ├── atomic_red_team
│   │   │   │   │   └── atomic_red_team.yml
│   │   │   │   └── wmi_event_subscription
│   │   │   │       └── wmi_event_subscription.yml
│   │   │   ├── T1546.004
│   │   │   │   └── linux_init_profile
│   │   │   │       └── linux_init_profile.yml
│   │   │   ├── T1546.008
│   │   │   │   └── atomic_red_team
│   │   │   │       └── atomic_red_team.yml
│   │   │   ├── T1546.011
│   │   │   │   └── atomic_red_team
│   │   │   │       └── atomic_red_team.yml
│   │   │   ├── T1546.012
│   │   │   │   └── atomic_red_team
│   │   │   │       └── atomic_red_team.yml
│   │   │   ├── T1546.015
│   │   │   │   ├── atomic_red_team
│   │   │   │   │   └── atomic_red_team.yml
│   │   │   │   ├── pwh_com_object
│   │   │   │   │   └── pwh_com_object.yml
│   │   │   │   └── uac_colorui
│   │   │   │       └── uac_colorui.yml
│   │   │   ├── T1547.001
│   │   │   │   └── atomic_red_team
│   │   │   │       └── atomic_red_team.yml
│   │   │   ├── T1547.003
│   │   │   │   └── timeprovider_reg
│   │   │   │       └── timeprovider_reg.yml
│   │   │   ├── T1547.005
│   │   │   │   └── malicious_ssp
│   │   │   │       └── malicious_ssp.yml
│   │   │   ├── T1547.006
│   │   │   │   └── loading_linux_kernel_module
│   │   │   │       └── loading_linux_kernel_module.yml
│   │   │   ├── T1547.008
│   │   │   │   └── atomic_red_team
│   │   │   │       └── atomic_red_team.yml
│   │   │   ├── T1547.010
│   │   │   │   └── atomic_red_team
│   │   │   │       └── atomic_red_team.yml
│   │   │   ├── T1547.011
│   │   │   │   └── atomic_red_team
│   │   │   │       └── atomic_red_team.yml
│   │   │   ├── T1547.012
│   │   │   │   ├── print_reg
│   │   │   │   │   └── print_reg.yml
│   │   │   │   └── printnightmare
│   │   │   │       └── printnightmare.yml
│   │   │   ├── T1548
│   │   │   │   ├── abuse_elevation_control.yml
│   │   │   │   ├── apt
│   │   │   │   │   └── apt.yml
│   │   │   │   ├── apt_get
│   │   │   │   │   └── apt_get.yml
│   │   │   │   ├── awk
│   │   │   │   │   └── awk.yml
│   │   │   │   ├── busybox
│   │   │   │   │   └── busybox.yml
│   │   │   │   ├── c89
│   │   │   │   │   └── c89.yml
│   │   │   │   ├── c99
│   │   │   │   │   └── c99.yml
│   │   │   │   ├── composer
│   │   │   │   │   └── composer.yml
│   │   │   │   ├── cpulimit
│   │   │   │   │   └── cpulimit.yml
│   │   │   │   ├── csvtool
│   │   │   │   │   └── csvtool.yml
│   │   │   │   ├── docker
│   │   │   │   │   └── docker.yml
│   │   │   │   ├── emacs
│   │   │   │   │   └── emacs.yml
│   │   │   │   ├── find
│   │   │   │   │   └── find.yml
│   │   │   │   ├── gawk
│   │   │   │   │   └── gawk.yml
│   │   │   │   ├── gdb
│   │   │   │   │   └── gdb.yml
│   │   │   │   ├── gem
│   │   │   │   │   └── gem.yml
│   │   │   │   ├── linux_risk
│   │   │   │   │   └── linux_risk.yml
│   │   │   │   ├── make
│   │   │   │   │   └── make.yml
│   │   │   │   ├── mysql
│   │   │   │   │   └── mysql.yml
│   │   │   │   ├── node
│   │   │   │   │   └── node.yml
│   │   │   │   ├── octave
│   │   │   │   │   └── octave.yml
│   │   │   │   ├── openvpn
│   │   │   │   │   └── openvpn.yml
│   │   │   │   ├── php
│   │   │   │   │   └── php.yml
│   │   │   │   ├── puppet
│   │   │   │   │   └── puppet.yml
│   │   │   │   ├── rpm
│   │   │   │   │   └── rpm.yml
│   │   │   │   ├── ruby
│   │   │   │   │   └── ruby.yml
│   │   │   │   ├── splunk
│   │   │   │   │   └── local_privesc_via_nodes_default_path.txt
│   │   │   │   ├── sqlite3
│   │   │   │   │   └── sqlite3.yml
│   │   │   │   └── uac_bypass
│   │   │   │       └── uac_bypass.yml
│   │   │   ├── T1548.001
│   │   │   │   ├── chmod_uid
│   │   │   │   │   └── chmod_uid.yml
│   │   │   │   └── linux_setcap
│   │   │   │       └── linux_setcap.yml
│   │   │   ├── T1548.002
│   │   │   │   ├── LocalAccountTokenFilterPolicy
│   │   │   │   │   └── LocalAccountTokenFilterPolicy.yml
│   │   │   │   ├── atomic_red_team
│   │   │   │   │   └── atomic_red_team.yml
│   │   │   │   ├── slui
│   │   │   │   │   └── slui_uac_bypass.yml
│   │   │   │   └── ssa_eventvwr
│   │   │   │       └── ssa_eventvwr.yml
│   │   │   ├── T1548.003
│   │   │   │   ├── doas
│   │   │   │   │   └── doas.yml
│   │   │   │   ├── doas_exec
│   │   │   │   │   └── doas_exec.yml
│   │   │   │   ├── linux_adduser
│   │   │   │   │   └── linux_adduser.yml
│   │   │   │   ├── nopasswd_sudoers
│   │   │   │   │   └── nopasswd_sudoers.yml
│   │   │   │   ├── sudo_su
│   │   │   │   │   └── sudo_su.yml
│   │   │   │   ├── sudoers_temp
│   │   │   │   │   └── sudoers_temp.yml
│   │   │   │   └── visudo
│   │   │   │       └── visudo.yml
│   │   │   ├── T1550
│   │   │   │   ├── impacket
│   │   │   │   │   └── impacket.yml
│   │   │   │   └── rubeus
│   │   │   │       └── rubeus.yml
│   │   │   ├── T1550.002
│   │   │   │   ├── atomic_red_team
│   │   │   │   │   └── atomic_red_team.yml
│   │   │   │   └── extracts_from_real_data
│   │   │   │       └── extracts_from_real_data.yml
│   │   │   ├── T1550.003
│   │   │   │   ├── mimikatz
│   │   │   │   │   └── mimiktaz.yml
│   │   │   │   └── rubeus
│   │   │   │       └── rubeus.yml
│   │   │   ├── T1552
│   │   │   │   └── aws_getpassworddata
│   │   │   │       ├── aws_cloudtrail_events.json
│   │   │   │       └── aws_getpassworddata.yml
│   │   │   ├── T1552.001
│   │   │   │   └── password_in_username
│   │   │   │       └── password_in_username.yml
│   │   │   ├── T1552.002
│   │   │   │   └── autoadminlogon
│   │   │   │       └── autoadminlogon.yml
│   │   │   ├── T1552.004
│   │   │   │   └── certutil_exe_certificate_extraction
│   │   │   │       ├── certutil_exe_certificate_extraction.raw
│   │   │   │       └── certutil_exe_certificate_extraction.yml
│   │   │   ├── T1553.004
│   │   │   │   └── atomic_red_team
│   │   │   │       └── atomic_red_team.yml
│   │   │   ├── T1554
│   │   │   │   ├── circle_ci_disable_security_job
│   │   │   │   │   ├── circle_ci_disable_security_job.json
│   │   │   │   │   └── circle_ci_disable_security_job.yml
│   │   │   │   └── circle_ci_disable_security_step
│   │   │   │       ├── circle_ci_disable_security_step.json
│   │   │   │       └── circle_ci_disable_security_step.yml
│   │   │   ├── T1555
│   │   │   │   ├── applying_stolen_credentials
│   │   │   │   │   └── applying_stolen_credentials.yml
│   │   │   │   └── web_browser_pass_view
│   │   │   │       └── web_browser_pass_view.yml
│   │   │   ├── T1556
│   │   │   │   ├── azuread
│   │   │   │   │   └── azuread.yml
│   │   │   │   ├── disable_credential_guard
│   │   │   │   │   └── lsacfgflags.yml
│   │   │   │   ├── disable_lsa_protection
│   │   │   │   │   └── runasppl.yml
│   │   │   │   ├── gcp_disable_mfa
│   │   │   │   │   └── gcp_disable_mfa.yml
│   │   │   │   ├── o365_disable_mfa
│   │   │   │   │   ├── o365_disable_mfa.json
│   │   │   │   │   └── o365_disable_mfa.yml
│   │   │   │   └── o365_sso_logon_errors
│   │   │   │       ├── o365_sso_logon_errors.json
│   │   │   │       └── o365_sso_logon_errors.yml
│   │   │   ├── T1556.001
│   │   │   │   └── atomic_red_team
│   │   │   │       └── atomic_red_team.yml
│   │   │   ├── T1557.002
│   │   │   │   └── cisco_ios
│   │   │   │       └── cisco_ios.yml
│   │   │   ├── T1558
│   │   │   │   └── krbrelayup
│   │   │   │       └── krbrelayup.yml
│   │   │   ├── T1558.001
│   │   │   │   └── impacket
│   │   │   │       └── impacket.yml
│   │   │   ├── T1558.002
│   │   │   │   └── impacket
│   │   │   │       └── impacket.yml
│   │   │   ├── T1558.003
│   │   │   │   ├── atomic_red_team
│   │   │   │   │   └── atomic_red_team.yml
│   │   │   │   ├── powerview
│   │   │   │   │   └── powerview.yml
│   │   │   │   ├── powerview-2
│   │   │   │   │   └── powerview.yml
│   │   │   │   └── rubeus
│   │   │   │       └── rubeus.yml
│   │   │   ├── T1558.004
│   │   │   │   ├── getaduser
│   │   │   │   │   └── getaduser.yml
│   │   │   │   ├── powershell
│   │   │   │   │   └── powershell.yml
│   │   │   │   ├── powerview
│   │   │   │   │   └── powerview.yml
│   │   │   │   ├── splk_protocol_impersonation_weak_encryption_simplerequest.txt
│   │   │   │   └── splunk_protocol_impersonation_weak_encryption_selfsigned.txt
│   │   │   ├── T1560.001
│   │   │   │   ├── archive_tools
│   │   │   │   │   └── archive_tools.yml
│   │   │   │   └── archive_utility
│   │   │   │       └── archive_utility.yml
│   │   │   ├── T1561.002
│   │   │   │   └── mbr_raw_access
│   │   │   │       └── mbr_raw_access.yml
│   │   │   ├── T1562.001
│   │   │   │   ├── atomic_red_team
│   │   │   │   │   ├── atomic_red_team.yml
│   │   │   │   │   └── attack_data.json
│   │   │   │   ├── defender_exclusion_powershell
│   │   │   │   │   └── defender_exclusion_powershell.yml
│   │   │   │   ├── defender_exclusion_sysmon
│   │   │   │   │   └── defender_exclusion_sysmon.yml
│   │   │   │   ├── delete_win_defender_context_menu
│   │   │   │   │   └── delete_win_defender_context_menu.yml
│   │   │   │   ├── disable_defender_logging
│   │   │   │   │   └── disable_defender_logging.yml
│   │   │   │   ├── pwh_defender_disabling
│   │   │   │   │   └── pwh_defender_disabling.yml
│   │   │   │   ├── rmdir_defender_pwsh
│   │   │   │   │   └── rmdir_defender_pwsh.yml
│   │   │   │   ├── sc_service_start_disabled
│   │   │   │   │   └── sc_service_start_disabled.yaml
│   │   │   │   ├── unload_sysmon
│   │   │   │   │   └── unload_sysmon.yml
│   │   │   │   └── win_defend_service_stop
│   │   │   │       └── win_defend_service_stop.yml
│   │   │   ├── T1562.004
│   │   │   │   └── atomic_red_team
│   │   │   │       └── atomic_red_team.yml
│   │   │   ├── T1562.007
│   │   │   │   ├── aws_create_acl
│   │   │   │   │   ├── aws_cloudtrail_events.json
│   │   │   │   │   └── aws_create_acl.yml
│   │   │   │   ├── aws_delete_acl
│   │   │   │   │   ├── aws_cloudtrail_events.json
│   │   │   │   │   └── aws_delete_acl.yml
│   │   │   │   └── o365_bypass_mfa_via_trusted_ip
│   │   │   │       ├── o365_bypass_mfa_via_trusted_ip.json
│   │   │   │       └── o365_bypass_mfa_via_trusted_ip.yml
│   │   │   ├── T1562.008
│   │   │   │   ├── aws_delete_security_services
│   │   │   │   │   ├── aws_cloudtrail_events.json
│   │   │   │   │   └── aws_delete_security_services.yml
│   │   │   │   ├── delete_cloudwatch_log_group
│   │   │   │   │   ├── aws_cloudtrail_events.json
│   │   │   │   │   └── delete_cloudwatch_log_group.yml
│   │   │   │   ├── put_bucketlifecycle
│   │   │   │   │   ├── aws_cloudtrail_events.json
│   │   │   │   │   └── put_bucketlifecycle.yml
│   │   │   │   ├── stop_delete_cloudtrail
│   │   │   │   │   ├── aws_cloudtrail_events.json
│   │   │   │   │   └── stop_delete_cloudtrail.yml
│   │   │   │   └── update_cloudtrail
│   │   │   │       ├── aws_cloudtrail_events.json
│   │   │   │       └── update_cloudtrail.yml
│   │   │   ├── T1566.001
│   │   │   │   ├── gdrive_susp_file_share
│   │   │   │   │   └── gdrive_susp_file_share.yml
│   │   │   │   ├── gsuite_outbound_email_to_external
│   │   │   │   │   └── gsuite_outbound_email_to_external.yml
│   │   │   │   ├── gsuite_susp_attachment_ext
│   │   │   │   │   └── gsuite_susp_attachment_ext.yml
│   │   │   │   ├── gsuite_susp_subj
│   │   │   │   │   └── gsuite_susp_subj.yml
│   │   │   │   ├── gsuite_susp_url
│   │   │   │   │   └── gsuite_susp_url.yml
│   │   │   │   └── spearphishing_attachments.yml
│   │   │   ├── T1566.002
│   │   │   │   ├── atomic_red_team
│   │   │   │   │   ├── atomic_red_team.yml
│   │   │   │   │   ├── attack_data_network_resolution_dm.json
│   │   │   │   │   └── attack_data_stream:dns.json
│   │   │   │   └── lnk_file_temp_folder
│   │   │   │       └── lnk_file_temp_folder.yml
│   │   │   ├── T1567
│   │   │   │   └── splunk
│   │   │   │       └── splunk_data_exfiltration_from_analytics_workspace_using_sid_query.txt
│   │   │   ├── T1567.002
│   │   │   │   └── gsuite_share_drive
│   │   │   │       └── gsuite_share_drive.yml
│   │   │   ├── T1569
│   │   │   │   └── illegal_service_control
│   │   │   │       └── illegal_service_control.yml
│   │   │   ├── T1569.002
│   │   │   │   └── atomic_red_team
│   │   │   │       └── atomic_red_team.yml
│   │   │   ├── T1572
│   │   │   │   ├── cobalt_strike
│   │   │   │   │   └── cobalt_strike.yml
│   │   │   │   ├── ngrok
│   │   │   │   │   └── ngrok.yml
│   │   │   │   └── plink
│   │   │   │       └── plink.yml
│   │   │   ├── T1574.001
│   │   │   │   ├── atomic_red_team
│   │   │   │   │   └── atomic_red_team.yml
│   │   │   │   └── iscsicpl
│   │   │   │       └── iscsicpl.yml
│   │   │   ├── T1574.002
│   │   │   │   └── msi_module_load
│   │   │   │       └── msi_module_load.yml
│   │   │   ├── T1574.006
│   │   │   │   └── lib_hijack
│   │   │   │       └── lib_hijack.yml
│   │   │   ├── T1574.009
│   │   │   │   └── atomic_red_team
│   │   │   │       └── atomic_red_team.yml
│   │   │   ├── T1574.011
│   │   │   │   └── change_registry_path_service
│   │   │   │       └── change_registry_path_service.yml
│   │   │   ├── T1580
│   │   │   │   ├── aws_iam.yml
│   │   │   │   ├── aws_iam_accessdenied_discovery_events
│   │   │   │   │   └── aws_iam_accessdenied_discovery_events.json
│   │   │   │   ├── aws_iam_assume_role_policy_brute_force
│   │   │   │   │   └── aws_iam_assume_role_policy_brute_force.json
│   │   │   │   └── aws_iam_excessive_list_command_usage
│   │   │   │       └── aws_iam_excessive_list_command_usage.json
│   │   │   ├── T1585
│   │   │   │   └── illegal_account_creation
│   │   │   │       └── illegal_account_creation.yml
│   │   │   ├── T1587.002
│   │   │   │   └── atomic_red_team
│   │   │   │       └── certificates.yml
│   │   │   ├── T1587.003
│   │   │   │   └── splunk_fwder
│   │   │   │       └── splunkd.yml
│   │   │   ├── T1588.002
│   │   │   │   └── atomic_red_team
│   │   │   │       └── advancedrun.yml
│   │   │   ├── T1589.002
│   │   │   │   └── kerbrute
│   │   │   │       └── kerbrute.yml
│   │   │   ├── T1595
│   │   │   │   └── attacker_scan_tools
│   │   │   │       └── attacker_scan_tools.yml
│   │   │   ├── T1621
│   │   │   │   ├── aws_failed_mfa
│   │   │   │   │   ├── aws_failed_mfa.yml
│   │   │   │   │   └── cloudtrail.json
│   │   │   │   ├── aws_mfa_disabled
│   │   │   │   │   ├── aws_mfa_disabled.yml
│   │   │   │   │   └── cloudtrail.json
│   │   │   │   ├── azuread
│   │   │   │   │   └── azuread.yml
│   │   │   │   ├── gcp_failed_mfa
│   │   │   │   │   └── gcp_failed_mfa.yml
│   │   │   │   ├── multiple_failed_mfa_gws
│   │   │   │   │   └── multiple_failed_mfa_gws.yml
│   │   │   │   └── multiple_failed_mfa_requests
│   │   │   │       └── multiple_failed_mfa_requests.yml
│   │   │   ├── T1647
│   │   │   │   └── atomic_red_team
│   │   │   │       └── atomic_red_team.yml
│   │   │   ├── t1547.014
│   │   │   │   └── active_setup_stubpath
│   │   │   │       └── active_setup_stubpath.yml
│   │   │   └── t1592
│   │   │       ├── host_info_dxdiag
│   │   │       │   └── host_info_dxdiag.yml
│   │   │       └── pwh_av_recon
│   │   │           └── pwh_av_recon.yml
│   │   ├── honeypots
│   │   ├── malware
│   │   │   ├── acidrain
│   │   │   │   └── acidrain.yml
│   │   │   ├── agent_tesla
│   │   │   │   ├── agent_tesla_ftp
│   │   │   │   │   └── agent_tesla_ftp.yml
│   │   │   │   ├── agent_tesla_smtp
│   │   │   │   │   └── agent_tesla_smtp.yml
│   │   │   │   ├── agent_tesla_tor_dns_query
│   │   │   │   │   └── agent_tesla_tor_dns_query.yml
│   │   │   │   └── chm_powershell
│   │   │   │       └── chm_powershell.yml
│   │   │   ├── azorult
│   │   │   │   └── azorult.yml
│   │   │   ├── brute_ratel
│   │   │   │   ├── brute_duplicate_token
│   │   │   │   │   └── brute_duplicate_token.yml
│   │   │   │   ├── create_remote_thread
│   │   │   │   │   └── create_remote_thread.yml
│   │   │   │   ├── iso_version_dll_campaign
│   │   │   │   │   └── iso_version_dll_campaign.yml
│   │   │   │   ├── loading_samlib
│   │   │   │   │   └── loading_samlib.yml
│   │   │   │   ├── sedebugprivilege_token
│   │   │   │   │   └── sedebugprivilege_token.yml
│   │   │   │   ├── service_deletion
│   │   │   │   │   └── service_deletion.yml
│   │   │   │   └── wallpaper_via_transcodedwallpaper
│   │   │   │       └── wallpaper_via_transcodedwallpaper.yml
│   │   │   ├── clop
│   │   │   │   ├── clop_a
│   │   │   │   │   └── clop_a.yml
│   │   │   │   └── clop_b
│   │   │   │       └── clop_b.yml
│   │   │   ├── conti
│   │   │   │   └── conti_leak
│   │   │   │       └── conti_leak.yml
│   │   │   ├── cyclopsblink
│   │   │   │   └── cyclopsblink.yml
│   │   │   ├── dcrat
│   │   │   │   ├── dcrat_delay_execution
│   │   │   │   │   └── dcrat_delay_execution.yml
│   │   │   │   ├── dcrat_enum_camera
│   │   │   │   │   └── dcrat_enum_camera.yml
│   │   │   │   ├── dcrat_explorer_url
│   │   │   │   │   └── dcrat_explorer_url.yml
│   │   │   │   ├── dcrat_forkbomb
│   │   │   │   │   └── dcrat_forkbomb.yml
│   │   │   │   ├── reboot_logoff_commandline
│   │   │   │   │   └── reboot_logoff_commandline.yml
│   │   │   │   └── shutdown_commandline
│   │   │   │       └── shutdown_commandline.yml
│   │   │   ├── doublezero_wiper
│   │   │   │   └── doublezero_wiper.yml
│   │   │   ├── fin7
│   │   │   │   ├── fin7_js_2
│   │   │   │   │   └── fin7_js_2.yml
│   │   │   │   ├── fin7_macro_js_1
│   │   │   │   │   └── fin7_macro_js_1.yml
│   │   │   │   ├── fin7_sacl
│   │   │   │   │   └── fin7_sacl.yml
│   │   │   │   └── jssloader
│   │   │   │       └── jssloader.yml
│   │   │   ├── hermetic_wiper
│   │   │   │   ├── globalfolderoptions_reg
│   │   │   │   │   └── globalfolderoptions_reg.yml
│   │   │   │   └── hermetic_wiper.yml
│   │   │   ├── icedid
│   │   │   │   ├── cmd_carry_str_param
│   │   │   │   │   └── cmd_carry_str_param.yml
│   │   │   │   ├── disable_av
│   │   │   │   │   └── disable_av.yml
│   │   │   │   ├── disable_schtask
│   │   │   │   │   └── disable_schtask.yml
│   │   │   │   ├── inf_icedid
│   │   │   │   │   └── inf_icedid.yml
│   │   │   │   ├── phish_icedid
│   │   │   │   │   └── phish_icedid.yml
│   │   │   │   └── simulated_icedid
│   │   │   │       └── simulated_icedid.yml
│   │   │   ├── industroyer2
│   │   │   │   └── industroyer2.yml
│   │   │   ├── olympic_destroyer
│   │   │   │   └── olympic_destroyer.yml
│   │   │   ├── prestige_ransomware
│   │   │   │   └── prestige_ransomware.yml
│   │   │   ├── qakbot
│   │   │   │   ├── qakbot.yml
│   │   │   │   ├── qbot2
│   │   │   │   │   └── qbot2.yml
│   │   │   │   ├── qbot_3
│   │   │   │   │   └── qbot_3.yml
│   │   │   │   ├── qbot_wermgr
│   │   │   │   │   └── qbot_wermgr.yml
│   │   │   │   ├── qbot_wermgr2
│   │   │   │   │   └── qbot_wermgr2.yml
│   │   │   │   └── remote_thread
│   │   │   │       └── remote_thread.yml
│   │   │   ├── remcos
│   │   │   │   ├── remcos
│   │   │   │   │   └── remcos.yml
│   │   │   │   ├── remcos_agent
│   │   │   │   │   └── remcos_agent.yml
│   │   │   │   ├── remcos_dynwrapx
│   │   │   │   │   └── remcos_dynwrapx.yml
│   │   │   │   ├── remcos_panel_client
│   │   │   │   │   └── remcos_panel_client.yml
│   │   │   │   ├── remcos_pastebin_download
│   │   │   │   │   └── remcos_pastebin_download.yml
│   │   │   │   └── remcos_registry
│   │   │   │       └── remcos_registry.yml
│   │   │   ├── revil
│   │   │   │   └── msmpeng_side
│   │   │   │       └── msmpeng_side.yml
│   │   │   ├── ryuk
│   │   │   │   └── ryuk.yml
│   │   │   ├── trickbot
│   │   │   │   └── spear_phish
│   │   │   │       └── spear_phish.yml
│   │   │   ├── vilsel
│   │   │   │   └── vilse.yml
│   │   │   └── winpeas
│   │   │       ├── powershell
│   │   │       │   └── powershell.yml
│   │   │       ├── winpeas.yml
│   │   │       ├── winpeas_cmdkeylist
│   │   │       │   └── winpeas_cmdkeylist.yml
│   │   │       ├── winpeas_fsutil
│   │   │       │   └── winpeas_fsutil.yml
│   │   │       ├── winpeas_search_private_key
│   │   │       │   └── winpeas_search_private_key.yml
│   │   │       ├── winpeas_search_pwd
│   │   │       │   └── winpeas_search_pwd.yml
│   │   │       └── winpeas_search_pwd_db
│   │   │           └── winpeas_search_pwd_db.yml
│   │   └── suspicious_behaviour
│   │       ├── abnormally_high_cloud_instances_launched
│   │       │   ├── abnormally_high_cloud_instances_launched.yml
│   │       │   └── cloudtrail_behavioural_detections.json
│   │       ├── certutil_exe_certificate_extraction
│   │       │   └── certutil_exe_certificate_extraction.yml
│   │       ├── exchange_2016_iis
│   │       │   └── exchange_2016_iis.yml
│   │       ├── first_time_windows_service
│   │       │   └── first_time_windows_service.yml
│   │       ├── linux_post_exploitation
│   │       │   ├── LinuxEnumd.txt
│   │       │   ├── autoSUID.txt
│   │       │   ├── linpeasdataset.txt
│   │       │   ├── linux_post_exploitation.yml
│   │       │   ├── linuxexploitsuggesterdatasets.txt
│   │       │   └── mimipenguin.txt
│   │       ├── log4shell_exploitation
│   │       │   ├── log4shell_correlation.txt
│   │       │   └── log4shell_exploitation.yml
│   │       ├── security_hub_ec2_spike
│   │       │   ├── security_hub_ec2_spike.json
│   │       │   └── security_hub_ec2_spike.yml
│   │       ├── unusual_data_download
│   │       │   └── unusual_volume_data_download.txt
│   │       └── windows_lolbas_risk
│   │           ├── replay.yml
│   │           └── windows_lolbas_risk.yml
│   └── environments
│       ├── TEMPLATE.md
│       ├── attack_range.md
│       ├── attack_range_evilginx2.md
│       └── static
│           ├── attack-data-logo.png
│           └── attack_range_simple.png
├── dataset
│   └── placeholder.txt
├── dep
│   └── placeholder.txt
├── documentation
├── example
│   └── placeholder.txt
├── humans.txt
├── process_scorecard_results.py
├── repo_setup.sh
├── res
│   └── placeholder.txt
├── robots.txt
├── security.txt
├── src
│   └── placeholder.txt
├── structure.txt
├── test
│   └── placeholder.txt
└── tools
    └── placeholder.txt

745 directories, 659 files
