{"action":"create","alert":{"id":1389954644,"affected_range":">= 6.0.0, < 6.1.9","affected_package_name":"tar","external_reference":"https://github.com/npm/node-tar/security/advisories/GHSA-5955-9wpr-37jh","external_identifier":"CVE-2021-37713","ghsa_id":"GHSA-5955-9wpr-37jh","severity":"high","created_at":"2021-09-01T00:34:47Z","fixed_in":"6.1.9"},"repository":{"id":394691794,"node_id":"MDEwOlJlcG9zaXRvcnkzOTQ2OTE3OTQ=","name":"devsecops_poc","full_name":"splunk/devsecops_poc","private":true,"owner":{"login":"splunk","id":651467,"node_id":"MDEyOk9yZ2FuaXphdGlvbjY1MTQ2Nw==","avatar_url":"https://avatars.githubusercontent.com/u/651467?v=4","gravatar_id":"","url":"https://api.github.com/users/splunk","html_url":"https://github.com/splunk","followers_url":"https://api.github.com/users/splunk/followers","following_url":"https://api.github.com/users/splunk/following{/other_user}","gists_url":"https://api.github.com/users/splunk/gists{/gist_id}","starred_url":"https://api.github.com/users/splunk/starred{/owner}{/repo}","subscriptions_url":"https://api.github.com/users/splunk/subscriptions","organizations_url":"https://api.github.com/users/splunk/orgs","repos_url":"https://api.github.com/users/splunk/repos","events_url":"https://api.github.com/users/splunk/events{/privacy}","received_events_url":"https://api.github.com/users/splunk/received_events","type":"Organization","site_admin":false},"html_url":"https://github.com/splunk/devsecops_poc","description":"poc project","fork":false,"url":"https://api.github.com/repos/splunk/devsecops_poc","forks_url":"https://api.github.com/repos/splunk/devsecops_poc/forks","keys_url":"https://api.github.com/repos/splunk/devsecops_poc/keys{/key_id}","collaborators_url":"https://api.github.com/repos/splunk/devsecops_poc/collaborators{/collaborator}","teams_url":"https://api.github.com/repos/splunk/devsecops_poc/teams","hooks_url":"https://api.github.com/repos/splunk/devsecops_poc/hooks","issue_events_url":"https://api.github.com/repos/splunk/devsecops_poc/issues/events{/number}","events_url":"https://api.github.com/repos/splunk/devsecops_poc/events","assignees_url":"https://api.github.com/repos/splunk/devsecops_poc/assignees{/user}","branches_url":"https://api.github.com/repos/splunk/devsecops_poc/branches{/branch}","tags_url":"https://api.github.com/repos/splunk/devsecops_poc/tags","blobs_url":"https://api.github.com/repos/splunk/devsecops_poc/git/blobs{/sha}","git_tags_url":"https://api.github.com/repos/splunk/devsecops_poc/git/tags{/sha}","git_refs_url":"https://api.github.com/repos/splunk/devsecops_poc/git/refs{/sha}","trees_url":"https://api.github.com/repos/splunk/devsecops_poc/git/trees{/sha}","statuses_url":"https://api.github.com/repos/splunk/devsecops_poc/statuses/{sha}","languages_url":"https://api.github.com/repos/splunk/devsecops_poc/languages","stargazers_url":"https://api.github.com/repos/splunk/devsecops_poc/stargazers","contributors_url":"https://api.github.com/repos/splunk/devsecops_poc/contributors","subscribers_url":"https://api.github.com/repos/splunk/devsecops_poc/subscribers","subscription_url":"https://api.github.com/repos/splunk/devsecops_poc/subscription","commits_url":"https://api.github.com/repos/splunk/devsecops_poc/commits{/sha}","git_commits_url":"https://api.github.com/repos/splunk/devsecops_poc/git/commits{/sha}","comments_url":"https://api.github.com/repos/splunk/devsecops_poc/comments{/number}","issue_comment_url":"https://api.github.com/repos/splunk/devsecops_poc/issues/comments{/number}","contents_url":"https://api.github.com/repos/splunk/devsecops_poc/contents/{+path}","compare_url":"https://api.github.com/repos/splunk/devsecops_poc/compare/{base}...{head}","merges_url":"https://api.github.com/repos/splunk/devsecops_poc/merges","archive_url":"https://api.github.com/repos/splunk/devsecops_poc/{archive_format}{/ref}","downloads_url":"https://api.github.com/repos/splunk/devsecops_poc/downloads","issues_url":"https://api.github.com/repos/splunk/devsecops_poc/issues{/number}","pulls_url":"https://api.github.com/repos/splunk/devsecops_poc/pulls{/number}","milestones_url":"https://api.github.com/repos/splunk/devsecops_poc/milestones{/number}","notifications_url":"https://api.github.com/repos/splunk/devsecops_poc/notifications{?since,all,participating}","labels_url":"https://api.github.com/repos/splunk/devsecops_poc/labels{/name}","releases_url":"https://api.github.com/repos/splunk/devsecops_poc/releases{/id}","deployments_url":"https://api.github.com/repos/splunk/devsecops_poc/deployments","created_at":"2021-08-10T14:49:56Z","updated_at":"2021-08-27T11:59:58Z","pushed_at":"2021-08-27T13:48:09Z","git_url":"git://github.com/splunk/devsecops_poc.git","ssh_url":"git@github.com:splunk/devsecops_poc.git","clone_url":"https://github.com/splunk/devsecops_poc.git","svn_url":"https://github.com/splunk/devsecops_poc","homepage":null,"size":743,"stargazers_count":0,"watchers_count":0,"language":"JavaScript","has_issues":true,"has_projects":true,"has_downloads":true,"has_wiki":true,"has_pages":false,"forks_count":1,"mirror_url":null,"archived":false,"disabled":false,"open_issues_count":1,"license":{"key":"apache-2.0","name":"Apache License 2.0","spdx_id":"Apache-2.0","url":"https://api.github.com/licenses/apache-2.0","node_id":"MDc6TGljZW5zZTI="},"forks":1,"open_issues":1,"watchers":0,"default_branch":"main"},"organization":{"login":"splunk","id":651467,"node_id":"MDEyOk9yZ2FuaXphdGlvbjY1MTQ2Nw==","url":"https://api.github.com/orgs/splunk","repos_url":"https://api.github.com/orgs/splunk/repos","events_url":"https://api.github.com/orgs/splunk/events","hooks_url":"https://api.github.com/orgs/splunk/hooks","issues_url":"https://api.github.com/orgs/splunk/issues","members_url":"https://api.github.com/orgs/splunk/members{/member}","public_members_url":"https://api.github.com/orgs/splunk/public_members{/member}","avatar_url":"https://avatars.githubusercontent.com/u/651467?v=4","description":""},"enterprise":{"id":3868,"slug":"splunk","name":"Splunk","node_id":"MDEwOkVudGVycHJpc2UzODY4","avatar_url":"https://avatars.githubusercontent.com/b/3868?v=4","description":null,"website_url":null,"html_url":"https://github.com/enterprises/splunk","created_at":"2020-08-17T01:32:09Z","updated_at":"2020-08-17T01:35:26Z"},"sender":{"login":"github","id":9919,"node_id":"MDEyOk9yZ2FuaXphdGlvbjk5MTk=","avatar_url":"https://avatars.githubusercontent.com/u/9919?v=4","gravatar_id":"","url":"https://api.github.com/users/github","html_url":"https://github.com/github","followers_url":"https://api.github.com/users/github/followers","following_url":"https://api.github.com/users/github/following{/other_user}","gists_url":"https://api.github.com/users/github/gists{/gist_id}","starred_url":"https://api.github.com/users/github/starred{/owner}{/repo}","subscriptions_url":"https://api.github.com/users/github/subscriptions","organizations_url":"https://api.github.com/users/github/orgs","repos_url":"https://api.github.com/users/github/repos","events_url":"https://api.github.com/users/github/events{/privacy}","received_events_url":"https://api.github.com/users/github/received_events","type":"Organization","site_admin":false}}
{"action":"create","alert":{"id":1389951325,"affected_range":">= 6.0.0, < 6.1.9","affected_package_name":"tar","external_reference":"https://github.com/npm/node-tar/security/advisories/GHSA-qq89-hq3f-393p","external_identifier":"CVE-2021-37712","ghsa_id":"GHSA-qq89-hq3f-393p","severity":"high","created_at":"2021-09-01T00:34:08Z","fixed_in":"6.1.9"},"repository":{"id":394691794,"node_id":"MDEwOlJlcG9zaXRvcnkzOTQ2OTE3OTQ=","name":"devsecops_poc","full_name":"splunk/devsecops_poc","private":true,"owner":{"login":"splunk","id":651467,"node_id":"MDEyOk9yZ2FuaXphdGlvbjY1MTQ2Nw==","avatar_url":"https://avatars.githubusercontent.com/u/651467?v=4","gravatar_id":"","url":"https://api.github.com/users/splunk","html_url":"https://github.com/splunk","followers_url":"https://api.github.com/users/splunk/followers","following_url":"https://api.github.com/users/splunk/following{/other_user}","gists_url":"https://api.github.com/users/splunk/gists{/gist_id}","starred_url":"https://api.github.com/users/splunk/starred{/owner}{/repo}","subscriptions_url":"https://api.github.com/users/splunk/subscriptions","organizations_url":"https://api.github.com/users/splunk/orgs","repos_url":"https://api.github.com/users/splunk/repos","events_url":"https://api.github.com/users/splunk/events{/privacy}","received_events_url":"https://api.github.com/users/splunk/received_events","type":"Organization","site_admin":false},"html_url":"https://github.com/splunk/devsecops_poc","description":"poc project","fork":false,"url":"https://api.github.com/repos/splunk/devsecops_poc","forks_url":"https://api.github.com/repos/splunk/devsecops_poc/forks","keys_url":"https://api.github.com/repos/splunk/devsecops_poc/keys{/key_id}","collaborators_url":"https://api.github.com/repos/splunk/devsecops_poc/collaborators{/collaborator}","teams_url":"https://api.github.com/repos/splunk/devsecops_poc/teams","hooks_url":"https://api.github.com/repos/splunk/devsecops_poc/hooks","issue_events_url":"https://api.github.com/repos/splunk/devsecops_poc/issues/events{/number}","events_url":"https://api.github.com/repos/splunk/devsecops_poc/events","assignees_url":"https://api.github.com/repos/splunk/devsecops_poc/assignees{/user}","branches_url":"https://api.github.com/repos/splunk/devsecops_poc/branches{/branch}","tags_url":"https://api.github.com/repos/splunk/devsecops_poc/tags","blobs_url":"https://api.github.com/repos/splunk/devsecops_poc/git/blobs{/sha}","git_tags_url":"https://api.github.com/repos/splunk/devsecops_poc/git/tags{/sha}","git_refs_url":"https://api.github.com/repos/splunk/devsecops_poc/git/refs{/sha}","trees_url":"https://api.github.com/repos/splunk/devsecops_poc/git/trees{/sha}","statuses_url":"https://api.github.com/repos/splunk/devsecops_poc/statuses/{sha}","languages_url":"https://api.github.com/repos/splunk/devsecops_poc/languages","stargazers_url":"https://api.github.com/repos/splunk/devsecops_poc/stargazers","contributors_url":"https://api.github.com/repos/splunk/devsecops_poc/contributors","subscribers_url":"https://api.github.com/repos/splunk/devsecops_poc/subscribers","subscription_url":"https://api.github.com/repos/splunk/devsecops_poc/subscription","commits_url":"https://api.github.com/repos/splunk/devsecops_poc/commits{/sha}","git_commits_url":"https://api.github.com/repos/splunk/devsecops_poc/git/commits{/sha}","comments_url":"https://api.github.com/repos/splunk/devsecops_poc/comments{/number}","issue_comment_url":"https://api.github.com/repos/splunk/devsecops_poc/issues/comments{/number}","contents_url":"https://api.github.com/repos/splunk/devsecops_poc/contents/{+path}","compare_url":"https://api.github.com/repos/splunk/devsecops_poc/compare/{base}...{head}","merges_url":"https://api.github.com/repos/splunk/devsecops_poc/merges","archive_url":"https://api.github.com/repos/splunk/devsecops_poc/{archive_format}{/ref}","downloads_url":"https://api.github.com/repos/splunk/devsecops_poc/downloads","issues_url":"https://api.github.com/repos/splunk/devsecops_poc/issues{/number}","pulls_url":"https://api.github.com/repos/splunk/devsecops_poc/pulls{/number}","milestones_url":"https://api.github.com/repos/splunk/devsecops_poc/milestones{/number}","notifications_url":"https://api.github.com/repos/splunk/devsecops_poc/notifications{?since,all,participating}","labels_url":"https://api.github.com/repos/splunk/devsecops_poc/labels{/name}","releases_url":"https://api.github.com/repos/splunk/devsecops_poc/releases{/id}","deployments_url":"https://api.github.com/repos/splunk/devsecops_poc/deployments","created_at":"2021-08-10T14:49:56Z","updated_at":"2021-08-27T11:59:58Z","pushed_at":"2021-08-27T13:48:09Z","git_url":"git://github.com/splunk/devsecops_poc.git","ssh_url":"git@github.com:splunk/devsecops_poc.git","clone_url":"https://github.com/splunk/devsecops_poc.git","svn_url":"https://github.com/splunk/devsecops_poc","homepage":null,"size":743,"stargazers_count":0,"watchers_count":0,"language":"JavaScript","has_issues":true,"has_projects":true,"has_downloads":true,"has_wiki":true,"has_pages":false,"forks_count":1,"mirror_url":null,"archived":false,"disabled":false,"open_issues_count":1,"license":{"key":"apache-2.0","name":"Apache License 2.0","spdx_id":"Apache-2.0","url":"https://api.github.com/licenses/apache-2.0","node_id":"MDc6TGljZW5zZTI="},"forks":1,"open_issues":1,"watchers":0,"default_branch":"main"},"organization":{"login":"splunk","id":651467,"node_id":"MDEyOk9yZ2FuaXphdGlvbjY1MTQ2Nw==","url":"https://api.github.com/orgs/splunk","repos_url":"https://api.github.com/orgs/splunk/repos","events_url":"https://api.github.com/orgs/splunk/events","hooks_url":"https://api.github.com/orgs/splunk/hooks","issues_url":"https://api.github.com/orgs/splunk/issues","members_url":"https://api.github.com/orgs/splunk/members{/member}","public_members_url":"https://api.github.com/orgs/splunk/public_members{/member}","avatar_url":"https://avatars.githubusercontent.com/u/651467?v=4","description":""},"enterprise":{"id":3868,"slug":"splunk","name":"Splunk","node_id":"MDEwOkVudGVycHJpc2UzODY4","avatar_url":"https://avatars.githubusercontent.com/b/3868?v=4","description":null,"website_url":null,"html_url":"https://github.com/enterprises/splunk","created_at":"2020-08-17T01:32:09Z","updated_at":"2020-08-17T01:35:26Z"},"sender":{"login":"github","id":9919,"node_id":"MDEyOk9yZ2FuaXphdGlvbjk5MTk=","avatar_url":"https://avatars.githubusercontent.com/u/9919?v=4","gravatar_id":"","url":"https://api.github.com/users/github","html_url":"https://github.com/github","followers_url":"https://api.github.com/users/github/followers","following_url":"https://api.github.com/users/github/following{/other_user}","gists_url":"https://api.github.com/users/github/gists{/gist_id}","starred_url":"https://api.github.com/users/github/starred{/owner}{/repo}","subscriptions_url":"https://api.github.com/users/github/subscriptions","organizations_url":"https://api.github.com/users/github/orgs","repos_url":"https://api.github.com/users/github/repos","events_url":"https://api.github.com/users/github/events{/privacy}","received_events_url":"https://api.github.com/users/github/received_events","type":"Organization","site_admin":false}}
{"action":"create","alert":{"id":1389950753,"affected_range":">= 6.0.0, < 6.1.7","affected_package_name":"tar","external_reference":"https://github.com/npm/node-tar/security/advisories/GHSA-9r2w-394v-53qc","external_identifier":"CVE-2021-37701","ghsa_id":"GHSA-9r2w-394v-53qc","severity":"high","created_at":"2021-09-01T00:34:01Z","fixed_in":"6.1.7"},"repository":{"id":394691794,"node_id":"MDEwOlJlcG9zaXRvcnkzOTQ2OTE3OTQ=","name":"devsecops_poc","full_name":"splunk/devsecops_poc","private":true,"owner":{"login":"splunk","id":651467,"node_id":"MDEyOk9yZ2FuaXphdGlvbjY1MTQ2Nw==","avatar_url":"https://avatars.githubusercontent.com/u/651467?v=4","gravatar_id":"","url":"https://api.github.com/users/splunk","html_url":"https://github.com/splunk","followers_url":"https://api.github.com/users/splunk/followers","following_url":"https://api.github.com/users/splunk/following{/other_user}","gists_url":"https://api.github.com/users/splunk/gists{/gist_id}","starred_url":"https://api.github.com/users/splunk/starred{/owner}{/repo}","subscriptions_url":"https://api.github.com/users/splunk/subscriptions","organizations_url":"https://api.github.com/users/splunk/orgs","repos_url":"https://api.github.com/users/splunk/repos","events_url":"https://api.github.com/users/splunk/events{/privacy}","received_events_url":"https://api.github.com/users/splunk/received_events","type":"Organization","site_admin":false},"html_url":"https://github.com/splunk/devsecops_poc","description":"poc project","fork":false,"url":"https://api.github.com/repos/splunk/devsecops_poc","forks_url":"https://api.github.com/repos/splunk/devsecops_poc/forks","keys_url":"https://api.github.com/repos/splunk/devsecops_poc/keys{/key_id}","collaborators_url":"https://api.github.com/repos/splunk/devsecops_poc/collaborators{/collaborator}","teams_url":"https://api.github.com/repos/splunk/devsecops_poc/teams","hooks_url":"https://api.github.com/repos/splunk/devsecops_poc/hooks","issue_events_url":"https://api.github.com/repos/splunk/devsecops_poc/issues/events{/number}","events_url":"https://api.github.com/repos/splunk/devsecops_poc/events","assignees_url":"https://api.github.com/repos/splunk/devsecops_poc/assignees{/user}","branches_url":"https://api.github.com/repos/splunk/devsecops_poc/branches{/branch}","tags_url":"https://api.github.com/repos/splunk/devsecops_poc/tags","blobs_url":"https://api.github.com/repos/splunk/devsecops_poc/git/blobs{/sha}","git_tags_url":"https://api.github.com/repos/splunk/devsecops_poc/git/tags{/sha}","git_refs_url":"https://api.github.com/repos/splunk/devsecops_poc/git/refs{/sha}","trees_url":"https://api.github.com/repos/splunk/devsecops_poc/git/trees{/sha}","statuses_url":"https://api.github.com/repos/splunk/devsecops_poc/statuses/{sha}","languages_url":"https://api.github.com/repos/splunk/devsecops_poc/languages","stargazers_url":"https://api.github.com/repos/splunk/devsecops_poc/stargazers","contributors_url":"https://api.github.com/repos/splunk/devsecops_poc/contributors","subscribers_url":"https://api.github.com/repos/splunk/devsecops_poc/subscribers","subscription_url":"https://api.github.com/repos/splunk/devsecops_poc/subscription","commits_url":"https://api.github.com/repos/splunk/devsecops_poc/commits{/sha}","git_commits_url":"https://api.github.com/repos/splunk/devsecops_poc/git/commits{/sha}","comments_url":"https://api.github.com/repos/splunk/devsecops_poc/comments{/number}","issue_comment_url":"https://api.github.com/repos/splunk/devsecops_poc/issues/comments{/number}","contents_url":"https://api.github.com/repos/splunk/devsecops_poc/contents/{+path}","compare_url":"https://api.github.com/repos/splunk/devsecops_poc/compare/{base}...{head}","merges_url":"https://api.github.com/repos/splunk/devsecops_poc/merges","archive_url":"https://api.github.com/repos/splunk/devsecops_poc/{archive_format}{/ref}","downloads_url":"https://api.github.com/repos/splunk/devsecops_poc/downloads","issues_url":"https://api.github.com/repos/splunk/devsecops_poc/issues{/number}","pulls_url":"https://api.github.com/repos/splunk/devsecops_poc/pulls{/number}","milestones_url":"https://api.github.com/repos/splunk/devsecops_poc/milestones{/number}","notifications_url":"https://api.github.com/repos/splunk/devsecops_poc/notifications{?since,all,participating}","labels_url":"https://api.github.com/repos/splunk/devsecops_poc/labels{/name}","releases_url":"https://api.github.com/repos/splunk/devsecops_poc/releases{/id}","deployments_url":"https://api.github.com/repos/splunk/devsecops_poc/deployments","created_at":"2021-08-10T14:49:56Z","updated_at":"2021-08-27T11:59:58Z","pushed_at":"2021-08-27T13:48:09Z","git_url":"git://github.com/splunk/devsecops_poc.git","ssh_url":"git@github.com:splunk/devsecops_poc.git","clone_url":"https://github.com/splunk/devsecops_poc.git","svn_url":"https://github.com/splunk/devsecops_poc","homepage":null,"size":743,"stargazers_count":0,"watchers_count":0,"language":"JavaScript","has_issues":true,"has_projects":true,"has_downloads":true,"has_wiki":true,"has_pages":false,"forks_count":1,"mirror_url":null,"archived":false,"disabled":false,"open_issues_count":1,"license":{"key":"apache-2.0","name":"Apache License 2.0","spdx_id":"Apache-2.0","url":"https://api.github.com/licenses/apache-2.0","node_id":"MDc6TGljZW5zZTI="},"forks":1,"open_issues":1,"watchers":0,"default_branch":"main"},"organization":{"login":"splunk","id":651467,"node_id":"MDEyOk9yZ2FuaXphdGlvbjY1MTQ2Nw==","url":"https://api.github.com/orgs/splunk","repos_url":"https://api.github.com/orgs/splunk/repos","events_url":"https://api.github.com/orgs/splunk/events","hooks_url":"https://api.github.com/orgs/splunk/hooks","issues_url":"https://api.github.com/orgs/splunk/issues","members_url":"https://api.github.com/orgs/splunk/members{/member}","public_members_url":"https://api.github.com/orgs/splunk/public_members{/member}","avatar_url":"https://avatars.githubusercontent.com/u/651467?v=4","description":""},"enterprise":{"id":3868,"slug":"splunk","name":"Splunk","node_id":"MDEwOkVudGVycHJpc2UzODY4","avatar_url":"https://avatars.githubusercontent.com/b/3868?v=4","description":null,"website_url":null,"html_url":"https://github.com/enterprises/splunk","created_at":"2020-08-17T01:32:09Z","updated_at":"2020-08-17T01:35:26Z"},"sender":{"login":"github","id":9919,"node_id":"MDEyOk9yZ2FuaXphdGlvbjk5MTk=","avatar_url":"https://avatars.githubusercontent.com/u/9919?v=4","gravatar_id":"","url":"https://api.github.com/users/github","html_url":"https://github.com/github","followers_url":"https://api.github.com/users/github/followers","following_url":"https://api.github.com/users/github/following{/other_user}","gists_url":"https://api.github.com/users/github/gists{/gist_id}","starred_url":"https://api.github.com/users/github/starred{/owner}{/repo}","subscriptions_url":"https://api.github.com/users/github/subscriptions","organizations_url":"https://api.github.com/users/github/orgs","repos_url":"https://api.github.com/users/github/repos","events_url":"https://api.github.com/users/github/events{/privacy}","received_events_url":"https://api.github.com/users/github/received_events","type":"Organization","site_admin":false}}
