{"preview":false,"result":{"ActorIpAddress":"73.15.72.101","UserAgent":"Mozilla/5.0 (Macintosh; Intel Mac OS X 10_15_7) AppleWebKit/537.36 (KHTML, like Gecko) Chrome/87.0.4280.88 Safari/537.36","LogonError":"SsoArtifactInvalidOrExpired"}}
{"preview":false,"result":{"ActorIpAddress":"73.15.72.101","UserAgent":"Mozilla/5.0 (Macintosh; Intel Mac OS X 10_15_7) AppleWebKit/537.36 (KHTML, like Gecko) Chrome/87.0.4280.88 Safari/537.36","LogonError":"SsoArtifactInvalidOrExpired"}}
{"preview":false,"result":{"ActorIpAddress":"73.15.72.101","UserAgent":"Mozilla/5.0 (Macintosh; Intel Mac OS X 10_15_7) AppleWebKit/537.36 (KHTML, like Gecko) Chrome/87.0.4280.88 Safari/537.36","LogonError":"SsoArtifactInvalidOrExpired"}}
{"preview":false,"result":{"ActorIpAddress":"73.15.72.101","UserAgent":"Mozilla/5.0 (Macintosh; Intel Mac OS X 10_15_7) AppleWebKit/537.36 (KHTML, like Gecko) Chrome/87.0.4280.88 Safari/537.36","LogonError":"SsoArtifactInvalidOrExpired"}}
{"preview":false,"result":{"ActorIpAddress":"73.15.72.101","UserAgent":"Mozilla/5.0 (Macintosh; Intel Mac OS X 10_15_7) AppleWebKit/537.36 (KHTML, like Gecko) Chrome/87.0.4280.88 Safari/537.36","LogonError":"SsoArtifactInvalidOrExpired"}}
{"preview":false,"result":{"ActorIpAddress":"73.15.72.101","UserAgent":"Mozilla/5.0 (Macintosh; Intel Mac OS X 10_15_7) AppleWebKit/537.36 (KHTML, like Gecko) Chrome/87.0.4280.88 Safari/537.36","LogonError":"SsoArtifactInvalidOrExpired"}}
{"preview":false,"result":{"ActorIpAddress":"73.15.72.101","UserAgent":"Mozilla/5.0 (Macintosh; Intel Mac OS X 10_15_7) AppleWebKit/537.36 (KHTML, like Gecko) Chrome/87.0.4280.88 Safari/537.36","LogonError":"SsoArtifactInvalidOrExpired"}}
{"preview":false,"result":{"ActorIpAddress":"66.176.252.11","UserAgent":"Mozilla/5.0 (Macintosh; Intel Mac OS X 10_14_6) AppleWebKit/537.36 (KHTML, like Gecko) Chrome/87.0.4280.88 Safari/537.36","LogonError":"SsoArtifactInvalidOrExpired"}}
{"preview":false,"result":{"ActorIpAddress":"66.176.252.11","UserAgent":"Mozilla/4.0 (compatible; MSIE 7.0; Windows NT 10.0; Win64; x64; Trident/7.0; .NET4.0C; .NET4.0E)","LogonError":"SsoArtifactInvalidOrExpired"}}
{"preview":false,"result":{"ActorIpAddress":"66.176.252.11","UserAgent":"Mozilla/4.0 (compatible; MSIE 7.0; Windows NT 10.0; Win64; x64; Trident/7.0; .NET4.0C; .NET4.0E)","LogonError":"SsoArtifactInvalidOrExpired"}}
{"preview":false,"result":{"ActorIpAddress":"66.176.252.11","UserAgent":"Mozilla/4.0 (compatible; MSIE 7.0; Windows NT 10.0; Win64; x64; Trident/7.0; .NET4.0C; .NET4.0E)","LogonError":"SsoArtifactInvalidOrExpired"}}
{"preview":false,"lastrow":true,"result":{"ActorIpAddress":"66.176.252.11","UserAgent":"Mozilla/4.0 (compatible; MSIE 7.0; Windows NT 10.0; Win64; x64; Trident/7.0; .NET4.0C; .NET4.0E)","LogonError":"SsoArtifactInvalidOrExpired"}}
