{"preview":false,"result":{"_raw":"{\"endtime\":\"2020-08-13T19:38:08.374559Z\",\"timestamp\":\"2020-08-13T19:38:08.373641Z\",\"hostname\":[\"ns1.phishnet.attackrange.local\"],\"host_addr\":[\"10.0.1.16\"],\"message_type\":[\"QUERY\",\"RESPONSE\"],\"name\":[\"fls-na.scamazon.phishnet.attackrange.local\",\"phishnet.attackrange.local\"],\"query\":[\"fls-na.scamazon.phishnet.attackrange.local\"],\"query_type\":[\"A\"],\"reply_code\":\"NoError\",\"reply_code_id\":0,\"response_time\":918,\"transaction_id\":38745,\"ttl\":[300,300],\"bytes\":307,\"src_ip\":\"10.0.1.12\",\"src_mac\":\"02:5E:8B:CE:71:BD\",\"src_port\":35888,\"bytes_in\":60,\"dest_ip\":\"10.0.1.14\",\"dest_mac\":\"02:A1:AF:05:17:4D\",\"dest_port\":53,\"bytes_out\":247,\"time_taken\":918,\"transport\":\"udp\",\"flow_id\":\"9cbc0585-c152-4858-baa2-6ac4e43f1762\",\"protocol_stack\":\"ip:udp:dns\"}","_time":"2020-08-13T19:38:08.374+0000","answer":"10.0.1.16","app":"dns","bytes":"307","bytes_in":"60","bytes_out":"247","date_hour":"19","date_mday":"13","date_minute":"38","date_month":"august","date_second":"8","date_wday":"thursday","date_year":"2020","date_zone":"0","dest":"10.0.1.14","dest_ip":"10.0.1.14","dest_mac":"02:A1:AF:05:17:4D","dest_port":"53","duration":"918","endtime":"2020-08-13T19:38:08.374559Z","eventtype":["stream_dns","stream_network_traffic"],"flow_id":"9cbc0585-c152-4858-baa2-6ac4e43f1762","host":"splunk-server-8362664","host_addr{}":"10.0.1.16","hostname{}":"ns1.phishnet.attackrange.local","index":"main","linecount":"1","message_type":["QUERY","RESPONSE"],"message_types":["QUERY","RESPONSE"],"message_type{}":["QUERY","RESPONSE"],"name{}":["fls-na.scamazon.phishnet.attackrange.local","phishnet.attackrange.local"],"protocol":"dns","protocol_stack":"ip:udp:dns","punct":"{\"\":\"--::.\",\"\":\"--::.\",\"\":[\"...\"],\"\":[\"...\"],\"\":[\"","queries":"fls-na.scamazon.phishnet.attackrange.local","query":"fls-na.scamazon.phishnet.attackrange.local","query_type{}":"A","query{}":"fls-na.scamazon.phishnet.attackrange.local","record_type":"A","reply_code":"NoError","reply_code_id":"0","response_time":"918","source":"stream:dns","sourcetype":"stream:dns","splunk_server":"splunk-server-8362664","src":"10.0.1.12","src_ip":"10.0.1.12","src_mac":"02:5E:8B:CE:71:BD","src_port":"35888","tag":["communicate","dns","network","resolution"],"tag::eventtype":["communicate","dns","network","resolution"],"time_taken":"918","timeendpos":"39","timestamp":"2020-08-13T19:38:08.373641Z","timestartpos":"12","transaction_id":"38745","transport":"udp","ttl{}":["300","300"]}}
{"preview":false,"result":{"_raw":"{\"endtime\":\"2020-08-13T19:38:08.374501Z\",\"timestamp\":\"2020-08-13T19:38:08.373659Z\",\"hostname\":[\"ns1.phishnet.attackrange.local\"],\"message_type\":[\"QUERY\",\"RESPONSE\"],\"name\":[\"phishnet.attackrange.local\"],\"query\":[\"fls-na.scamazon.phishnet.attackrange.local\"],\"query_type\":[\"AAAA\"],\"reply_code\":\"NoError\",\"reply_code_id\":0,\"response_time\":842,\"transaction_id\":64347,\"ttl\":[300],\"bytes\":249,\"src_ip\":\"10.0.1.12\",\"src_mac\":\"02:5E:8B:CE:71:BD\",\"src_port\":35888,\"bytes_in\":60,\"dest_ip\":\"10.0.1.14\",\"dest_mac\":\"02:A1:AF:05:17:4D\",\"dest_port\":53,\"bytes_out\":189,\"time_taken\":842,\"transport\":\"udp\",\"flow_id\":\"9cbc0585-c152-4858-baa2-6ac4e43f1762\",\"protocol_stack\":\"ip:udp:dns\"}","_time":"2020-08-13T19:38:08.374+0000","app":"dns","bytes":"249","bytes_in":"60","bytes_out":"189","date_hour":"19","date_mday":"13","date_minute":"38","date_month":"august","date_second":"8","date_wday":"thursday","date_year":"2020","date_zone":"0","dest":"10.0.1.14","dest_ip":"10.0.1.14","dest_mac":"02:A1:AF:05:17:4D","dest_port":"53","duration":"842","endtime":"2020-08-13T19:38:08.374501Z","eventtype":["stream_dns","stream_network_traffic"],"flow_id":"9cbc0585-c152-4858-baa2-6ac4e43f1762","host":"splunk-server-8362664","hostname{}":"ns1.phishnet.attackrange.local","index":"main","linecount":"1","message_type":["QUERY","RESPONSE"],"message_types":["QUERY","RESPONSE"],"message_type{}":["QUERY","RESPONSE"],"name{}":"phishnet.attackrange.local","protocol":"dns","protocol_stack":"ip:udp:dns","punct":"{\"\":\"--::.\",\"\":\"--::.\",\"\":[\"...\"],\"\":[\"\",\"\"],\"\":[\"","queries":"fls-na.scamazon.phishnet.attackrange.local","query":"fls-na.scamazon.phishnet.attackrange.local","query_type{}":"AAAA","query{}":"fls-na.scamazon.phishnet.attackrange.local","record_type":"AAAA","reply_code":"NoError","reply_code_id":"0","response_time":"842","source":"stream:dns","sourcetype":"stream:dns","splunk_server":"splunk-server-8362664","src":"10.0.1.12","src_ip":"10.0.1.12","src_mac":"02:5E:8B:CE:71:BD","src_port":"35888","tag":["communicate","dns","network","resolution"],"tag::eventtype":["communicate","dns","network","resolution"],"time_taken":"842","timeendpos":"39","timestamp":"2020-08-13T19:38:08.373659Z","timestartpos":"12","transaction_id":"64347","transport":"udp","ttl{}":"300"}}
{"preview":false,"result":{"_raw":"{\"endtime\":\"2020-08-13T19:38:08.174363Z\",\"timestamp\":\"2020-08-13T19:38:08.173181Z\",\"hostname\":[\"ns1.phishnet.attackrange.local\"],\"host_addr\":[\"10.0.1.16\"],\"message_type\":[\"QUERY\",\"RESPONSE\"],\"name\":[\"images-na.scamazon.phishnet.attackrange.local\",\"phishnet.attackrange.local\"],\"query\":[\"images-na.scamazon.phishnet.attackrange.local\"],\"query_type\":[\"A\"],\"reply_code\":\"NoError\",\"reply_code_id\":0,\"response_time\":1182,\"transaction_id\":56129,\"ttl\":[300,300],\"bytes\":316,\"src_ip\":\"10.0.1.12\",\"src_mac\":\"02:5E:8B:CE:71:BD\",\"src_port\":35888,\"bytes_in\":63,\"dest_ip\":\"10.0.1.14\",\"dest_mac\":\"02:A1:AF:05:17:4D\",\"dest_port\":53,\"bytes_out\":253,\"time_taken\":1182,\"transport\":\"udp\",\"flow_id\":\"9cbc0585-c152-4858-baa2-6ac4e43f1762\",\"protocol_stack\":\"ip:udp:dns\"}","_time":"2020-08-13T19:38:08.174+0000","answer":"10.0.1.16","app":"dns","bytes":"316","bytes_in":"63","bytes_out":"253","date_hour":"19","date_mday":"13","date_minute":"38","date_month":"august","date_second":"8","date_wday":"thursday","date_year":"2020","date_zone":"0","dest":"10.0.1.14","dest_ip":"10.0.1.14","dest_mac":"02:A1:AF:05:17:4D","dest_port":"53","duration":"1182","endtime":"2020-08-13T19:38:08.174363Z","eventtype":["stream_dns","stream_network_traffic"],"flow_id":"9cbc0585-c152-4858-baa2-6ac4e43f1762","host":"splunk-server-8362664","host_addr{}":"10.0.1.16","hostname{}":"ns1.phishnet.attackrange.local","index":"main","linecount":"1","message_type":["QUERY","RESPONSE"],"message_types":["QUERY","RESPONSE"],"message_type{}":["QUERY","RESPONSE"],"name{}":["images-na.scamazon.phishnet.attackrange.local","phishnet.attackrange.local"],"protocol":"dns","protocol_stack":"ip:udp:dns","punct":"{\"\":\"--::.\",\"\":\"--::.\",\"\":[\"...\"],\"\":[\"...\"],\"\":[\"","queries":"images-na.scamazon.phishnet.attackrange.local","query":"images-na.scamazon.phishnet.attackrange.local","query_type{}":"A","query{}":"images-na.scamazon.phishnet.attackrange.local","record_type":"A","reply_code":"NoError","reply_code_id":"0","response_time":"1182","source":"stream:dns","sourcetype":"stream:dns","splunk_server":"splunk-server-8362664","src":"10.0.1.12","src_ip":"10.0.1.12","src_mac":"02:5E:8B:CE:71:BD","src_port":"35888","tag":["communicate","dns","network","resolution"],"tag::eventtype":["communicate","dns","network","resolution"],"time_taken":"1182","timeendpos":"39","timestamp":"2020-08-13T19:38:08.173181Z","timestartpos":"12","transaction_id":"56129","transport":"udp","ttl{}":["300","300"]}}
{"preview":false,"result":{"_raw":"{\"endtime\":\"2020-08-13T19:38:08.174321Z\",\"timestamp\":\"2020-08-13T19:38:08.173204Z\",\"hostname\":[\"ns1.phishnet.attackrange.local\"],\"message_type\":[\"QUERY\",\"RESPONSE\"],\"name\":[\"phishnet.attackrange.local\"],\"query\":[\"images-na.scamazon.phishnet.attackrange.local\"],\"query_type\":[\"AAAA\"],\"reply_code\":\"NoError\",\"reply_code_id\":0,\"response_time\":1117,\"transaction_id\":53314,\"ttl\":[300],\"bytes\":255,\"src_ip\":\"10.0.1.12\",\"src_mac\":\"02:5E:8B:CE:71:BD\",\"src_port\":35888,\"bytes_in\":63,\"dest_ip\":\"10.0.1.14\",\"dest_mac\":\"02:A1:AF:05:17:4D\",\"dest_port\":53,\"bytes_out\":192,\"time_taken\":1117,\"transport\":\"udp\",\"flow_id\":\"9cbc0585-c152-4858-baa2-6ac4e43f1762\",\"protocol_stack\":\"ip:udp:dns\"}","_time":"2020-08-13T19:38:08.174+0000","app":"dns","bytes":"255","bytes_in":"63","bytes_out":"192","date_hour":"19","date_mday":"13","date_minute":"38","date_month":"august","date_second":"8","date_wday":"thursday","date_year":"2020","date_zone":"0","dest":"10.0.1.14","dest_ip":"10.0.1.14","dest_mac":"02:A1:AF:05:17:4D","dest_port":"53","duration":"1117","endtime":"2020-08-13T19:38:08.174321Z","eventtype":["stream_dns","stream_network_traffic"],"flow_id":"9cbc0585-c152-4858-baa2-6ac4e43f1762","host":"splunk-server-8362664","hostname{}":"ns1.phishnet.attackrange.local","index":"main","linecount":"1","message_type":["QUERY","RESPONSE"],"message_types":["QUERY","RESPONSE"],"message_type{}":["QUERY","RESPONSE"],"name{}":"phishnet.attackrange.local","protocol":"dns","protocol_stack":"ip:udp:dns","punct":"{\"\":\"--::.\",\"\":\"--::.\",\"\":[\"...\"],\"\":[\"\",\"\"],\"\":[\"","queries":"images-na.scamazon.phishnet.attackrange.local","query":"images-na.scamazon.phishnet.attackrange.local","query_type{}":"AAAA","query{}":"images-na.scamazon.phishnet.attackrange.local","record_type":"AAAA","reply_code":"NoError","reply_code_id":"0","response_time":"1117","source":"stream:dns","sourcetype":"stream:dns","splunk_server":"splunk-server-8362664","src":"10.0.1.12","src_ip":"10.0.1.12","src_mac":"02:5E:8B:CE:71:BD","src_port":"35888","tag":["communicate","dns","network","resolution"],"tag::eventtype":["communicate","dns","network","resolution"],"time_taken":"1117","timeendpos":"39","timestamp":"2020-08-13T19:38:08.173204Z","timestartpos":"12","transaction_id":"53314","transport":"udp","ttl{}":"300"}}
{"preview":false,"result":{"_raw":"{\"endtime\":\"2020-08-13T19:38:03.504734Z\",\"timestamp\":\"2020-08-13T19:38:03.503524Z\",\"hostname\":[\"ns1.phishnet.attackrange.local\"],\"host_addr\":[\"10.0.1.16\"],\"message_type\":[\"QUERY\",\"RESPONSE\"],\"name\":[\"www.scamazon.phishnet.attackrange.local\",\"phishnet.attackrange.local\"],\"query\":[\"www.scamazon.phishnet.attackrange.local\"],\"query_type\":[\"A\"],\"reply_code\":\"NoError\",\"reply_code_id\":0,\"response_time\":1210,\"transaction_id\":37080,\"ttl\":[300,300],\"bytes\":298,\"src_ip\":\"10.0.1.12\",\"src_mac\":\"02:5E:8B:CE:71:BD\",\"src_port\":35888,\"bytes_in\":57,\"dest_ip\":\"10.0.1.14\",\"dest_mac\":\"02:A1:AF:05:17:4D\",\"dest_port\":53,\"bytes_out\":241,\"time_taken\":1210,\"transport\":\"udp\",\"flow_id\":\"9cbc0585-c152-4858-baa2-6ac4e43f1762\",\"protocol_stack\":\"ip:udp:dns\"}","_time":"2020-08-13T19:38:03.504+0000","answer":"10.0.1.16","app":"dns","bytes":"298","bytes_in":"57","bytes_out":"241","date_hour":"19","date_mday":"13","date_minute":"38","date_month":"august","date_second":"3","date_wday":"thursday","date_year":"2020","date_zone":"0","dest":"10.0.1.14","dest_ip":"10.0.1.14","dest_mac":"02:A1:AF:05:17:4D","dest_port":"53","duration":"1210","endtime":"2020-08-13T19:38:03.504734Z","eventtype":["stream_dns","stream_network_traffic"],"flow_id":"9cbc0585-c152-4858-baa2-6ac4e43f1762","host":"splunk-server-8362664","host_addr{}":"10.0.1.16","hostname{}":"ns1.phishnet.attackrange.local","index":"main","linecount":"1","message_type":["QUERY","RESPONSE"],"message_types":["QUERY","RESPONSE"],"message_type{}":["QUERY","RESPONSE"],"name{}":["www.scamazon.phishnet.attackrange.local","phishnet.attackrange.local"],"protocol":"dns","protocol_stack":"ip:udp:dns","punct":"{\"\":\"--::.\",\"\":\"--::.\",\"\":[\"...\"],\"\":[\"...\"],\"\":[\"","queries":"www.scamazon.phishnet.attackrange.local","query":"www.scamazon.phishnet.attackrange.local","query_type{}":"A","query{}":"www.scamazon.phishnet.attackrange.local","record_type":"A","reply_code":"NoError","reply_code_id":"0","response_time":"1210","source":"stream:dns","sourcetype":"stream:dns","splunk_server":"splunk-server-8362664","src":"10.0.1.12","src_ip":"10.0.1.12","src_mac":"02:5E:8B:CE:71:BD","src_port":"35888","tag":["communicate","dns","network","resolution"],"tag::eventtype":["communicate","dns","network","resolution"],"time_taken":"1210","timeendpos":"39","timestamp":"2020-08-13T19:38:03.503524Z","timestartpos":"12","transaction_id":"37080","transport":"udp","ttl{}":["300","300"]}}
{"preview":false,"result":{"_raw":"{\"endtime\":\"2020-08-13T19:38:03.504721Z\",\"timestamp\":\"2020-08-13T19:38:03.503545Z\",\"hostname\":[\"ns1.phishnet.attackrange.local\"],\"message_type\":[\"QUERY\",\"RESPONSE\"],\"name\":[\"phishnet.attackrange.local\"],\"query\":[\"www.scamazon.phishnet.attackrange.local\"],\"query_type\":[\"AAAA\"],\"reply_code\":\"NoError\",\"reply_code_id\":0,\"response_time\":1176,\"transaction_id\":63963,\"ttl\":[300],\"bytes\":243,\"src_ip\":\"10.0.1.12\",\"src_mac\":\"02:5E:8B:CE:71:BD\",\"src_port\":35888,\"bytes_in\":57,\"dest_ip\":\"10.0.1.14\",\"dest_mac\":\"02:A1:AF:05:17:4D\",\"dest_port\":53,\"bytes_out\":186,\"time_taken\":1176,\"transport\":\"udp\",\"flow_id\":\"9cbc0585-c152-4858-baa2-6ac4e43f1762\",\"protocol_stack\":\"ip:udp:dns\"}","_time":"2020-08-13T19:38:03.504+0000","app":"dns","bytes":"243","bytes_in":"57","bytes_out":"186","date_hour":"19","date_mday":"13","date_minute":"38","date_month":"august","date_second":"3","date_wday":"thursday","date_year":"2020","date_zone":"0","dest":"10.0.1.14","dest_ip":"10.0.1.14","dest_mac":"02:A1:AF:05:17:4D","dest_port":"53","duration":"1176","endtime":"2020-08-13T19:38:03.504721Z","eventtype":["stream_dns","stream_network_traffic"],"flow_id":"9cbc0585-c152-4858-baa2-6ac4e43f1762","host":"splunk-server-8362664","hostname{}":"ns1.phishnet.attackrange.local","index":"main","linecount":"1","message_type":["QUERY","RESPONSE"],"message_types":["QUERY","RESPONSE"],"message_type{}":["QUERY","RESPONSE"],"name{}":"phishnet.attackrange.local","protocol":"dns","protocol_stack":"ip:udp:dns","punct":"{\"\":\"--::.\",\"\":\"--::.\",\"\":[\"...\"],\"\":[\"\",\"\"],\"\":[\"","queries":"www.scamazon.phishnet.attackrange.local","query":"www.scamazon.phishnet.attackrange.local","query_type{}":"AAAA","query{}":"www.scamazon.phishnet.attackrange.local","record_type":"AAAA","reply_code":"NoError","reply_code_id":"0","response_time":"1176","source":"stream:dns","sourcetype":"stream:dns","splunk_server":"splunk-server-8362664","src":"10.0.1.12","src_ip":"10.0.1.12","src_mac":"02:5E:8B:CE:71:BD","src_port":"35888","tag":["communicate","dns","network","resolution"],"tag::eventtype":["communicate","dns","network","resolution"],"time_taken":"1176","timeendpos":"39","timestamp":"2020-08-13T19:38:03.503545Z","timestartpos":"12","transaction_id":"63963","transport":"udp","ttl{}":"300"}}
{"preview":false,"result":{"_raw":"{\"endtime\":\"2020-08-12T21:39:48.445880Z\",\"timestamp\":\"2020-08-12T21:39:48.445470Z\",\"hostname\":[\"ns1.phishnet.attackrange.local\"],\"message_type\":[\"QUERY\",\"RESPONSE\"],\"name\":[\"phishnet.attackrange.local\"],\"query\":[\"login.troutlook.phishnet.attackrange.local\"],\"query_type\":[\"AAAA\"],\"reply_code\":\"NoError\",\"reply_code_id\":0,\"response_time\":410,\"transaction_id\":41809,\"ttl\":[0,51,0],\"bytes\":193,\"src_ip\":\"10.0.1.12\",\"src_mac\":\"02:5E:8B:CE:71:BD\",\"src_port\":60283,\"bytes_in\":71,\"dest_ip\":\"10.0.1.14\",\"dest_mac\":\"02:A1:AF:05:17:4D\",\"dest_port\":53,\"bytes_out\":122,\"time_taken\":410,\"transport\":\"udp\",\"flow_id\":\"ebca0f9e-cdc2-4f88-b6f1-17902df376cb\",\"protocol_stack\":\"ip:udp:dns\"}","_time":"2020-08-12T21:39:48.445+0000","app":"dns","bytes":"193","bytes_in":"71","bytes_out":"122","date_hour":"21","date_mday":"12","date_minute":"39","date_month":"august","date_second":"48","date_wday":"wednesday","date_year":"2020","date_zone":"0","dest":"10.0.1.14","dest_ip":"10.0.1.14","dest_mac":"02:A1:AF:05:17:4D","dest_port":"53","duration":"410","endtime":"2020-08-12T21:39:48.445880Z","eventtype":["stream_dns","stream_network_traffic"],"flow_id":"ebca0f9e-cdc2-4f88-b6f1-17902df376cb","host":"splunk-server-8362664","hostname{}":"ns1.phishnet.attackrange.local","index":"main","linecount":"1","message_type":["QUERY","RESPONSE"],"message_types":["QUERY","RESPONSE"],"message_type{}":["QUERY","RESPONSE"],"name{}":"phishnet.attackrange.local","protocol":"dns","protocol_stack":"ip:udp:dns","punct":"{\"\":\"--::.\",\"\":\"--::.\",\"\":[\"...\"],\"\":[\"\",\"\"],\"\":[\"","queries":"login.troutlook.phishnet.attackrange.local","query":"login.troutlook.phishnet.attackrange.local","query_type{}":"AAAA","query{}":"login.troutlook.phishnet.attackrange.local","record_type":"AAAA","reply_code":"NoError","reply_code_id":"0","response_time":"410","source":"stream:dns","sourcetype":"stream:dns","splunk_server":"splunk-server-8362664","src":"10.0.1.12","src_ip":"10.0.1.12","src_mac":"02:5E:8B:CE:71:BD","src_port":"60283","tag":["communicate","dns","network","resolution"],"tag::eventtype":["communicate","dns","network","resolution"],"time_taken":"410","timeendpos":"39","timestamp":"2020-08-12T21:39:48.445470Z","timestartpos":"12","transaction_id":"41809","transport":"udp","ttl{}":["0","51","0"]}}
{"preview":false,"result":{"_raw":"{\"endtime\":\"2020-08-12T21:39:48.445868Z\",\"timestamp\":\"2020-08-12T21:39:48.445456Z\",\"host_addr\":[\"10.0.1.16\"],\"message_type\":[\"QUERY\",\"RESPONSE\"],\"name\":[\"login.troutlook.phishnet.attackrange.local\"],\"query\":[\"login.troutlook.phishnet.attackrange.local\"],\"query_type\":[\"A\"],\"reply_code\":\"NoError\",\"reply_code_id\":0,\"response_time\":412,\"transaction_id\":1609,\"ttl\":[0,218,0],\"bytes\":158,\"src_ip\":\"10.0.1.12\",\"src_mac\":\"02:5E:8B:CE:71:BD\",\"src_port\":60283,\"bytes_in\":71,\"dest_ip\":\"10.0.1.14\",\"dest_mac\":\"02:A1:AF:05:17:4D\",\"dest_port\":53,\"bytes_out\":87,\"time_taken\":412,\"transport\":\"udp\",\"flow_id\":\"ebca0f9e-cdc2-4f88-b6f1-17902df376cb\",\"protocol_stack\":\"ip:udp:dns\"}","_time":"2020-08-12T21:39:48.445+0000","answer":"10.0.1.16","app":"dns","bytes":"158","bytes_in":"71","bytes_out":"87","date_hour":"21","date_mday":"12","date_minute":"39","date_month":"august","date_second":"48","date_wday":"wednesday","date_year":"2020","date_zone":"0","dest":"10.0.1.14","dest_ip":"10.0.1.14","dest_mac":"02:A1:AF:05:17:4D","dest_port":"53","duration":"412","endtime":"2020-08-12T21:39:48.445868Z","eventtype":["stream_dns","stream_network_traffic"],"flow_id":"ebca0f9e-cdc2-4f88-b6f1-17902df376cb","host":"splunk-server-8362664","host_addr{}":"10.0.1.16","index":"main","linecount":"1","message_type":["QUERY","RESPONSE"],"message_types":["QUERY","RESPONSE"],"message_type{}":["QUERY","RESPONSE"],"name{}":"login.troutlook.phishnet.attackrange.local","protocol":"dns","protocol_stack":"ip:udp:dns","punct":"{\"\":\"--::.\",\"\":\"--::.\",\"\":[\"...\"],\"\":[\"\",\"\"],\"\":[\"","queries":"login.troutlook.phishnet.attackrange.local","query":"login.troutlook.phishnet.attackrange.local","query_type{}":"A","query{}":"login.troutlook.phishnet.attackrange.local","record_type":"A","reply_code":"NoError","reply_code_id":"0","response_time":"412","source":"stream:dns","sourcetype":"stream:dns","splunk_server":"splunk-server-8362664","src":"10.0.1.12","src_ip":"10.0.1.12","src_mac":"02:5E:8B:CE:71:BD","src_port":"60283","tag":["communicate","dns","network","resolution"],"tag::eventtype":["communicate","dns","network","resolution"],"time_taken":"412","timeendpos":"39","timestamp":"2020-08-12T21:39:48.445456Z","timestartpos":"12","transaction_id":"1609","transport":"udp","ttl{}":["0","218","0"]}}
{"preview":false,"result":{"_raw":"{\"endtime\":\"2020-08-12T21:39:48.288191Z\",\"timestamp\":\"2020-08-12T21:39:48.287749Z\",\"hostname\":[\"ns1.phishnet.attackrange.local\"],\"message_type\":[\"QUERY\",\"RESPONSE\"],\"name\":[\"phishnet.attackrange.local\"],\"query\":[\"www.troutlook.phishnet.attackrange.local\"],\"query_type\":[\"AAAA\"],\"reply_code\":\"NoError\",\"reply_code_id\":0,\"response_time\":442,\"transaction_id\":11173,\"ttl\":[0,56,0],\"bytes\":189,\"src_ip\":\"10.0.1.12\",\"src_mac\":\"02:5E:8B:CE:71:BD\",\"src_port\":54702,\"bytes_in\":69,\"dest_ip\":\"10.0.1.14\",\"dest_mac\":\"02:A1:AF:05:17:4D\",\"dest_port\":53,\"bytes_out\":120,\"time_taken\":442,\"transport\":\"udp\",\"flow_id\":\"aa9b7e42-fb53-4f30-85e9-df11eeb1c09c\",\"protocol_stack\":\"ip:udp:dns\"}","_time":"2020-08-12T21:39:48.288+0000","app":"dns","bytes":"189","bytes_in":"69","bytes_out":"120","date_hour":"21","date_mday":"12","date_minute":"39","date_month":"august","date_second":"48","date_wday":"wednesday","date_year":"2020","date_zone":"0","dest":"10.0.1.14","dest_ip":"10.0.1.14","dest_mac":"02:A1:AF:05:17:4D","dest_port":"53","duration":"442","endtime":"2020-08-12T21:39:48.288191Z","eventtype":["stream_dns","stream_network_traffic"],"flow_id":"aa9b7e42-fb53-4f30-85e9-df11eeb1c09c","host":"splunk-server-8362664","hostname{}":"ns1.phishnet.attackrange.local","index":"main","linecount":"1","message_type":["QUERY","RESPONSE"],"message_types":["QUERY","RESPONSE"],"message_type{}":["QUERY","RESPONSE"],"name{}":"phishnet.attackrange.local","protocol":"dns","protocol_stack":"ip:udp:dns","punct":"{\"\":\"--::.\",\"\":\"--::.\",\"\":[\"...\"],\"\":[\"\",\"\"],\"\":[\"","queries":"www.troutlook.phishnet.attackrange.local","query":"www.troutlook.phishnet.attackrange.local","query_type{}":"AAAA","query{}":"www.troutlook.phishnet.attackrange.local","record_type":"AAAA","reply_code":"NoError","reply_code_id":"0","response_time":"442","source":"stream:dns","sourcetype":"stream:dns","splunk_server":"splunk-server-8362664","src":"10.0.1.12","src_ip":"10.0.1.12","src_mac":"02:5E:8B:CE:71:BD","src_port":"54702","tag":["communicate","dns","network","resolution"],"tag::eventtype":["communicate","dns","network","resolution"],"time_taken":"442","timeendpos":"39","timestamp":"2020-08-12T21:39:48.287749Z","timestartpos":"12","transaction_id":"11173","transport":"udp","ttl{}":["0","56","0"]}}
{"preview":false,"result":{"_raw":"{\"endtime\":\"2020-08-12T21:39:48.288178Z\",\"timestamp\":\"2020-08-12T21:39:48.287733Z\",\"host_addr\":[\"10.0.1.16\"],\"message_type\":[\"QUERY\",\"RESPONSE\"],\"name\":[\"www.troutlook.phishnet.attackrange.local\"],\"query\":[\"www.troutlook.phishnet.attackrange.local\"],\"query_type\":[\"A\"],\"reply_code\":\"NoError\",\"reply_code_id\":0,\"response_time\":445,\"transaction_id\":23708,\"ttl\":[0,296,0],\"bytes\":154,\"src_ip\":\"10.0.1.12\",\"src_mac\":\"02:5E:8B:CE:71:BD\",\"src_port\":54702,\"bytes_in\":69,\"dest_ip\":\"10.0.1.14\",\"dest_mac\":\"02:A1:AF:05:17:4D\",\"dest_port\":53,\"bytes_out\":85,\"time_taken\":445,\"transport\":\"udp\",\"flow_id\":\"aa9b7e42-fb53-4f30-85e9-df11eeb1c09c\",\"protocol_stack\":\"ip:udp:dns\"}","_time":"2020-08-12T21:39:48.288+0000","answer":"10.0.1.16","app":"dns","bytes":"154","bytes_in":"69","bytes_out":"85","date_hour":"21","date_mday":"12","date_minute":"39","date_month":"august","date_second":"48","date_wday":"wednesday","date_year":"2020","date_zone":"0","dest":"10.0.1.14","dest_ip":"10.0.1.14","dest_mac":"02:A1:AF:05:17:4D","dest_port":"53","duration":"445","endtime":"2020-08-12T21:39:48.288178Z","eventtype":["stream_dns","stream_network_traffic"],"flow_id":"aa9b7e42-fb53-4f30-85e9-df11eeb1c09c","host":"splunk-server-8362664","host_addr{}":"10.0.1.16","index":"main","linecount":"1","message_type":["QUERY","RESPONSE"],"message_types":["QUERY","RESPONSE"],"message_type{}":["QUERY","RESPONSE"],"name{}":"www.troutlook.phishnet.attackrange.local","protocol":"dns","protocol_stack":"ip:udp:dns","punct":"{\"\":\"--::.\",\"\":\"--::.\",\"\":[\"...\"],\"\":[\"\",\"\"],\"\":[\"","queries":"www.troutlook.phishnet.attackrange.local","query":"www.troutlook.phishnet.attackrange.local","query_type{}":"A","query{}":"www.troutlook.phishnet.attackrange.local","record_type":"A","reply_code":"NoError","reply_code_id":"0","response_time":"445","source":"stream:dns","sourcetype":"stream:dns","splunk_server":"splunk-server-8362664","src":"10.0.1.12","src_ip":"10.0.1.12","src_mac":"02:5E:8B:CE:71:BD","src_port":"54702","tag":["communicate","dns","network","resolution"],"tag::eventtype":["communicate","dns","network","resolution"],"time_taken":"445","timeendpos":"39","timestamp":"2020-08-12T21:39:48.287733Z","timestartpos":"12","transaction_id":"23708","transport":"udp","ttl{}":["0","296","0"]}}
{"preview":false,"result":{"_raw":"{\"endtime\":\"2020-08-12T21:39:47.529072Z\",\"timestamp\":\"2020-08-12T21:39:47.528461Z\",\"host_addr\":[\"10.0.1.16\"],\"message_type\":[\"QUERY\",\"RESPONSE\"],\"name\":[\"login.troutlook.phishnet.attackrange.local\"],\"query\":[\"login.troutlook.phishnet.attackrange.local\"],\"query_type\":[\"A\"],\"reply_code\":\"NoError\",\"reply_code_id\":0,\"response_time\":611,\"transaction_id\":5300,\"ttl\":[0,219,0],\"bytes\":158,\"src_ip\":\"10.0.1.12\",\"src_mac\":\"02:5E:8B:CE:71:BD\",\"src_port\":35209,\"bytes_in\":71,\"dest_ip\":\"10.0.1.14\",\"dest_mac\":\"02:A1:AF:05:17:4D\",\"dest_port\":53,\"bytes_out\":87,\"time_taken\":611,\"transport\":\"udp\",\"flow_id\":\"be2a0352-f4dc-46b4-9fdd-5df9d51c0223\",\"protocol_stack\":\"ip:udp:dns\"}","_time":"2020-08-12T21:39:47.529+0000","answer":"10.0.1.16","app":"dns","bytes":"158","bytes_in":"71","bytes_out":"87","date_hour":"21","date_mday":"12","date_minute":"39","date_month":"august","date_second":"47","date_wday":"wednesday","date_year":"2020","date_zone":"0","dest":"10.0.1.14","dest_ip":"10.0.1.14","dest_mac":"02:A1:AF:05:17:4D","dest_port":"53","duration":"611","endtime":"2020-08-12T21:39:47.529072Z","eventtype":["stream_dns","stream_network_traffic"],"flow_id":"be2a0352-f4dc-46b4-9fdd-5df9d51c0223","host":"splunk-server-8362664","host_addr{}":"10.0.1.16","index":"main","linecount":"1","message_type":["QUERY","RESPONSE"],"message_types":["QUERY","RESPONSE"],"message_type{}":["QUERY","RESPONSE"],"name{}":"login.troutlook.phishnet.attackrange.local","protocol":"dns","protocol_stack":"ip:udp:dns","punct":"{\"\":\"--::.\",\"\":\"--::.\",\"\":[\"...\"],\"\":[\"\",\"\"],\"\":[\"","queries":"login.troutlook.phishnet.attackrange.local","query":"login.troutlook.phishnet.attackrange.local","query_type{}":"A","query{}":"login.troutlook.phishnet.attackrange.local","record_type":"A","reply_code":"NoError","reply_code_id":"0","response_time":"611","source":"stream:dns","sourcetype":"stream:dns","splunk_server":"splunk-server-8362664","src":"10.0.1.12","src_ip":"10.0.1.12","src_mac":"02:5E:8B:CE:71:BD","src_port":"35209","tag":["communicate","dns","network","resolution"],"tag::eventtype":["communicate","dns","network","resolution"],"time_taken":"611","timeendpos":"39","timestamp":"2020-08-12T21:39:47.528461Z","timestartpos":"12","transaction_id":"5300","transport":"udp","ttl{}":["0","219","0"]}}
{"preview":false,"result":{"_raw":"{\"endtime\":\"2020-08-12T21:39:47.529057Z\",\"timestamp\":\"2020-08-12T21:39:47.528477Z\",\"hostname\":[\"ns1.phishnet.attackrange.local\"],\"message_type\":[\"QUERY\",\"RESPONSE\"],\"name\":[\"phishnet.attackrange.local\"],\"query\":[\"login.troutlook.phishnet.attackrange.local\"],\"query_type\":[\"AAAA\"],\"reply_code\":\"NoError\",\"reply_code_id\":0,\"response_time\":580,\"transaction_id\":57024,\"ttl\":[0,52,0],\"bytes\":193,\"src_ip\":\"10.0.1.12\",\"src_mac\":\"02:5E:8B:CE:71:BD\",\"src_port\":35209,\"bytes_in\":71,\"dest_ip\":\"10.0.1.14\",\"dest_mac\":\"02:A1:AF:05:17:4D\",\"dest_port\":53,\"bytes_out\":122,\"time_taken\":580,\"transport\":\"udp\",\"flow_id\":\"be2a0352-f4dc-46b4-9fdd-5df9d51c0223\",\"protocol_stack\":\"ip:udp:dns\"}","_time":"2020-08-12T21:39:47.529+0000","app":"dns","bytes":"193","bytes_in":"71","bytes_out":"122","date_hour":"21","date_mday":"12","date_minute":"39","date_month":"august","date_second":"47","date_wday":"wednesday","date_year":"2020","date_zone":"0","dest":"10.0.1.14","dest_ip":"10.0.1.14","dest_mac":"02:A1:AF:05:17:4D","dest_port":"53","duration":"580","endtime":"2020-08-12T21:39:47.529057Z","eventtype":["stream_dns","stream_network_traffic"],"flow_id":"be2a0352-f4dc-46b4-9fdd-5df9d51c0223","host":"splunk-server-8362664","hostname{}":"ns1.phishnet.attackrange.local","index":"main","linecount":"1","message_type":["QUERY","RESPONSE"],"message_types":["QUERY","RESPONSE"],"message_type{}":["QUERY","RESPONSE"],"name{}":"phishnet.attackrange.local","protocol":"dns","protocol_stack":"ip:udp:dns","punct":"{\"\":\"--::.\",\"\":\"--::.\",\"\":[\"...\"],\"\":[\"\",\"\"],\"\":[\"","queries":"login.troutlook.phishnet.attackrange.local","query":"login.troutlook.phishnet.attackrange.local","query_type{}":"AAAA","query{}":"login.troutlook.phishnet.attackrange.local","record_type":"AAAA","reply_code":"NoError","reply_code_id":"0","response_time":"580","source":"stream:dns","sourcetype":"stream:dns","splunk_server":"splunk-server-8362664","src":"10.0.1.12","src_ip":"10.0.1.12","src_mac":"02:5E:8B:CE:71:BD","src_port":"35209","tag":["communicate","dns","network","resolution"],"tag::eventtype":["communicate","dns","network","resolution"],"time_taken":"580","timeendpos":"39","timestamp":"2020-08-12T21:39:47.528477Z","timestartpos":"12","transaction_id":"57024","transport":"udp","ttl{}":["0","52","0"]}}
{"preview":false,"result":{"_raw":"{\"endtime\":\"2020-08-12T21:39:47.236351Z\",\"timestamp\":\"2020-08-12T21:39:47.235771Z\",\"host_addr\":[\"10.0.1.16\"],\"message_type\":[\"QUERY\",\"RESPONSE\"],\"name\":[\"www.troutlook.phishnet.attackrange.local\"],\"query\":[\"www.troutlook.phishnet.attackrange.local\"],\"query_type\":[\"A\"],\"reply_code\":\"NoError\",\"reply_code_id\":0,\"response_time\":580,\"transaction_id\":47325,\"ttl\":[0,297,0],\"bytes\":154,\"src_ip\":\"10.0.1.12\",\"src_mac\":\"02:5E:8B:CE:71:BD\",\"src_port\":51642,\"bytes_in\":69,\"dest_ip\":\"10.0.1.14\",\"dest_mac\":\"02:A1:AF:05:17:4D\",\"dest_port\":53,\"bytes_out\":85,\"time_taken\":580,\"transport\":\"udp\",\"flow_id\":\"56cc47be-0f31-4918-8705-ffe932425a12\",\"protocol_stack\":\"ip:udp:dns\"}","_time":"2020-08-12T21:39:47.236+0000","answer":"10.0.1.16","app":"dns","bytes":"154","bytes_in":"69","bytes_out":"85","date_hour":"21","date_mday":"12","date_minute":"39","date_month":"august","date_second":"47","date_wday":"wednesday","date_year":"2020","date_zone":"0","dest":"10.0.1.14","dest_ip":"10.0.1.14","dest_mac":"02:A1:AF:05:17:4D","dest_port":"53","duration":"580","endtime":"2020-08-12T21:39:47.236351Z","eventtype":["stream_dns","stream_network_traffic"],"flow_id":"56cc47be-0f31-4918-8705-ffe932425a12","host":"splunk-server-8362664","host_addr{}":"10.0.1.16","index":"main","linecount":"1","message_type":["QUERY","RESPONSE"],"message_types":["QUERY","RESPONSE"],"message_type{}":["QUERY","RESPONSE"],"name{}":"www.troutlook.phishnet.attackrange.local","protocol":"dns","protocol_stack":"ip:udp:dns","punct":"{\"\":\"--::.\",\"\":\"--::.\",\"\":[\"...\"],\"\":[\"\",\"\"],\"\":[\"","queries":"www.troutlook.phishnet.attackrange.local","query":"www.troutlook.phishnet.attackrange.local","query_type{}":"A","query{}":"www.troutlook.phishnet.attackrange.local","record_type":"A","reply_code":"NoError","reply_code_id":"0","response_time":"580","source":"stream:dns","sourcetype":"stream:dns","splunk_server":"splunk-server-8362664","src":"10.0.1.12","src_ip":"10.0.1.12","src_mac":"02:5E:8B:CE:71:BD","src_port":"51642","tag":["communicate","dns","network","resolution"],"tag::eventtype":["communicate","dns","network","resolution"],"time_taken":"580","timeendpos":"39","timestamp":"2020-08-12T21:39:47.235771Z","timestartpos":"12","transaction_id":"47325","transport":"udp","ttl{}":["0","297","0"]}}
{"preview":false,"result":{"_raw":"{\"endtime\":\"2020-08-12T21:39:47.236334Z\",\"timestamp\":\"2020-08-12T21:39:47.235788Z\",\"hostname\":[\"ns1.phishnet.attackrange.local\"],\"message_type\":[\"QUERY\",\"RESPONSE\"],\"name\":[\"phishnet.attackrange.local\"],\"query\":[\"www.troutlook.phishnet.attackrange.local\"],\"query_type\":[\"AAAA\"],\"reply_code\":\"NoError\",\"reply_code_id\":0,\"response_time\":546,\"transaction_id\":38889,\"ttl\":[0,57,0],\"bytes\":189,\"src_ip\":\"10.0.1.12\",\"src_mac\":\"02:5E:8B:CE:71:BD\",\"src_port\":51642,\"bytes_in\":69,\"dest_ip\":\"10.0.1.14\",\"dest_mac\":\"02:A1:AF:05:17:4D\",\"dest_port\":53,\"bytes_out\":120,\"time_taken\":546,\"transport\":\"udp\",\"flow_id\":\"56cc47be-0f31-4918-8705-ffe932425a12\",\"protocol_stack\":\"ip:udp:dns\"}","_time":"2020-08-12T21:39:47.236+0000","app":"dns","bytes":"189","bytes_in":"69","bytes_out":"120","date_hour":"21","date_mday":"12","date_minute":"39","date_month":"august","date_second":"47","date_wday":"wednesday","date_year":"2020","date_zone":"0","dest":"10.0.1.14","dest_ip":"10.0.1.14","dest_mac":"02:A1:AF:05:17:4D","dest_port":"53","duration":"546","endtime":"2020-08-12T21:39:47.236334Z","eventtype":["stream_dns","stream_network_traffic"],"flow_id":"56cc47be-0f31-4918-8705-ffe932425a12","host":"splunk-server-8362664","hostname{}":"ns1.phishnet.attackrange.local","index":"main","linecount":"1","message_type":["QUERY","RESPONSE"],"message_types":["QUERY","RESPONSE"],"message_type{}":["QUERY","RESPONSE"],"name{}":"phishnet.attackrange.local","protocol":"dns","protocol_stack":"ip:udp:dns","punct":"{\"\":\"--::.\",\"\":\"--::.\",\"\":[\"...\"],\"\":[\"\",\"\"],\"\":[\"","queries":"www.troutlook.phishnet.attackrange.local","query":"www.troutlook.phishnet.attackrange.local","query_type{}":"AAAA","query{}":"www.troutlook.phishnet.attackrange.local","record_type":"AAAA","reply_code":"NoError","reply_code_id":"0","response_time":"546","source":"stream:dns","sourcetype":"stream:dns","splunk_server":"splunk-server-8362664","src":"10.0.1.12","src_ip":"10.0.1.12","src_mac":"02:5E:8B:CE:71:BD","src_port":"51642","tag":["communicate","dns","network","resolution"],"tag::eventtype":["communicate","dns","network","resolution"],"time_taken":"546","timeendpos":"39","timestamp":"2020-08-12T21:39:47.235788Z","timestartpos":"12","transaction_id":"38889","transport":"udp","ttl{}":["0","57","0"]}}
{"preview":false,"result":{"_raw":"{\"endtime\":\"2020-08-12T21:39:44.273632Z\",\"timestamp\":\"2020-08-12T21:39:44.272468Z\",\"hostname\":[\"ns1.phishnet.attackrange.local\"],\"message_type\":[\"QUERY\",\"RESPONSE\"],\"name\":[\"phishnet.attackrange.local\"],\"query\":[\"www.troutlook.phishnet.attackrange.local\"],\"query_type\":[\"AAAA\"],\"reply_code\":\"NoError\",\"reply_code_id\":0,\"response_time\":1164,\"transaction_id\":53299,\"ttl\":[0,60,0],\"bytes\":189,\"src_ip\":\"10.0.1.12\",\"src_mac\":\"02:5E:8B:CE:71:BD\",\"src_port\":49591,\"bytes_in\":69,\"dest_ip\":\"10.0.1.14\",\"dest_mac\":\"02:A1:AF:05:17:4D\",\"dest_port\":53,\"bytes_out\":120,\"time_taken\":1164,\"transport\":\"udp\",\"flow_id\":\"427aeae3-26b4-4e89-92df-8a0bcc86b2d3\",\"protocol_stack\":\"ip:udp:dns\"}","_time":"2020-08-12T21:39:44.273+0000","app":"dns","bytes":"189","bytes_in":"69","bytes_out":"120","date_hour":"21","date_mday":"12","date_minute":"39","date_month":"august","date_second":"44","date_wday":"wednesday","date_year":"2020","date_zone":"0","dest":"10.0.1.14","dest_ip":"10.0.1.14","dest_mac":"02:A1:AF:05:17:4D","dest_port":"53","duration":"1164","endtime":"2020-08-12T21:39:44.273632Z","eventtype":["stream_dns","stream_network_traffic"],"flow_id":"427aeae3-26b4-4e89-92df-8a0bcc86b2d3","host":"splunk-server-8362664","hostname{}":"ns1.phishnet.attackrange.local","index":"main","linecount":"1","message_type":["QUERY","RESPONSE"],"message_types":["QUERY","RESPONSE"],"message_type{}":["QUERY","RESPONSE"],"name{}":"phishnet.attackrange.local","protocol":"dns","protocol_stack":"ip:udp:dns","punct":"{\"\":\"--::.\",\"\":\"--::.\",\"\":[\"...\"],\"\":[\"\",\"\"],\"\":[\"","queries":"www.troutlook.phishnet.attackrange.local","query":"www.troutlook.phishnet.attackrange.local","query_type{}":"AAAA","query{}":"www.troutlook.phishnet.attackrange.local","record_type":"AAAA","reply_code":"NoError","reply_code_id":"0","response_time":"1164","source":"stream:dns","sourcetype":"stream:dns","splunk_server":"splunk-server-8362664","src":"10.0.1.12","src_ip":"10.0.1.12","src_mac":"02:5E:8B:CE:71:BD","src_port":"49591","tag":["communicate","dns","network","resolution"],"tag::eventtype":["communicate","dns","network","resolution"],"time_taken":"1164","timeendpos":"39","timestamp":"2020-08-12T21:39:44.272468Z","timestartpos":"12","transaction_id":"53299","transport":"udp","ttl{}":["0","60","0"]}}
{"preview":false,"result":{"_raw":"{\"endtime\":\"2020-08-12T21:39:44.273597Z\",\"timestamp\":\"2020-08-12T21:39:44.272453Z\",\"host_addr\":[\"10.0.1.16\"],\"message_type\":[\"QUERY\",\"RESPONSE\"],\"name\":[\"www.troutlook.phishnet.attackrange.local\"],\"query\":[\"www.troutlook.phishnet.attackrange.local\"],\"query_type\":[\"A\"],\"reply_code\":\"NoError\",\"reply_code_id\":0,\"response_time\":1144,\"transaction_id\":41768,\"ttl\":[0,300,0],\"bytes\":154,\"src_ip\":\"10.0.1.12\",\"src_mac\":\"02:5E:8B:CE:71:BD\",\"src_port\":49591,\"bytes_in\":69,\"dest_ip\":\"10.0.1.14\",\"dest_mac\":\"02:A1:AF:05:17:4D\",\"dest_port\":53,\"bytes_out\":85,\"time_taken\":1144,\"transport\":\"udp\",\"flow_id\":\"427aeae3-26b4-4e89-92df-8a0bcc86b2d3\",\"protocol_stack\":\"ip:udp:dns\"}","_time":"2020-08-12T21:39:44.273+0000","answer":"10.0.1.16","app":"dns","bytes":"154","bytes_in":"69","bytes_out":"85","date_hour":"21","date_mday":"12","date_minute":"39","date_month":"august","date_second":"44","date_wday":"wednesday","date_year":"2020","date_zone":"0","dest":"10.0.1.14","dest_ip":"10.0.1.14","dest_mac":"02:A1:AF:05:17:4D","dest_port":"53","duration":"1144","endtime":"2020-08-12T21:39:44.273597Z","eventtype":["stream_dns","stream_network_traffic"],"flow_id":"427aeae3-26b4-4e89-92df-8a0bcc86b2d3","host":"splunk-server-8362664","host_addr{}":"10.0.1.16","index":"main","linecount":"1","message_type":["QUERY","RESPONSE"],"message_types":["QUERY","RESPONSE"],"message_type{}":["QUERY","RESPONSE"],"name{}":"www.troutlook.phishnet.attackrange.local","protocol":"dns","protocol_stack":"ip:udp:dns","punct":"{\"\":\"--::.\",\"\":\"--::.\",\"\":[\"...\"],\"\":[\"\",\"\"],\"\":[\"","queries":"www.troutlook.phishnet.attackrange.local","query":"www.troutlook.phishnet.attackrange.local","query_type{}":"A","query{}":"www.troutlook.phishnet.attackrange.local","record_type":"A","reply_code":"NoError","reply_code_id":"0","response_time":"1144","source":"stream:dns","sourcetype":"stream:dns","splunk_server":"splunk-server-8362664","src":"10.0.1.12","src_ip":"10.0.1.12","src_mac":"02:5E:8B:CE:71:BD","src_port":"49591","tag":["communicate","dns","network","resolution"],"tag::eventtype":["communicate","dns","network","resolution"],"time_taken":"1144","timeendpos":"39","timestamp":"2020-08-12T21:39:44.272453Z","timestartpos":"12","transaction_id":"41768","transport":"udp","ttl{}":["0","300","0"]}}
{"preview":false,"result":{"_raw":"{\"endtime\":\"2020-08-12T21:39:44.065017Z\",\"timestamp\":\"2020-08-12T21:39:44.064468Z\",\"host_addr\":[\"10.0.1.16\"],\"message_type\":[\"QUERY\",\"RESPONSE\"],\"name\":[\"login.troutlook.phishnet.attackrange.local\"],\"query\":[\"login.troutlook.phishnet.attackrange.local\"],\"query_type\":[\"A\"],\"reply_code\":\"NoError\",\"reply_code_id\":0,\"response_time\":549,\"transaction_id\":40440,\"ttl\":[0,223,0],\"bytes\":158,\"src_ip\":\"10.0.1.12\",\"src_mac\":\"02:5E:8B:CE:71:BD\",\"src_port\":53783,\"bytes_in\":71,\"dest_ip\":\"10.0.1.14\",\"dest_mac\":\"02:A1:AF:05:17:4D\",\"dest_port\":53,\"bytes_out\":87,\"time_taken\":549,\"transport\":\"udp\",\"flow_id\":\"f6707586-538d-4e6a-a52c-12a0fb01f7f0\",\"protocol_stack\":\"ip:udp:dns\"}","_time":"2020-08-12T21:39:44.065+0000","answer":"10.0.1.16","app":"dns","bytes":"158","bytes_in":"71","bytes_out":"87","date_hour":"21","date_mday":"12","date_minute":"39","date_month":"august","date_second":"44","date_wday":"wednesday","date_year":"2020","date_zone":"0","dest":"10.0.1.14","dest_ip":"10.0.1.14","dest_mac":"02:A1:AF:05:17:4D","dest_port":"53","duration":"549","endtime":"2020-08-12T21:39:44.065017Z","eventtype":["stream_dns","stream_network_traffic"],"flow_id":"f6707586-538d-4e6a-a52c-12a0fb01f7f0","host":"splunk-server-8362664","host_addr{}":"10.0.1.16","index":"main","linecount":"1","message_type":["QUERY","RESPONSE"],"message_types":["QUERY","RESPONSE"],"message_type{}":["QUERY","RESPONSE"],"name{}":"login.troutlook.phishnet.attackrange.local","protocol":"dns","protocol_stack":"ip:udp:dns","punct":"{\"\":\"--::.\",\"\":\"--::.\",\"\":[\"...\"],\"\":[\"\",\"\"],\"\":[\"","queries":"login.troutlook.phishnet.attackrange.local","query":"login.troutlook.phishnet.attackrange.local","query_type{}":"A","query{}":"login.troutlook.phishnet.attackrange.local","record_type":"A","reply_code":"NoError","reply_code_id":"0","response_time":"549","source":"stream:dns","sourcetype":"stream:dns","splunk_server":"splunk-server-8362664","src":"10.0.1.12","src_ip":"10.0.1.12","src_mac":"02:5E:8B:CE:71:BD","src_port":"53783","tag":["communicate","dns","network","resolution"],"tag::eventtype":["communicate","dns","network","resolution"],"time_taken":"549","timeendpos":"39","timestamp":"2020-08-12T21:39:44.064468Z","timestartpos":"12","transaction_id":"40440","transport":"udp","ttl{}":["0","223","0"]}}
{"preview":false,"result":{"_raw":"{\"endtime\":\"2020-08-12T21:39:44.065005Z\",\"timestamp\":\"2020-08-12T21:39:44.064483Z\",\"hostname\":[\"ns1.phishnet.attackrange.local\"],\"message_type\":[\"QUERY\",\"RESPONSE\"],\"name\":[\"phishnet.attackrange.local\"],\"query\":[\"login.troutlook.phishnet.attackrange.local\"],\"query_type\":[\"AAAA\"],\"reply_code\":\"NoError\",\"reply_code_id\":0,\"response_time\":522,\"transaction_id\":55045,\"ttl\":[0,56,0],\"bytes\":193,\"src_ip\":\"10.0.1.12\",\"src_mac\":\"02:5E:8B:CE:71:BD\",\"src_port\":53783,\"bytes_in\":71,\"dest_ip\":\"10.0.1.14\",\"dest_mac\":\"02:A1:AF:05:17:4D\",\"dest_port\":53,\"bytes_out\":122,\"time_taken\":522,\"transport\":\"udp\",\"flow_id\":\"f6707586-538d-4e6a-a52c-12a0fb01f7f0\",\"protocol_stack\":\"ip:udp:dns\"}","_time":"2020-08-12T21:39:44.065+0000","app":"dns","bytes":"193","bytes_in":"71","bytes_out":"122","date_hour":"21","date_mday":"12","date_minute":"39","date_month":"august","date_second":"44","date_wday":"wednesday","date_year":"2020","date_zone":"0","dest":"10.0.1.14","dest_ip":"10.0.1.14","dest_mac":"02:A1:AF:05:17:4D","dest_port":"53","duration":"522","endtime":"2020-08-12T21:39:44.065005Z","eventtype":["stream_dns","stream_network_traffic"],"flow_id":"f6707586-538d-4e6a-a52c-12a0fb01f7f0","host":"splunk-server-8362664","hostname{}":"ns1.phishnet.attackrange.local","index":"main","linecount":"1","message_type":["QUERY","RESPONSE"],"message_types":["QUERY","RESPONSE"],"message_type{}":["QUERY","RESPONSE"],"name{}":"phishnet.attackrange.local","protocol":"dns","protocol_stack":"ip:udp:dns","punct":"{\"\":\"--::.\",\"\":\"--::.\",\"\":[\"...\"],\"\":[\"\",\"\"],\"\":[\"","queries":"login.troutlook.phishnet.attackrange.local","query":"login.troutlook.phishnet.attackrange.local","query_type{}":"AAAA","query{}":"login.troutlook.phishnet.attackrange.local","record_type":"AAAA","reply_code":"NoError","reply_code_id":"0","response_time":"522","source":"stream:dns","sourcetype":"stream:dns","splunk_server":"splunk-server-8362664","src":"10.0.1.12","src_ip":"10.0.1.12","src_mac":"02:5E:8B:CE:71:BD","src_port":"53783","tag":["communicate","dns","network","resolution"],"tag::eventtype":["communicate","dns","network","resolution"],"time_taken":"522","timeendpos":"39","timestamp":"2020-08-12T21:39:44.064483Z","timestartpos":"12","transaction_id":"55045","transport":"udp","ttl{}":["0","56","0"]}}
{"preview":false,"result":{"_raw":"{\"endtime\":\"2020-08-12T21:39:43.919932Z\",\"timestamp\":\"2020-08-12T21:39:43.919413Z\",\"hostname\":[\"ns1.phishnet.attackrange.local\"],\"message_type\":[\"QUERY\",\"RESPONSE\"],\"name\":[\"phishnet.attackrange.local\"],\"query\":[\"login.troutlook.phishnet.attackrange.local\"],\"query_type\":[\"AAAA\"],\"reply_code\":\"NoError\",\"reply_code_id\":0,\"response_time\":519,\"transaction_id\":44382,\"ttl\":[0,56,0],\"bytes\":193,\"src_ip\":\"10.0.1.12\",\"src_mac\":\"02:5E:8B:CE:71:BD\",\"src_port\":33160,\"bytes_in\":71,\"dest_ip\":\"10.0.1.14\",\"dest_mac\":\"02:A1:AF:05:17:4D\",\"dest_port\":53,\"bytes_out\":122,\"time_taken\":519,\"transport\":\"udp\",\"flow_id\":\"f5db9ad1-5483-4c1e-9541-ac08591e6978\",\"protocol_stack\":\"ip:udp:dns\"}","_time":"2020-08-12T21:39:43.919+0000","app":"dns","bytes":"193","bytes_in":"71","bytes_out":"122","date_hour":"21","date_mday":"12","date_minute":"39","date_month":"august","date_second":"43","date_wday":"wednesday","date_year":"2020","date_zone":"0","dest":"10.0.1.14","dest_ip":"10.0.1.14","dest_mac":"02:A1:AF:05:17:4D","dest_port":"53","duration":"519","endtime":"2020-08-12T21:39:43.919932Z","eventtype":["stream_dns","stream_network_traffic"],"flow_id":"f5db9ad1-5483-4c1e-9541-ac08591e6978","host":"splunk-server-8362664","hostname{}":"ns1.phishnet.attackrange.local","index":"main","linecount":"1","message_type":["QUERY","RESPONSE"],"message_types":["QUERY","RESPONSE"],"message_type{}":["QUERY","RESPONSE"],"name{}":"phishnet.attackrange.local","protocol":"dns","protocol_stack":"ip:udp:dns","punct":"{\"\":\"--::.\",\"\":\"--::.\",\"\":[\"...\"],\"\":[\"\",\"\"],\"\":[\"","queries":"login.troutlook.phishnet.attackrange.local","query":"login.troutlook.phishnet.attackrange.local","query_type{}":"AAAA","query{}":"login.troutlook.phishnet.attackrange.local","record_type":"AAAA","reply_code":"NoError","reply_code_id":"0","response_time":"519","source":"stream:dns","sourcetype":"stream:dns","splunk_server":"splunk-server-8362664","src":"10.0.1.12","src_ip":"10.0.1.12","src_mac":"02:5E:8B:CE:71:BD","src_port":"33160","tag":["communicate","dns","network","resolution"],"tag::eventtype":["communicate","dns","network","resolution"],"time_taken":"519","timeendpos":"39","timestamp":"2020-08-12T21:39:43.919413Z","timestartpos":"12","transaction_id":"44382","transport":"udp","ttl{}":["0","56","0"]}}
{"preview":false,"result":{"_raw":"{\"endtime\":\"2020-08-12T21:39:43.919918Z\",\"timestamp\":\"2020-08-12T21:39:43.919396Z\",\"host_addr\":[\"10.0.1.16\"],\"message_type\":[\"QUERY\",\"RESPONSE\"],\"name\":[\"login.troutlook.phishnet.attackrange.local\"],\"query\":[\"login.troutlook.phishnet.attackrange.local\"],\"query_type\":[\"A\"],\"reply_code\":\"NoError\",\"reply_code_id\":0,\"response_time\":522,\"transaction_id\":45138,\"ttl\":[0,223,0],\"bytes\":158,\"src_ip\":\"10.0.1.12\",\"src_mac\":\"02:5E:8B:CE:71:BD\",\"src_port\":33160,\"bytes_in\":71,\"dest_ip\":\"10.0.1.14\",\"dest_mac\":\"02:A1:AF:05:17:4D\",\"dest_port\":53,\"bytes_out\":87,\"time_taken\":522,\"transport\":\"udp\",\"flow_id\":\"f5db9ad1-5483-4c1e-9541-ac08591e6978\",\"protocol_stack\":\"ip:udp:dns\"}","_time":"2020-08-12T21:39:43.919+0000","answer":"10.0.1.16","app":"dns","bytes":"158","bytes_in":"71","bytes_out":"87","date_hour":"21","date_mday":"12","date_minute":"39","date_month":"august","date_second":"43","date_wday":"wednesday","date_year":"2020","date_zone":"0","dest":"10.0.1.14","dest_ip":"10.0.1.14","dest_mac":"02:A1:AF:05:17:4D","dest_port":"53","duration":"522","endtime":"2020-08-12T21:39:43.919918Z","eventtype":["stream_dns","stream_network_traffic"],"flow_id":"f5db9ad1-5483-4c1e-9541-ac08591e6978","host":"splunk-server-8362664","host_addr{}":"10.0.1.16","index":"main","linecount":"1","message_type":["QUERY","RESPONSE"],"message_types":["QUERY","RESPONSE"],"message_type{}":["QUERY","RESPONSE"],"name{}":"login.troutlook.phishnet.attackrange.local","protocol":"dns","protocol_stack":"ip:udp:dns","punct":"{\"\":\"--::.\",\"\":\"--::.\",\"\":[\"...\"],\"\":[\"\",\"\"],\"\":[\"","queries":"login.troutlook.phishnet.attackrange.local","query":"login.troutlook.phishnet.attackrange.local","query_type{}":"A","query{}":"login.troutlook.phishnet.attackrange.local","record_type":"A","reply_code":"NoError","reply_code_id":"0","response_time":"522","source":"stream:dns","sourcetype":"stream:dns","splunk_server":"splunk-server-8362664","src":"10.0.1.12","src_ip":"10.0.1.12","src_mac":"02:5E:8B:CE:71:BD","src_port":"33160","tag":["communicate","dns","network","resolution"],"tag::eventtype":["communicate","dns","network","resolution"],"time_taken":"522","timeendpos":"39","timestamp":"2020-08-12T21:39:43.919396Z","timestartpos":"12","transaction_id":"45138","transport":"udp","ttl{}":["0","223","0"]}}
{"preview":false,"result":{"_raw":"{\"endtime\":\"2020-08-12T21:39:39.793744Z\",\"timestamp\":\"2020-08-12T21:39:39.792630Z\",\"hostname\":[\"ns1.phishnet.attackrange.local\"],\"message_type\":[\"QUERY\",\"RESPONSE\"],\"name\":[\"phishnet.attackrange.local\"],\"query\":[\"login.troutlook.phishnet.attackrange.local\"],\"query_type\":[\"AAAA\"],\"reply_code\":\"NoError\",\"reply_code_id\":0,\"response_time\":1114,\"transaction_id\":59273,\"ttl\":[0,60,0],\"bytes\":193,\"src_ip\":\"10.0.1.12\",\"src_mac\":\"02:5E:8B:CE:71:BD\",\"src_port\":39008,\"bytes_in\":71,\"dest_ip\":\"10.0.1.14\",\"dest_mac\":\"02:A1:AF:05:17:4D\",\"dest_port\":53,\"bytes_out\":122,\"time_taken\":1114,\"transport\":\"udp\",\"flow_id\":\"766c8832-f39e-4768-b2c9-13e6326b3657\",\"protocol_stack\":\"ip:udp:dns\"}","_time":"2020-08-12T21:39:39.793+0000","app":"dns","bytes":"193","bytes_in":"71","bytes_out":"122","date_hour":"21","date_mday":"12","date_minute":"39","date_month":"august","date_second":"39","date_wday":"wednesday","date_year":"2020","date_zone":"0","dest":"10.0.1.14","dest_ip":"10.0.1.14","dest_mac":"02:A1:AF:05:17:4D","dest_port":"53","duration":"1114","endtime":"2020-08-12T21:39:39.793744Z","eventtype":["stream_dns","stream_network_traffic"],"flow_id":"766c8832-f39e-4768-b2c9-13e6326b3657","host":"splunk-server-8362664","hostname{}":"ns1.phishnet.attackrange.local","index":"main","linecount":"1","message_type":["QUERY","RESPONSE"],"message_types":["QUERY","RESPONSE"],"message_type{}":["QUERY","RESPONSE"],"name{}":"phishnet.attackrange.local","protocol":"dns","protocol_stack":"ip:udp:dns","punct":"{\"\":\"--::.\",\"\":\"--::.\",\"\":[\"...\"],\"\":[\"\",\"\"],\"\":[\"","queries":"login.troutlook.phishnet.attackrange.local","query":"login.troutlook.phishnet.attackrange.local","query_type{}":"AAAA","query{}":"login.troutlook.phishnet.attackrange.local","record_type":"AAAA","reply_code":"NoError","reply_code_id":"0","response_time":"1114","source":"stream:dns","sourcetype":"stream:dns","splunk_server":"splunk-server-8362664","src":"10.0.1.12","src_ip":"10.0.1.12","src_mac":"02:5E:8B:CE:71:BD","src_port":"39008","tag":["communicate","dns","network","resolution"],"tag::eventtype":["communicate","dns","network","resolution"],"time_taken":"1114","timeendpos":"39","timestamp":"2020-08-12T21:39:39.792630Z","timestartpos":"12","transaction_id":"59273","transport":"udp","ttl{}":["0","60","0"]}}
{"preview":false,"result":{"_raw":"{\"endtime\":\"2020-08-12T21:39:39.793100Z\",\"timestamp\":\"2020-08-12T21:39:39.792614Z\",\"host_addr\":[\"10.0.1.16\"],\"message_type\":[\"QUERY\",\"RESPONSE\"],\"name\":[\"login.troutlook.phishnet.attackrange.local\"],\"query\":[\"login.troutlook.phishnet.attackrange.local\"],\"query_type\":[\"A\"],\"reply_code\":\"NoError\",\"reply_code_id\":0,\"response_time\":486,\"transaction_id\":36474,\"ttl\":[0,227,0],\"bytes\":158,\"src_ip\":\"10.0.1.12\",\"src_mac\":\"02:5E:8B:CE:71:BD\",\"src_port\":39008,\"bytes_in\":71,\"dest_ip\":\"10.0.1.14\",\"dest_mac\":\"02:A1:AF:05:17:4D\",\"dest_port\":53,\"bytes_out\":87,\"time_taken\":486,\"transport\":\"udp\",\"flow_id\":\"766c8832-f39e-4768-b2c9-13e6326b3657\",\"protocol_stack\":\"ip:udp:dns\"}","_time":"2020-08-12T21:39:39.793+0000","answer":"10.0.1.16","app":"dns","bytes":"158","bytes_in":"71","bytes_out":"87","date_hour":"21","date_mday":"12","date_minute":"39","date_month":"august","date_second":"39","date_wday":"wednesday","date_year":"2020","date_zone":"0","dest":"10.0.1.14","dest_ip":"10.0.1.14","dest_mac":"02:A1:AF:05:17:4D","dest_port":"53","duration":"486","endtime":"2020-08-12T21:39:39.793100Z","eventtype":["stream_dns","stream_network_traffic"],"flow_id":"766c8832-f39e-4768-b2c9-13e6326b3657","host":"splunk-server-8362664","host_addr{}":"10.0.1.16","index":"main","linecount":"1","message_type":["QUERY","RESPONSE"],"message_types":["QUERY","RESPONSE"],"message_type{}":["QUERY","RESPONSE"],"name{}":"login.troutlook.phishnet.attackrange.local","protocol":"dns","protocol_stack":"ip:udp:dns","punct":"{\"\":\"--::.\",\"\":\"--::.\",\"\":[\"...\"],\"\":[\"\",\"\"],\"\":[\"","queries":"login.troutlook.phishnet.attackrange.local","query":"login.troutlook.phishnet.attackrange.local","query_type{}":"A","query{}":"login.troutlook.phishnet.attackrange.local","record_type":"A","reply_code":"NoError","reply_code_id":"0","response_time":"486","source":"stream:dns","sourcetype":"stream:dns","splunk_server":"splunk-server-8362664","src":"10.0.1.12","src_ip":"10.0.1.12","src_mac":"02:5E:8B:CE:71:BD","src_port":"39008","tag":["communicate","dns","network","resolution"],"tag::eventtype":["communicate","dns","network","resolution"],"time_taken":"486","timeendpos":"39","timestamp":"2020-08-12T21:39:39.792614Z","timestartpos":"12","transaction_id":"36474","transport":"udp","ttl{}":["0","227","0"]}}
{"preview":false,"result":{"_raw":"{\"endtime\":\"2020-08-12T21:38:27.591999Z\",\"timestamp\":\"2020-08-12T21:38:27.590646Z\",\"host_addr\":[\"10.0.1.16\"],\"message_type\":[\"QUERY\",\"RESPONSE\"],\"name\":[\"login.troutlook.phishnet.attackrange.local\"],\"query\":[\"login.troutlook.phishnet.attackrange.local\"],\"query_type\":[\"A\"],\"reply_code\":\"NoError\",\"reply_code_id\":0,\"response_time\":1353,\"transaction_id\":38817,\"ttl\":[0,299,0],\"bytes\":158,\"src_ip\":\"10.0.1.12\",\"src_mac\":\"02:5E:8B:CE:71:BD\",\"src_port\":50673,\"bytes_in\":71,\"dest_ip\":\"10.0.1.14\",\"dest_mac\":\"02:A1:AF:05:17:4D\",\"dest_port\":53,\"bytes_out\":87,\"time_taken\":1353,\"transport\":\"udp\",\"flow_id\":\"c13e56f1-2fca-473f-b741-8a74caedc1bd\",\"protocol_stack\":\"ip:udp:dns\"}","_time":"2020-08-12T21:38:27.591+0000","answer":"10.0.1.16","app":"dns","bytes":"158","bytes_in":"71","bytes_out":"87","date_hour":"21","date_mday":"12","date_minute":"38","date_month":"august","date_second":"27","date_wday":"wednesday","date_year":"2020","date_zone":"0","dest":"10.0.1.14","dest_ip":"10.0.1.14","dest_mac":"02:A1:AF:05:17:4D","dest_port":"53","duration":"1353","endtime":"2020-08-12T21:38:27.591999Z","eventtype":["stream_dns","stream_network_traffic"],"flow_id":"c13e56f1-2fca-473f-b741-8a74caedc1bd","host":"splunk-server-8362664","host_addr{}":"10.0.1.16","index":"main","linecount":"1","message_type":["QUERY","RESPONSE"],"message_types":["QUERY","RESPONSE"],"message_type{}":["QUERY","RESPONSE"],"name{}":"login.troutlook.phishnet.attackrange.local","protocol":"dns","protocol_stack":"ip:udp:dns","punct":"{\"\":\"--::.\",\"\":\"--::.\",\"\":[\"...\"],\"\":[\"\",\"\"],\"\":[\"","queries":"login.troutlook.phishnet.attackrange.local","query":"login.troutlook.phishnet.attackrange.local","query_type{}":"A","query{}":"login.troutlook.phishnet.attackrange.local","record_type":"A","reply_code":"NoError","reply_code_id":"0","response_time":"1353","source":"stream:dns","sourcetype":"stream:dns","splunk_server":"splunk-server-8362664","src":"10.0.1.12","src_ip":"10.0.1.12","src_mac":"02:5E:8B:CE:71:BD","src_port":"50673","tag":["communicate","dns","network","resolution"],"tag::eventtype":["communicate","dns","network","resolution"],"time_taken":"1353","timeendpos":"39","timestamp":"2020-08-12T21:38:27.590646Z","timestartpos":"12","transaction_id":"38817","transport":"udp","ttl{}":["0","299","0"]}}
{"preview":false,"lastrow":true,"result":{"_raw":"{\"endtime\":\"2020-08-12T21:38:27.591968Z\",\"timestamp\":\"2020-08-12T21:38:27.590662Z\",\"hostname\":[\"ns1.phishnet.attackrange.local\"],\"message_type\":[\"QUERY\",\"RESPONSE\"],\"name\":[\"phishnet.attackrange.local\"],\"query\":[\"login.troutlook.phishnet.attackrange.local\"],\"query_type\":[\"AAAA\"],\"reply_code\":\"NoError\",\"reply_code_id\":0,\"response_time\":1306,\"transaction_id\":12463,\"ttl\":[0,59,0],\"bytes\":193,\"src_ip\":\"10.0.1.12\",\"src_mac\":\"02:5E:8B:CE:71:BD\",\"src_port\":50673,\"bytes_in\":71,\"dest_ip\":\"10.0.1.14\",\"dest_mac\":\"02:A1:AF:05:17:4D\",\"dest_port\":53,\"bytes_out\":122,\"time_taken\":1306,\"transport\":\"udp\",\"flow_id\":\"c13e56f1-2fca-473f-b741-8a74caedc1bd\",\"protocol_stack\":\"ip:udp:dns\"}","_time":"2020-08-12T21:38:27.591+0000","app":"dns","bytes":"193","bytes_in":"71","bytes_out":"122","date_hour":"21","date_mday":"12","date_minute":"38","date_month":"august","date_second":"27","date_wday":"wednesday","date_year":"2020","date_zone":"0","dest":"10.0.1.14","dest_ip":"10.0.1.14","dest_mac":"02:A1:AF:05:17:4D","dest_port":"53","duration":"1306","endtime":"2020-08-12T21:38:27.591968Z","eventtype":["stream_dns","stream_network_traffic"],"flow_id":"c13e56f1-2fca-473f-b741-8a74caedc1bd","host":"splunk-server-8362664","hostname{}":"ns1.phishnet.attackrange.local","index":"main","linecount":"1","message_type":["QUERY","RESPONSE"],"message_types":["QUERY","RESPONSE"],"message_type{}":["QUERY","RESPONSE"],"name{}":"phishnet.attackrange.local","protocol":"dns","protocol_stack":"ip:udp:dns","punct":"{\"\":\"--::.\",\"\":\"--::.\",\"\":[\"...\"],\"\":[\"\",\"\"],\"\":[\"","queries":"login.troutlook.phishnet.attackrange.local","query":"login.troutlook.phishnet.attackrange.local","query_type{}":"AAAA","query{}":"login.troutlook.phishnet.attackrange.local","record_type":"AAAA","reply_code":"NoError","reply_code_id":"0","response_time":"1306","source":"stream:dns","sourcetype":"stream:dns","splunk_server":"splunk-server-8362664","src":"10.0.1.12","src_ip":"10.0.1.12","src_mac":"02:5E:8B:CE:71:BD","src_port":"50673","tag":["communicate","dns","network","resolution"],"tag::eventtype":["communicate","dns","network","resolution"],"time_taken":"1306","timeendpos":"39","timestamp":"2020-08-12T21:38:27.590662Z","timestartpos":"12","transaction_id":"12463","transport":"udp","ttl{}":["0","59","0"]}}
