{"kind": "admin#reports#activity", "id": {"time": "2022-10-12T01:05:31.159Z", "uniqueQualifier": "720229394436", "applicationName": "login", "customerId": "C046r85ir"}, "etag": "\"JCPRxFaiNR1s5TJ6ecIH8OpGdY4efiOYXbIB65itOzY/_lixtTooT11WXorGf6w6ElN0m0g\"", "actor": {"email": "user1@daftpunk.com", "profileId": "114679690119024644513"}, "ipAddress": "141.254.89.27", "event": {"type": "login", "name": "login_failure", "parameters": [{"name": "login_type", "value": "unknown"}, {"name": "login_challenge_method", "multiValue": ["password"]}]}}
{"kind": "admin#reports#activity", "id": {"time": "2022-10-12T01:05:31.119Z", "uniqueQualifier": "720229394436", "applicationName": "login", "customerId": "C046r85ir"}, "etag": "\"JCPRxFaiNR1s5TJ6ecIH8OpGdY4efiOYXbIB65itOzY/_lixtTooT11WXorGf6w6ElN0m0g\"", "actor": {"email": "user2@daftpunk.com", "profileId": "114679690119024644513"}, "ipAddress": "141.254.89.27", "event": {"type": "login", "name": "login_failure", "parameters": [{"name": "login_type", "value": "unknown"}, {"name": "login_challenge_method", "multiValue": ["password"]}]}}
{"kind": "admin#reports#activity", "id": {"time": "2022-10-12T01:05:31.129Z", "uniqueQualifier": "720229394436", "applicationName": "login", "customerId": "C046r85ir"}, "etag": "\"JCPRxFaiNR1s5TJ6ecIH8OpGdY4efiOYXbIB65itOzY/_lixtTooT11WXorGf6w6ElN0m0g\"", "actor": {"email": "user3@daftpunk.com", "profileId": "114679690119024644513"}, "ipAddress": "141.254.89.27", "event": {"type": "login", "name": "login_failure", "parameters": [{"name": "login_type", "value": "unknown"}, {"name": "login_challenge_method", "multiValue": ["password"]}]}}
{"kind": "admin#reports#activity", "id": {"time": "2022-10-12T01:05:31.139Z", "uniqueQualifier": "720229394436", "applicationName": "login", "customerId": "C046r85ir"}, "etag": "\"JCPRxFaiNR1s5TJ6ecIH8OpGdY4efiOYXbIB65itOzY/_lixtTooT11WXorGf6w6ElN0m0g\"", "actor": {"email": "user4@daftpunk.com", "profileId": "114679690119024644513"}, "ipAddress": "141.254.89.27", "event": {"type": "login", "name": "login_failure", "parameters": [{"name": "login_type", "value": "unknown"}, {"name": "login_challenge_method", "multiValue": ["password"]}]}}
{"kind": "admin#reports#activity", "id": {"time": "2022-10-12T01:05:31.149Z", "uniqueQualifier": "720229394436", "applicationName": "login", "customerId": "C046r85ir"}, "etag": "\"JCPRxFaiNR1s5TJ6ecIH8OpGdY4efiOYXbIB65itOzY/_lixtTooT11WXorGf6w6ElN0m0g\"", "actor": {"email": "user5@daftpunk.com", "profileId": "114679690119024644513"}, "ipAddress": "141.254.89.27", "event": {"type": "login", "name": "login_failure", "parameters": [{"name": "login_type", "value": "unknown"}, {"name": "login_challenge_method", "multiValue": ["password"]}]}}
{"kind": "admin#reports#activity", "id": {"time": "2022-10-12T01:05:31.151Z", "uniqueQualifier": "720229394436", "applicationName": "login", "customerId": "C046r85ir"}, "etag": "\"JCPRxFaiNR1s5TJ6ecIH8OpGdY4efiOYXbIB65itOzY/_lixtTooT11WXorGf6w6ElN0m0g\"", "actor": {"email": "user6@daftpunk.com", "profileId": "114679690119024644513"}, "ipAddress": "141.254.89.27", "event": {"type": "login", "name": "login_failure", "parameters": [{"name": "login_type", "value": "unknown"}, {"name": "login_challenge_method", "multiValue": ["password"]}]}}
{"kind": "admin#reports#activity", "id": {"time": "2022-10-12T01:05:31.153Z", "uniqueQualifier": "720229394436", "applicationName": "login", "customerId": "C046r85ir"}, "etag": "\"JCPRxFaiNR1s5TJ6ecIH8OpGdY4efiOYXbIB65itOzY/_lixtTooT11WXorGf6w6ElN0m0g\"", "actor": {"email": "user7@daftpunk.com", "profileId": "114679690119024644513"}, "ipAddress": "141.254.89.27", "event": {"type": "login", "name": "login_failure", "parameters": [{"name": "login_type", "value": "unknown"}, {"name": "login_challenge_method", "multiValue": ["password"]}]}}
{"kind": "admin#reports#activity", "id": {"time": "2022-10-12T01:05:31.154Z", "uniqueQualifier": "720229394436", "applicationName": "login", "customerId": "C046r85ir"}, "etag": "\"JCPRxFaiNR1s5TJ6ecIH8OpGdY4efiOYXbIB65itOzY/_lixtTooT11WXorGf6w6ElN0m0g\"", "actor": {"email": "user8@daftpunk.com", "profileId": "114679690119024644513"}, "ipAddress": "141.254.89.27", "event": {"type": "login", "name": "login_failure", "parameters": [{"name": "login_type", "value": "unknown"}, {"name": "login_challenge_method", "multiValue": ["password"]}]}}
{"kind": "admin#reports#activity", "id": {"time": "2022-10-12T01:05:31.155Z", "uniqueQualifier": "720229394436", "applicationName": "login", "customerId": "C046r85ir"}, "etag": "\"JCPRxFaiNR1s5TJ6ecIH8OpGdY4efiOYXbIB65itOzY/_lixtTooT11WXorGf6w6ElN0m0g\"", "actor": {"email": "user9@daftpunk.com", "profileId": "114679690119024644513"}, "ipAddress": "141.254.89.27", "event": {"type": "login", "name": "login_failure", "parameters": [{"name": "login_type", "value": "unknown"}, {"name": "login_challenge_method", "multiValue": ["password"]}]}}
{"kind": "admin#reports#activity", "id": {"time": "2022-10-12T01:05:31.160Z", "uniqueQualifier": "720229394436", "applicationName": "login", "customerId": "C046r85ir"}, "etag": "\"JCPRxFaiNR1s5TJ6ecIH8OpGdY4efiOYXbIB65itOzY/_lixtTooT11WXorGf6w6ElN0m0g\"", "actor": {"email": "user10@daftpunk.com", "profileId": "114679690119024644513"}, "ipAddress": "141.254.89.27", "event": {"type": "login", "name": "login_failure", "parameters": [{"name": "login_type", "value": "unknown"}, {"name": "login_challenge_method", "multiValue": ["password"]}]}}
{"kind": "admin#reports#activity", "id": {"time": "2022-10-12T01:05:31.161Z", "uniqueQualifier": "720229394436", "applicationName": "login", "customerId": "C046r85ir"}, "etag": "\"JCPRxFaiNR1s5TJ6ecIH8OpGdY4efiOYXbIB65itOzY/_lixtTooT11WXorGf6w6ElN0m0g\"", "actor": {"email": "user11@daftpunk.com", "profileId": "114679690119024644513"}, "ipAddress": "141.254.89.27", "event": {"type": "login", "name": "login_failure", "parameters": [{"name": "login_type", "value": "unknown"}, {"name": "login_challenge_method", "multiValue": ["password"]}]}}
{"kind": "admin#reports#activity", "id": {"time": "2022-10-12T01:05:32.119Z", "uniqueQualifier": "720229394436", "applicationName": "login", "customerId": "C046r85ir"}, "etag": "\"JCPRxFaiNR1s5TJ6ecIH8OpGdY4efiOYXbIB65itOzY/_lixtTooT11WXorGf6w6ElN0m0g\"", "actor": {"email": "user12@daftpunk.com", "profileId": "114679690119024644513"}, "ipAddress": "141.254.89.27", "event": {"type": "login", "name": "login_failure", "parameters": [{"name": "login_type", "value": "unknown"}, {"name": "login_challenge_method", "multiValue": ["password"]}]}}
{"kind": "admin#reports#activity", "id": {"time": "2022-10-12T01:05:32.129Z", "uniqueQualifier": "720229394436", "applicationName": "login", "customerId": "C046r85ir"}, "etag": "\"JCPRxFaiNR1s5TJ6ecIH8OpGdY4efiOYXbIB65itOzY/_lixtTooT11WXorGf6w6ElN0m0g\"", "actor": {"email": "user13@daftpunk.com", "profileId": "114679690119024644513"}, "ipAddress": "141.254.89.27", "event": {"type": "login", "name": "login_failure", "parameters": [{"name": "login_type", "value": "unknown"}, {"name": "login_challenge_method", "multiValue": ["password"]}]}}
{"kind": "admin#reports#activity", "id": {"time": "2022-10-12T01:05:32.139Z", "uniqueQualifier": "720229394436", "applicationName": "login", "customerId": "C046r85ir"}, "etag": "\"JCPRxFaiNR1s5TJ6ecIH8OpGdY4efiOYXbIB65itOzY/_lixtTooT11WXorGf6w6ElN0m0g\"", "actor": {"email": "user14@daftpunk.com", "profileId": "114679690119024644513"}, "ipAddress": "141.254.89.27", "event": {"type": "login", "name": "login_failure", "parameters": [{"name": "login_type", "value": "unknown"}, {"name": "login_challenge_method", "multiValue": ["password"]}]}}
{"kind": "admin#reports#activity", "id": {"time": "2022-10-12T01:05:32.149Z", "uniqueQualifier": "720229394436", "applicationName": "login", "customerId": "C046r85ir"}, "etag": "\"JCPRxFaiNR1s5TJ6ecIH8OpGdY4efiOYXbIB65itOzY/_lixtTooT11WXorGf6w6ElN0m0g\"", "actor": {"email": "user15@daftpunk.com", "profileId": "114679690119024644513"}, "ipAddress": "141.254.89.27", "event": {"type": "login", "name": "login_failure", "parameters": [{"name": "login_type", "value": "unknown"}, {"name": "login_challenge_method", "multiValue": ["password"]}]}}
{"kind": "admin#reports#activity", "id": {"time": "2022-10-12T01:05:32.159Z", "uniqueQualifier": "720229394436", "applicationName": "login", "customerId": "C046r85ir"}, "etag": "\"JCPRxFaiNR1s5TJ6ecIH8OpGdY4efiOYXbIB65itOzY/_lixtTooT11WXorGf6w6ElN0m0g\"", "actor": {"email": "user16@daftpunk.com", "profileId": "114679690119024644513"}, "ipAddress": "141.254.89.27", "event": {"type": "login", "name": "login_failure", "parameters": [{"name": "login_type", "value": "unknown"}, {"name": "login_challenge_method", "multiValue": ["password"]}]}}
{"kind": "admin#reports#activity", "id": {"time": "2022-10-12T01:05:32.162Z", "uniqueQualifier": "720229394436", "applicationName": "login", "customerId": "C046r85ir"}, "etag": "\"JCPRxFaiNR1s5TJ6ecIH8OpGdY4efiOYXbIB65itOzY/_lixtTooT11WXorGf6w6ElN0m0g\"", "actor": {"email": "user17@daftpunk.com", "profileId": "114679690119024644513"}, "ipAddress": "141.254.89.27", "event": {"type": "login", "name": "login_failure", "parameters": [{"name": "login_type", "value": "unknown"}, {"name": "login_challenge_method", "multiValue": ["password"]}]}}
{"kind": "admin#reports#activity", "id": {"time": "2022-10-12T01:05:32.178Z", "uniqueQualifier": "720229394436", "applicationName": "login", "customerId": "C046r85ir"}, "etag": "\"JCPRxFaiNR1s5TJ6ecIH8OpGdY4efiOYXbIB65itOzY/_lixtTooT11WXorGf6w6ElN0m0g\"", "actor": {"email": "user18@daftpunk.com", "profileId": "114679690119024644513"}, "ipAddress": "141.254.89.27", "event": {"type": "login", "name": "login_failure", "parameters": [{"name": "login_type", "value": "unknown"}, {"name": "login_challenge_method", "multiValue": ["password"]}]}}
{"kind": "admin#reports#activity", "id": {"time": "2022-10-12T01:05:32.182Z", "uniqueQualifier": "720229394436", "applicationName": "login", "customerId": "C046r85ir"}, "etag": "\"JCPRxFaiNR1s5TJ6ecIH8OpGdY4efiOYXbIB65itOzY/_lixtTooT11WXorGf6w6ElN0m0g\"", "actor": {"email": "user19@daftpunk.com", "profileId": "114679690119024644513"}, "ipAddress": "141.254.89.27", "event": {"type": "login", "name": "login_failure", "parameters": [{"name": "login_type", "value": "unknown"}, {"name": "login_challenge_method", "multiValue": ["password"]}]}}
{"kind": "admin#reports#activity", "id": {"time": "2022-10-12T01:05:33.159Z", "uniqueQualifier": "720229394436", "applicationName": "login", "customerId": "C046r85ir"}, "etag": "\"JCPRxFaiNR1s5TJ6ecIH8OpGdY4efiOYXbIB65itOzY/_lixtTooT11WXorGf6w6ElN0m0g\"", "actor": {"email": "user20@daftpunk.com", "profileId": "114679690119024644513"}, "ipAddress": "141.254.89.27", "event": {"type": "login", "name": "login_failure", "parameters": [{"name": "login_type", "value": "unknown"}, {"name": "login_challenge_method", "multiValue": ["password"]}]}}
{"kind": "admin#reports#activity", "id": {"time": "2022-10-12T01:05:33.169Z", "uniqueQualifier": "720229394436", "applicationName": "login", "customerId": "C046r85ir"}, "etag": "\"JCPRxFaiNR1s5TJ6ecIH8OpGdY4efiOYXbIB65itOzY/_lixtTooT11WXorGf6w6ElN0m0g\"", "actor": {"email": "user21@daftpunk.com", "profileId": "114679690119024644513"}, "ipAddress": "141.254.89.27", "event": {"type": "login", "name": "login_failure", "parameters": [{"name": "login_type", "value": "unknown"}, {"name": "login_challenge_method", "multiValue": ["password"]}]}}
{"kind": "admin#reports#activity", "id": {"time": "2022-10-12T01:05:33.119Z", "uniqueQualifier": "720229394436", "applicationName": "login", "customerId": "C046r85ir"}, "etag": "\"JCPRxFaiNR1s5TJ6ecIH8OpGdY4efiOYXbIB65itOzY/_lixtTooT11WXorGf6w6ElN0m0g\"", "actor": {"email": "user22@daftpunk.com", "profileId": "114679690119024644513"}, "ipAddress": "141.254.89.27", "event": {"type": "login", "name": "login_failure", "parameters": [{"name": "login_type", "value": "unknown"}, {"name": "login_challenge_method", "multiValue": ["password"]}]}}
{"kind": "admin#reports#activity", "id": {"time": "2022-10-12T01:05:33.129Z", "uniqueQualifier": "720229394436", "applicationName": "login", "customerId": "C046r85ir"}, "etag": "\"JCPRxFaiNR1s5TJ6ecIH8OpGdY4efiOYXbIB65itOzY/_lixtTooT11WXorGf6w6ElN0m0g\"", "actor": {"email": "user23@daftpunk.com", "profileId": "114679690119024644513"}, "ipAddress": "141.254.89.27", "event": {"type": "login", "name": "login_failure", "parameters": [{"name": "login_type", "value": "unknown"}, {"name": "login_challenge_method", "multiValue": ["password"]}]}}
{"kind": "admin#reports#activity", "id": {"time": "2022-10-12T01:05:33.149Z", "uniqueQualifier": "720229394436", "applicationName": "login", "customerId": "C046r85ir"}, "etag": "\"JCPRxFaiNR1s5TJ6ecIH8OpGdY4efiOYXbIB65itOzY/_lixtTooT11WXorGf6w6ElN0m0g\"", "actor": {"email": "user24@daftpunk.com", "profileId": "114679690119024644513"}, "ipAddress": "141.254.89.27", "event": {"type": "login", "name": "login_failure", "parameters": [{"name": "login_type", "value": "unknown"}, {"name": "login_challenge_method", "multiValue": ["password"]}]}}
{"kind": "admin#reports#activity", "id": {"time": "2022-10-12T01:05:33.159Z", "uniqueQualifier": "720229394436", "applicationName": "login", "customerId": "C046r85ir"}, "etag": "\"JCPRxFaiNR1s5TJ6ecIH8OpGdY4efiOYXbIB65itOzY/_lixtTooT11WXorGf6w6ElN0m0g\"", "actor": {"email": "user25@daftpunk.com", "profileId": "114679690119024644513"}, "ipAddress": "141.254.89.27", "event": {"type": "login", "name": "login_failure", "parameters": [{"name": "login_type", "value": "unknown"}, {"name": "login_challenge_method", "multiValue": ["password"]}]}}
{"kind": "admin#reports#activity", "id": {"time": "2022-10-12T01:05:34.159Z", "uniqueQualifier": "720229394436", "applicationName": "login", "customerId": "C046r85ir"}, "etag": "\"JCPRxFaiNR1s5TJ6ecIH8OpGdY4efiOYXbIB65itOzY/_lixtTooT11WXorGf6w6ElN0m0g\"", "actor": {"email": "user26@daftpunk.com", "profileId": "114679690119024644513"}, "ipAddress": "141.254.89.27", "event": {"type": "login", "name": "login_failure", "parameters": [{"name": "login_type", "value": "unknown"}, {"name": "login_challenge_method", "multiValue": ["password"]}]}}
{"kind": "admin#reports#activity", "id": {"time": "2022-10-12T01:05:34.169Z", "uniqueQualifier": "720229394436", "applicationName": "login", "customerId": "C046r85ir"}, "etag": "\"JCPRxFaiNR1s5TJ6ecIH8OpGdY4efiOYXbIB65itOzY/_lixtTooT11WXorGf6w6ElN0m0g\"", "actor": {"email": "user27@daftpunk.com", "profileId": "114679690119024644513"}, "ipAddress": "141.254.89.27", "event": {"type": "login", "name": "login_failure", "parameters": [{"name": "login_type", "value": "unknown"}, {"name": "login_challenge_method", "multiValue": ["password"]}]}}
{"kind": "admin#reports#activity", "id": {"time": "2022-10-12T01:05:34.179Z", "uniqueQualifier": "720229394436", "applicationName": "login", "customerId": "C046r85ir"}, "etag": "\"JCPRxFaiNR1s5TJ6ecIH8OpGdY4efiOYXbIB65itOzY/_lixtTooT11WXorGf6w6ElN0m0g\"", "actor": {"email": "user28@daftpunk.com", "profileId": "114679690119024644513"}, "ipAddress": "141.254.89.27", "event": {"type": "login", "name": "login_failure", "parameters": [{"name": "login_type", "value": "unknown"}, {"name": "login_challenge_method", "multiValue": ["password"]}]}}
{"kind": "admin#reports#activity", "id": {"time": "2022-10-12T01:05:34.189Z", "uniqueQualifier": "720229394436", "applicationName": "login", "customerId": "C046r85ir"}, "etag": "\"JCPRxFaiNR1s5TJ6ecIH8OpGdY4efiOYXbIB65itOzY/_lixtTooT11WXorGf6w6ElN0m0g\"", "actor": {"email": "user29@daftpunk.com", "profileId": "114679690119024644513"}, "ipAddress": "141.254.89.27", "event": {"type": "login", "name": "login_failure", "parameters": [{"name": "login_type", "value": "unknown"}, {"name": "login_challenge_method", "multiValue": ["password"]}]}}
{"kind": "admin#reports#activity", "id": {"time": "2022-10-12T01:05:35.119Z", "uniqueQualifier": "720229394436", "applicationName": "login", "customerId": "C046r85ir"}, "etag": "\"JCPRxFaiNR1s5TJ6ecIH8OpGdY4efiOYXbIB65itOzY/_lixtTooT11WXorGf6w6ElN0m0g\"", "actor": {"email": "user29@daftpunk.com", "profileId": "114679690119024644513"}, "ipAddress": "141.254.89.27", "event": {"type": "login", "name": "login_failure", "parameters": [{"name": "login_type", "value": "unknown"}, {"name": "login_challenge_method", "multiValue": ["password"]}]}}
