{"job_time": "2021-09-02T08:13:34.273Z", "stop_time": "2021-09-02T08:13:34.273Z", "start_time": "2021-09-02T08:10:15.829Z", "queued_time": "2021-09-02T08:10:12.764Z", "job_name": "Unknown", "reponame": "devsecops_poc", "build_num": 94, "build_url": "https://circleci.com/gh/splunk/devsecops_poc/94", "branch": "main", "status": "success", "project_slug": "gh/splunk/devsecops_poc", "fail_reason": null, "build_time_millis": 198444, "timedout": false, "username": "splunk", "owners": ["P4T12ICK"], "author_name": "P4T12ICK", "avatar_url": "", "workflows": {"job_name": "k8s-security", "job_id": "aa1e394f-42c8-4809-93fc-7ba9f8fc51d2", "workflow_id": "6a1bd1c8-e3c4-4d7a-b3e4-16cc726cc0ca", "workspace_id": "6a1bd1c8-e3c4-4d7a-b3e4-16cc726cc0ca", "upstream_job_ids": ["7d543f1d-ae02-449d-9ce3-f710e9094c47", "39a8bf7a-fe22-4886-8661-9f6eec43b348", "7c1adae6-feb1-409b-b17a-c9beaab63359"], "upstream_concurrency_map": {}, "workflow_name": "deployment"}, "vcs": {"commit_time": "2021-09-02T08:05:59.000Z", "type": "github", "url": "https://github.com/splunk/devsecops_poc", "revision": "68d5575c64352792e6e716a1e909db5f9cb3bc2a", "tag": null, "committer_name": "P4T12ICK", "subject": "small change"}}
{"job_time": "2021-09-02T08:10:12.232Z", "stop_time": "2021-09-02T08:10:12.232Z", "start_time": "2021-09-02T08:09:55.369Z", "queued_time": "2021-09-02T08:09:51.074Z", "job_name": "Unknown", "reponame": "devsecops_poc", "build_num": 93, "build_url": "https://circleci.com/gh/splunk/devsecops_poc/93", "branch": "main", "status": "success", "project_slug": "gh/splunk/devsecops_poc", "fail_reason": null, "build_time_millis": 16863, "timedout": false, "username": "splunk", "owners": ["P4T12ICK"], "author_name": "P4T12ICK", "avatar_url": "", "workflows": {"job_name": "update-cluster", "job_id": "7c1adae6-feb1-409b-b17a-c9beaab63359", "workflow_id": "6a1bd1c8-e3c4-4d7a-b3e4-16cc726cc0ca", "workspace_id": "6a1bd1c8-e3c4-4d7a-b3e4-16cc726cc0ca", "upstream_job_ids": ["7d543f1d-ae02-449d-9ce3-f710e9094c47", "39a8bf7a-fe22-4886-8661-9f6eec43b348"], "upstream_concurrency_map": {}, "workflow_name": "deployment"}, "vcs": {"commit_time": "2021-09-02T08:05:59.000Z", "type": "github", "url": "https://github.com/splunk/devsecops_poc", "revision": "68d5575c64352792e6e716a1e909db5f9cb3bc2a", "tag": null, "committer_name": "P4T12ICK", "subject": "small change"}}
{"job_time": "2021-09-02T08:10:00.591Z", "stop_time": null, "start_time": "2021-09-02T08:09:55.369Z", "queued_time": "2021-09-02T08:09:51.074Z", "job_name": "Unknown", "reponame": "devsecops_poc", "build_num": 93, "build_url": "https://circleci.com/gh/splunk/devsecops_poc/93", "branch": "main", "status": "running", "project_slug": "gh/splunk/devsecops_poc", "fail_reason": null, "build_time_millis": null, "timedout": false, "username": "splunk", "owners": ["P4T12ICK"], "author_name": "P4T12ICK", "avatar_url": "", "workflows": {"job_name": "update-cluster", "job_id": "7c1adae6-feb1-409b-b17a-c9beaab63359", "workflow_id": "6a1bd1c8-e3c4-4d7a-b3e4-16cc726cc0ca", "workspace_id": "6a1bd1c8-e3c4-4d7a-b3e4-16cc726cc0ca", "upstream_job_ids": ["7d543f1d-ae02-449d-9ce3-f710e9094c47", "39a8bf7a-fe22-4886-8661-9f6eec43b348"], "upstream_concurrency_map": {}, "workflow_name": "deployment"}, "vcs": {"commit_time": "2021-09-02T08:05:59.000Z", "type": "github", "url": "https://github.com/splunk/devsecops_poc", "revision": "68d5575c64352792e6e716a1e909db5f9cb3bc2a", "tag": null, "committer_name": "P4T12ICK", "subject": "small change"}}
{"job_time": "2021-09-02T08:09:50.522Z", "stop_time": "2021-09-02T08:09:50.522Z", "start_time": "2021-09-02T08:06:40.592Z", "queued_time": "2021-09-02T08:06:38.442Z", "job_name": "Unknown", "reponame": "devsecops_poc", "build_num": 92, "build_url": "https://circleci.com/gh/splunk/devsecops_poc/92", "branch": "main", "status": "success", "project_slug": "gh/splunk/devsecops_poc", "fail_reason": null, "build_time_millis": 189930, "timedout": false, "username": "splunk", "owners": ["P4T12ICK"], "author_name": "P4T12ICK", "avatar_url": "", "workflows": {"job_name": "build-and-push", "job_id": "39a8bf7a-fe22-4886-8661-9f6eec43b348", "workflow_id": "6a1bd1c8-e3c4-4d7a-b3e4-16cc726cc0ca", "workspace_id": "6a1bd1c8-e3c4-4d7a-b3e4-16cc726cc0ca", "upstream_job_ids": ["7d543f1d-ae02-449d-9ce3-f710e9094c47"], "upstream_concurrency_map": {}, "workflow_name": "deployment"}, "vcs": {"commit_time": "2021-09-02T08:05:59.000Z", "type": "github", "url": "https://github.com/splunk/devsecops_poc", "revision": "68d5575c64352792e6e716a1e909db5f9cb3bc2a", "tag": null, "committer_name": "P4T12ICK", "subject": "small change"}}
{"job_time": "2021-09-02T08:06:37.720Z", "stop_time": "2021-09-02T08:06:37.720Z", "start_time": "2021-09-02T08:06:09.097Z", "queued_time": "2021-09-02T08:06:06.629Z", "job_name": "Unknown", "reponame": "devsecops_poc", "build_num": 91, "build_url": "https://circleci.com/gh/splunk/devsecops_poc/91", "branch": "main", "status": "success", "project_slug": "gh/splunk/devsecops_poc", "fail_reason": null, "build_time_millis": 28623, "timedout": false, "username": "splunk", "owners": ["P4T12ICK"], "author_name": "P4T12ICK", "avatar_url": "", "workflows": {"job_name": "static-code-analysis", "job_id": "7d543f1d-ae02-449d-9ce3-f710e9094c47", "workflow_id": "6a1bd1c8-e3c4-4d7a-b3e4-16cc726cc0ca", "workspace_id": "6a1bd1c8-e3c4-4d7a-b3e4-16cc726cc0ca", "upstream_job_ids": [], "upstream_concurrency_map": {}, "workflow_name": "deployment"}, "vcs": {"commit_time": "2021-09-02T08:05:59.000Z", "type": "github", "url": "https://github.com/splunk/devsecops_poc", "revision": "68d5575c64352792e6e716a1e909db5f9cb3bc2a", "tag": null, "committer_name": "P4T12ICK", "subject": "small change"}}
{"job_time": "2021-09-02T07:32:15.360Z", "stop_time": "2021-09-02T07:32:15.360Z", "start_time": "2021-09-02T07:31:41.199Z", "queued_time": "2021-09-02T07:31:35.948Z", "job_name": "Unknown", "reponame": "devsecops_poc", "build_num": 90, "build_url": "https://circleci.com/gh/splunk/devsecops_poc/90", "branch": "main", "status": "success", "project_slug": "gh/splunk/devsecops_poc", "fail_reason": null, "build_time_millis": 34161, "timedout": false, "username": "splunk", "owners": ["P4T12ICK"], "author_name": "P4T12ICK", "avatar_url": "", "workflows": {"job_name": "update-cluster", "job_id": "3401ad84-5f1b-4634-8d54-0e4f77428915", "workflow_id": "aa0c720e-7947-4e8d-b4b4-0b3160a34a56", "workspace_id": "aa0c720e-7947-4e8d-b4b4-0b3160a34a56", "upstream_job_ids": ["57a52b4a-ed29-4f2f-b499-98277b5fe34b", "3a2c4d1a-3ab7-4397-8ffa-2884b978b824"], "upstream_concurrency_map": {}, "workflow_name": "deployment"}, "vcs": {"commit_time": "2021-09-02T07:27:16.000Z", "type": "github", "url": "https://github.com/splunk/devsecops_poc", "revision": "3b35a8b32e0662a4a080cd5ba3ed1ef5b48758f1", "tag": null, "committer_name": "P4T12ICK", "subject": "small change"}}
{"job_time": "2021-09-02T07:31:35.322Z", "stop_time": "2021-09-02T07:31:35.322Z", "start_time": "2021-09-02T07:28:05.608Z", "queued_time": "2021-09-02T07:28:01.486Z", "job_name": "Unknown", "reponame": "devsecops_poc", "build_num": 89, "build_url": "https://circleci.com/gh/splunk/devsecops_poc/89", "branch": "main", "status": "success", "project_slug": "gh/splunk/devsecops_poc", "fail_reason": null, "build_time_millis": 209714, "timedout": false, "username": "splunk", "owners": ["P4T12ICK"], "author_name": "P4T12ICK", "avatar_url": "", "workflows": {"job_name": "build-and-push", "job_id": "3a2c4d1a-3ab7-4397-8ffa-2884b978b824", "workflow_id": "aa0c720e-7947-4e8d-b4b4-0b3160a34a56", "workspace_id": "aa0c720e-7947-4e8d-b4b4-0b3160a34a56", "upstream_job_ids": ["57a52b4a-ed29-4f2f-b499-98277b5fe34b"], "upstream_concurrency_map": {}, "workflow_name": "deployment"}, "vcs": {"commit_time": "2021-09-02T07:27:16.000Z", "type": "github", "url": "https://github.com/splunk/devsecops_poc", "revision": "3b35a8b32e0662a4a080cd5ba3ed1ef5b48758f1", "tag": null, "committer_name": "P4T12ICK", "subject": "small change"}}
{"job_time": "2021-09-02T07:30:00.706Z", "stop_time": null, "start_time": "2021-09-02T07:28:05.608Z", "queued_time": "2021-09-02T07:28:01.486Z", "job_name": "Unknown", "reponame": "devsecops_poc", "build_num": 89, "build_url": "https://circleci.com/gh/splunk/devsecops_poc/89", "branch": "main", "status": "running", "project_slug": "gh/splunk/devsecops_poc", "fail_reason": null, "build_time_millis": null, "timedout": false, "username": "splunk", "owners": ["P4T12ICK"], "author_name": "P4T12ICK", "avatar_url": "", "workflows": {"job_name": "build-and-push", "job_id": "3a2c4d1a-3ab7-4397-8ffa-2884b978b824", "workflow_id": "aa0c720e-7947-4e8d-b4b4-0b3160a34a56", "workspace_id": "aa0c720e-7947-4e8d-b4b4-0b3160a34a56", "upstream_job_ids": ["57a52b4a-ed29-4f2f-b499-98277b5fe34b"], "upstream_concurrency_map": {}, "workflow_name": "deployment"}, "vcs": {"commit_time": "2021-09-02T07:27:16.000Z", "type": "github", "url": "https://github.com/splunk/devsecops_poc", "revision": "3b35a8b32e0662a4a080cd5ba3ed1ef5b48758f1", "tag": null, "committer_name": "P4T12ICK", "subject": "small change"}}
{"job_time": "2021-09-02T07:28:00.864Z", "stop_time": "2021-09-02T07:28:00.864Z", "start_time": "2021-09-02T07:27:27.326Z", "queued_time": "2021-09-02T07:27:23.326Z", "job_name": "Unknown", "reponame": "devsecops_poc", "build_num": 88, "build_url": "https://circleci.com/gh/splunk/devsecops_poc/88", "branch": "main", "status": "success", "project_slug": "gh/splunk/devsecops_poc", "fail_reason": null, "build_time_millis": 33538, "timedout": false, "username": "splunk", "owners": ["P4T12ICK"], "author_name": "P4T12ICK", "avatar_url": "", "workflows": {"job_name": "static-code-analysis", "job_id": "57a52b4a-ed29-4f2f-b499-98277b5fe34b", "workflow_id": "aa0c720e-7947-4e8d-b4b4-0b3160a34a56", "workspace_id": "aa0c720e-7947-4e8d-b4b4-0b3160a34a56", "upstream_job_ids": [], "upstream_concurrency_map": {}, "workflow_name": "deployment"}, "vcs": {"commit_time": "2021-09-02T07:27:16.000Z", "type": "github", "url": "https://github.com/splunk/devsecops_poc", "revision": "3b35a8b32e0662a4a080cd5ba3ed1ef5b48758f1", "tag": null, "committer_name": "P4T12ICK", "subject": "small change"}}
{"job_time": "2021-09-02T07:26:41.840Z", "stop_time": "2021-09-02T07:26:41.840Z", "start_time": "2021-09-02T07:23:27.828Z", "queued_time": "2021-09-02T07:23:25.150Z", "job_name": "Unknown", "reponame": "devsecops_poc", "build_num": 85, "build_url": "https://circleci.com/gh/splunk/devsecops_poc/85", "branch": "main", "status": "success", "project_slug": "gh/splunk/devsecops_poc", "fail_reason": null, "build_time_millis": 194012, "timedout": false, "username": "splunk", "owners": ["P4T12ICK"], "author_name": "P4T12ICK", "avatar_url": "", "workflows": {"job_name": "k8s-security", "job_id": "4fb2e512-e29b-4bf2-9609-a2b9d63a5893", "workflow_id": "f01ae36b-9beb-4f5d-a84d-c9a72374415e", "workspace_id": "f01ae36b-9beb-4f5d-a84d-c9a72374415e", "upstream_job_ids": ["97bd1272-fbce-4f79-8f8a-4a29e08566db", "00950104-e0b1-4a8b-93d3-19de00c57a11", "aa8a955f-8fc2-48db-af01-7a9a1d3b5a12"], "upstream_concurrency_map": {}, "workflow_name": "deployment"}, "vcs": {"commit_time": "2021-09-02T07:19:15.000Z", "type": "github", "url": "https://github.com/splunk/devsecops_poc", "revision": "35eb935a8742e74195f45edec69486b49a96632a", "tag": null, "committer_name": "P4T12ICK", "subject": "small change"}}
{"job_time": "2021-09-02T07:24:44.168Z", "stop_time": "2021-09-02T07:24:44.168Z", "start_time": "2021-09-02T07:24:30.780Z", "queued_time": "2021-09-02T07:24:28.908Z", "job_name": "Unknown", "reponame": "devsecops_poc", "build_num": 87, "build_url": "https://circleci.com/gh/splunk/devsecops_poc/87", "branch": "main", "status": "success", "project_slug": "gh/splunk/devsecops_poc", "fail_reason": null, "build_time_millis": 13388, "timedout": false, "username": "splunk", "owners": ["P4T12ICK"], "author_name": "P4T12ICK", "avatar_url": "", "workflows": {"job_name": "k8s-security", "job_id": "8622a4a7-7a45-4e57-a4c0-9747e120a797", "workflow_id": "45334cce-6e6f-4284-b198-b8d2709d03f2", "workspace_id": "45334cce-6e6f-4284-b198-b8d2709d03f2", "upstream_job_ids": ["098e9630-6031-4279-8668-279138a58c17", "7561cbb8-73d6-4428-a41a-56f5967eecef", "3e34f29c-2e4d-45cf-be2e-f547171bfcc7"], "upstream_concurrency_map": {}, "workflow_name": "deployment"}, "vcs": {"commit_time": "2021-09-02T07:18:43.000Z", "type": "github", "url": "https://github.com/splunk/devsecops_poc", "revision": "a211d5314f9d8c4ddcf5f1bf2b39ae4da5ee5e97", "tag": null, "committer_name": "P4T12ICK", "subject": "small change"}}
{"job_time": "2021-09-02T07:24:28.399Z", "stop_time": "2021-09-02T07:24:28.399Z", "start_time": "2021-09-02T07:24:15.434Z", "queued_time": "2021-09-02T07:24:06.903Z", "job_name": "Unknown", "reponame": "devsecops_poc", "build_num": 86, "build_url": "https://circleci.com/gh/splunk/devsecops_poc/86", "branch": "main", "status": "success", "project_slug": "gh/splunk/devsecops_poc", "fail_reason": null, "build_time_millis": 12965, "timedout": false, "username": "splunk", "owners": ["P4T12ICK"], "author_name": "P4T12ICK", "avatar_url": "", "workflows": {"job_name": "update-cluster", "job_id": "3e34f29c-2e4d-45cf-be2e-f547171bfcc7", "workflow_id": "45334cce-6e6f-4284-b198-b8d2709d03f2", "workspace_id": "45334cce-6e6f-4284-b198-b8d2709d03f2", "upstream_job_ids": ["098e9630-6031-4279-8668-279138a58c17", "7561cbb8-73d6-4428-a41a-56f5967eecef"], "upstream_concurrency_map": {}, "workflow_name": "deployment"}, "vcs": {"commit_time": "2021-09-02T07:18:43.000Z", "type": "github", "url": "https://github.com/splunk/devsecops_poc", "revision": "a211d5314f9d8c4ddcf5f1bf2b39ae4da5ee5e97", "tag": null, "committer_name": "P4T12ICK", "subject": "small change"}}
{"job_time": "2021-09-02T07:24:06.313Z", "stop_time": "2021-09-02T07:24:06.313Z", "start_time": "2021-09-02T07:19:29.141Z", "queued_time": "2021-09-02T07:19:26.672Z", "job_name": "Unknown", "reponame": "devsecops_poc", "build_num": 82, "build_url": "https://circleci.com/gh/splunk/devsecops_poc/82", "branch": "main", "status": "success", "project_slug": "gh/splunk/devsecops_poc", "fail_reason": null, "build_time_millis": 277172, "timedout": false, "username": "splunk", "owners": ["P4T12ICK"], "author_name": "P4T12ICK", "avatar_url": "", "workflows": {"job_name": "build-and-push", "job_id": "7561cbb8-73d6-4428-a41a-56f5967eecef", "workflow_id": "45334cce-6e6f-4284-b198-b8d2709d03f2", "workspace_id": "45334cce-6e6f-4284-b198-b8d2709d03f2", "upstream_job_ids": ["098e9630-6031-4279-8668-279138a58c17"], "upstream_concurrency_map": {}, "workflow_name": "deployment"}, "vcs": {"commit_time": "2021-09-02T07:18:43.000Z", "type": "github", "url": "https://github.com/splunk/devsecops_poc", "revision": "a211d5314f9d8c4ddcf5f1bf2b39ae4da5ee5e97", "tag": null, "committer_name": "P4T12ICK", "subject": "small change"}}
{"job_time": "2021-09-02T07:23:24.613Z", "stop_time": "2021-09-02T07:23:24.613Z", "start_time": "2021-09-02T07:23:10.463Z", "queued_time": "2021-09-02T07:23:07.684Z", "job_name": "Unknown", "reponame": "devsecops_poc", "build_num": 84, "build_url": "https://circleci.com/gh/splunk/devsecops_poc/84", "branch": "main", "status": "success", "project_slug": "gh/splunk/devsecops_poc", "fail_reason": null, "build_time_millis": 14150, "timedout": false, "username": "splunk", "owners": ["P4T12ICK"], "author_name": "P4T12ICK", "avatar_url": "", "workflows": {"job_name": "update-cluster", "job_id": "aa8a955f-8fc2-48db-af01-7a9a1d3b5a12", "workflow_id": "f01ae36b-9beb-4f5d-a84d-c9a72374415e", "workspace_id": "f01ae36b-9beb-4f5d-a84d-c9a72374415e", "upstream_job_ids": ["97bd1272-fbce-4f79-8f8a-4a29e08566db", "00950104-e0b1-4a8b-93d3-19de00c57a11"], "upstream_concurrency_map": {}, "workflow_name": "deployment"}, "vcs": {"commit_time": "2021-09-02T07:19:15.000Z", "type": "github", "url": "https://github.com/splunk/devsecops_poc", "revision": "35eb935a8742e74195f45edec69486b49a96632a", "tag": null, "committer_name": "P4T12ICK", "subject": "small change"}}
{"job_time": "2021-09-02T07:23:07.142Z", "stop_time": "2021-09-02T07:23:07.142Z", "start_time": "2021-09-02T07:19:59.712Z", "queued_time": "2021-09-02T07:19:56.609Z", "job_name": "Unknown", "reponame": "devsecops_poc", "build_num": 83, "build_url": "https://circleci.com/gh/splunk/devsecops_poc/83", "branch": "main", "status": "success", "project_slug": "gh/splunk/devsecops_poc", "fail_reason": null, "build_time_millis": 187430, "timedout": false, "username": "splunk", "owners": ["P4T12ICK"], "author_name": "P4T12ICK", "avatar_url": "", "workflows": {"job_name": "build-and-push", "job_id": "00950104-e0b1-4a8b-93d3-19de00c57a11", "workflow_id": "f01ae36b-9beb-4f5d-a84d-c9a72374415e", "workspace_id": "f01ae36b-9beb-4f5d-a84d-c9a72374415e", "upstream_job_ids": ["97bd1272-fbce-4f79-8f8a-4a29e08566db"], "upstream_concurrency_map": {}, "workflow_name": "deployment"}, "vcs": {"commit_time": "2021-09-02T07:19:15.000Z", "type": "github", "url": "https://github.com/splunk/devsecops_poc", "revision": "35eb935a8742e74195f45edec69486b49a96632a", "tag": null, "committer_name": "P4T12ICK", "subject": "small change"}}
{"job_time": "2021-09-02T07:20:02.274Z", "stop_time": null, "start_time": "2021-09-02T07:19:29.141Z", "queued_time": "2021-09-02T07:19:26.672Z", "job_name": "Unknown", "reponame": "devsecops_poc", "build_num": 82, "build_url": "https://circleci.com/gh/splunk/devsecops_poc/82", "branch": "main", "status": "running", "project_slug": "gh/splunk/devsecops_poc", "fail_reason": null, "build_time_millis": null, "timedout": false, "username": "splunk", "owners": ["P4T12ICK"], "author_name": "P4T12ICK", "avatar_url": "", "workflows": {"job_name": "build-and-push", "job_id": "7561cbb8-73d6-4428-a41a-56f5967eecef", "workflow_id": "45334cce-6e6f-4284-b198-b8d2709d03f2", "workspace_id": "45334cce-6e6f-4284-b198-b8d2709d03f2", "upstream_job_ids": ["098e9630-6031-4279-8668-279138a58c17"], "upstream_concurrency_map": {}, "workflow_name": "deployment"}, "vcs": {"commit_time": "2021-09-02T07:18:43.000Z", "type": "github", "url": "https://github.com/splunk/devsecops_poc", "revision": "a211d5314f9d8c4ddcf5f1bf2b39ae4da5ee5e97", "tag": null, "committer_name": "P4T12ICK", "subject": "small change"}}
{"job_time": "2021-09-02T07:20:00.601Z", "stop_time": null, "start_time": "2021-09-02T07:19:59.712Z", "queued_time": "2021-09-02T07:19:56.609Z", "job_name": "Unknown", "reponame": "devsecops_poc", "build_num": 83, "build_url": "https://circleci.com/gh/splunk/devsecops_poc/83", "branch": "main", "status": "running", "project_slug": "gh/splunk/devsecops_poc", "fail_reason": null, "build_time_millis": null, "timedout": false, "username": "splunk", "owners": ["P4T12ICK"], "author_name": "P4T12ICK", "avatar_url": "", "workflows": {"job_name": "build-and-push", "job_id": "00950104-e0b1-4a8b-93d3-19de00c57a11", "workflow_id": "f01ae36b-9beb-4f5d-a84d-c9a72374415e", "workspace_id": "f01ae36b-9beb-4f5d-a84d-c9a72374415e", "upstream_job_ids": ["97bd1272-fbce-4f79-8f8a-4a29e08566db"], "upstream_concurrency_map": {}, "workflow_name": "deployment"}, "vcs": {"commit_time": "2021-09-02T07:19:15.000Z", "type": "github", "url": "https://github.com/splunk/devsecops_poc", "revision": "35eb935a8742e74195f45edec69486b49a96632a", "tag": null, "committer_name": "P4T12ICK", "subject": "small change"}}
{"job_time": "2021-09-02T07:19:55.968Z", "stop_time": "2021-09-02T07:19:55.968Z", "start_time": "2021-09-02T07:19:23.189Z", "queued_time": "2021-09-02T07:19:20.447Z", "job_name": "Unknown", "reponame": "devsecops_poc", "build_num": 81, "build_url": "https://circleci.com/gh/splunk/devsecops_poc/81", "branch": "main", "status": "success", "project_slug": "gh/splunk/devsecops_poc", "fail_reason": null, "build_time_millis": 32779, "timedout": false, "username": "splunk", "owners": ["P4T12ICK"], "author_name": "P4T12ICK", "avatar_url": "", "workflows": {"job_name": "static-code-analysis", "job_id": "97bd1272-fbce-4f79-8f8a-4a29e08566db", "workflow_id": "f01ae36b-9beb-4f5d-a84d-c9a72374415e", "workspace_id": "f01ae36b-9beb-4f5d-a84d-c9a72374415e", "upstream_job_ids": [], "upstream_concurrency_map": {}, "workflow_name": "deployment"}, "vcs": {"commit_time": "2021-09-02T07:19:15.000Z", "type": "github", "url": "https://github.com/splunk/devsecops_poc", "revision": "35eb935a8742e74195f45edec69486b49a96632a", "tag": null, "committer_name": "P4T12ICK", "subject": "small change"}}
{"job_time": "2021-09-02T07:19:26.123Z", "stop_time": "2021-09-02T07:19:26.123Z", "start_time": "2021-09-02T07:18:54.661Z", "queued_time": "2021-09-02T07:18:50.521Z", "job_name": "Unknown", "reponame": "devsecops_poc", "build_num": 80, "build_url": "https://circleci.com/gh/splunk/devsecops_poc/80", "branch": "main", "status": "success", "project_slug": "gh/splunk/devsecops_poc", "fail_reason": null, "build_time_millis": 31462, "timedout": false, "username": "splunk", "owners": ["P4T12ICK"], "author_name": "P4T12ICK", "avatar_url": "", "workflows": {"job_name": "static-code-analysis", "job_id": "098e9630-6031-4279-8668-279138a58c17", "workflow_id": "45334cce-6e6f-4284-b198-b8d2709d03f2", "workspace_id": "45334cce-6e6f-4284-b198-b8d2709d03f2", "upstream_job_ids": [], "upstream_concurrency_map": {}, "workflow_name": "deployment"}, "vcs": {"commit_time": "2021-09-02T07:18:43.000Z", "type": "github", "url": "https://github.com/splunk/devsecops_poc", "revision": "a211d5314f9d8c4ddcf5f1bf2b39ae4da5ee5e97", "tag": null, "committer_name": "P4T12ICK", "subject": "small change"}}
